{
  "$type": "ConfigMonster",
  "headControl": {
    "$type": "ConfigHeadControl",
    "useHeadControl": true,
    "maxYawDegree": 20,
    "maxPitchDegree": 5,
    "animStates": [
      "NormalIdle/Standby",
      "NormalMove/WalkForward",
      "NormalMove/WalkBack",
      "NormalMove/WalkRight",
      "NormalMove/WalkLeft",
      "Turn/TurnLeft",
      "Turn/TurnRight"
    ]
  },
  "common": {
    "scale": 1.1,
    "viewSize": 1.8,
    "effectAttachShape": {
      "$type": "ConfigEffectAttachSkinnedMesh",
      "mesh": "EffectMesh"
    },
    "mass": 10000.0,
    "useGrassDisplacement": true,
    "affectedByWorld": true,
    "checkInSurface": true,
    "hasAfterImage": true,
    "height": 2,
    "modelHeight": 2.7,
    "clearAnimatorOnSetLightDeactive": true,
    "clearAIOnSetLightDeactive": true,
    "shouldPauseAnimatorBeforeReady": true
  },
  "model": {
    "bornEffect": "Eff_Monster_Common_Born"
  },
  "dither": {
    "showDitherDuration": 2.0
  },
  "equipController": {
    "attachPoints": {
      "equip01": "WeaponR",
      "equip02": "WeaponL"
    },
    "sheathPoint": ""
  },
  "move": {
    "$type": "ConfigAnimatorMove",
    "facingMove": "FourDirection",
    "monsterSizeType": "StoopType"
  },
  "billboard": {
    "$type": "ConfigCombatBillboard",
    "offsetType": "Character",
    "offset": {
      "x": 0,
      "y": 0,
      "z": 0
    },
    "radiusOffset": 0,
    "showHPBar": true,
    "size": "Big",
    "forceShowDistance": 50
  },
  "combat": {
    "property": {
      "endureType": "Monster_Demiboss_Humanoid",
      "weight": 150
    },
    "combatLock": {
      "denyLockOn": false,
      "lockType": "Avatar&Monster_Lv4"
    },
    "beHit": {
      "hitBloodEffect": "",
      "muteAllHit": false,
      "muteAllHitEffect": false,
      "muteAllHitText": false
    },
    "die": {
      "hasAnimatorDie": true,
      "dieDisappearEffect": "Eff_Death_Avatar_Common",
      "dieDisappearEffectDelay": 0,
      "dieEndTime": 3.2,
      "dieForceDisappearTime": 3.2,
      "dieShaderData": "AvatarDie",
      "useRagDoll": false,
      "dieDenyLockOn": true,
      "dieIsGhostToEnemy": true,
      "muteHitBox": true,
      "muteBillboard": true,
      "mutePushCollider": true
    },
    "animEvents": {
      "MeleeAtk": {
        "attackPattern": {
          "$type": "ConfigAttackBox",
          "triggerType": "TriggerNoRepeat",
          "size": {
            "x": 2,
            "y": 2.5,
            "z": 3.5
          },
          "born": {
            "$type": "ConfigBornBySelf",
            "offset": {
              "x": 0,
              "y": 1.5,
              "z": 0.5
            }
          },
          "ignoreMassive": true
        },
        "attackInfo": {
          "attackProperty": {
            "damagePercentage": 0.466,
            "strikeType": "Slash",
            "overrideByWeapon": false,
            "attackType": "Melee",
            "enBreak": 50,
            "elementDurability": 50
          },
          "hitPattern": {
            "onHitEffectName": "default",
            "hitImpulseType": "LV4",
            "canBeDefenceHalt": true,
            "muteHitText": false,
            "retreatType": "ByAttacker"
          }
        }
      },
      "MeleeAtkThunder": {
        "attackPattern": {
          "$type": "ConfigAttackBox",
          "triggerType": "TriggerNoRepeat",
          "size": {
            "x": 2,
            "y": 2.5,
            "z": 4
          },
          "born": {
            "$type": "ConfigBornBySelf",
            "offset": {
              "x": 0,
              "y": 1.5,
              "z": 0.5
            }
          },
          "ignoreMassive": true
        },
        "attackInfo": {
          "attackTag": "Monster_Samurai_Kairagi_ThunderHit",
          "attackProperty": {
            "damagePercentage": 0.466,
            "strikeType": "Slash",
            "overrideByWeapon": false,
            "attackType": "Melee",
            "enBreak": 50,
            "elementType": "Electric",
            "elementDurability": 50
          },
          "hitPattern": {
            "onHitEffectName": "default",
            "hitImpulseType": "LV4",
            "canBeDefenceHalt": true,
            "muteHitText": false,
            "retreatType": "ByAttacker"
          }
        }
      },
      "RushAtk": {
        "attackPattern": {
          "$type": "ConfigAttackBox",
          "triggerType": "TriggerNoRepeat",
          "size": {
            "x": 2,
            "y": 2.5,
            "z": 15
          },
          "born": {
            "$type": "ConfigBornBySelf",
            "offset": {
              "x": 0,
              "y": 1.5,
              "z": -7.5
            }
          },
          "ignoreMassive": true
        },
        "attackInfo": {
          "attackProperty": {
            "damagePercentage": 0.666,
            "strikeType": "Slash",
            "overrideByWeapon": false,
            "attackType": "Melee",
            "enBreak": 100,
            "elementDurability": 50
          },
          "hitPattern": {
            "onHitEffectName": "default",
            "hitImpulseType": "LV5",
            "canBeDefenceHalt": true,
            "muteHitText": false,
            "retreatType": "ByHitDirection"
          }
        }
      },
      "RushAtkThunder": {
        "attackPattern": {
          "$type": "ConfigAttackBox",
          "triggerType": "TriggerNoRepeat",
          "size": {
            "x": 2,
            "y": 2.5,
            "z": 15
          },
          "born": {
            "$type": "ConfigBornBySelf",
            "offset": {
              "x": 0,
              "y": 1.5,
              "z": -7.5
            }
          },
          "ignoreMassive": true
        },
        "attackInfo": {
          "attackTag": "Monster_Samurai_Kairagi_ThunderHit",
          "attackProperty": {
            "damagePercentage": 0.666,
            "strikeType": "Slash",
            "overrideByWeapon": false,
            "attackType": "Melee",
            "enBreak": 100,
            "elementType": "Electric",
            "elementDurability": 50
          },
          "hitPattern": {
            "onHitEffectName": "default",
            "hitImpulseType": "LV5",
            "canBeDefenceHalt": true,
            "muteHitText": false,
            "retreatType": "ByHitDirection"
          }
        }
      },
      "JumpAtk": {
        "attackPattern": {
          "$type": "ConfigAttackBox",
          "triggerType": "TriggerNoRepeat",
          "size": {
            "x": 2.5,
            "y": 3,
            "z": 4
          },
          "born": {
            "$type": "ConfigBornBySelf",
            "offset": {
              "x": 0,
              "y": 1.5,
              "z": 0
            }
          },
          "ignoreMassive": true
        },
        "attackInfo": {
          "attackProperty": {
            "damagePercentage": 0.8,
            "strikeType": "Blunt",
            "overrideByWeapon": false,
            "attackType": "Melee",
            "enBreak": 100,
            "elementDurability": 50
          },
          "hitPattern": {
            "onHitEffectName": "default",
            "hitImpulseType": "LV5",
            "canBeDefenceHalt": true,
            "muteHitText": false,
            "retreatType": "ByAttacker"
          },
          "cameraShake": {
            "shakeType": "CustomVector",
            "shakeDir": {
              "x": 0,
              "y": 1,
              "z": 0
            },
            "shakeDistance": 20,
            "shakeRange": 0.3,
            "shakeTime": 0.1
          },
          "forceCameraShake": true
        }
      },
      "JumpAtkThunder": {
        "attackPattern": {
          "$type": "ConfigAttackBox",
          "triggerType": "TriggerNoRepeat",
          "size": {
            "x": 4,
            "y": 3,
            "z": 11
          },
          "born": {
            "$type": "ConfigBornBySelf",
            "offset": {
              "x": 0,
              "y": 1.5,
              "z": 0
            }
          },
          "ignoreMassive": true
        },
        "attackInfo": {
          "attackTag": "Monster_Samurai_Kairagi_ThunderHit",
          "attackProperty": {
            "damagePercentage": 0.8,
            "strikeType": "Blunt",
            "overrideByWeapon": false,
            "attackType": "Melee",
            "enBreak": 100,
            "elementType": "Electric",
            "elementDurability": 50
          },
          "hitPattern": {
            "onHitEffectName": "default",
            "hitImpulseType": "LV5",
            "canBeDefenceHalt": true,
            "muteHitText": false,
            "retreatType": "ByAttacker"
          },
          "cameraShake": {
            "shakeType": "CustomVector",
            "shakeDir": {
              "x": 0,
              "y": 1,
              "z": 0
            },
            "shakeDistance": 20,
            "shakeRange": 0.3,
            "shakeTime": 0.1
          },
          "forceCameraShake": true
        }
      },
      "ChargeAtk": {
        "attackPattern": {
          "$type": "ConfigAttackCircle",
          "triggerType": "TriggerNoRepeat",
          "radius": 3,
          "height": 2,
          "born": {
            "$type": "ConfigBornBySelf",
            "offset": {
              "x": 0,
              "y": -0.1,
              "z": 0
            }
          },
          "ignoreMassive": true
        },
        "attackInfo": {
          "attackProperty": {
            "damagePercentage": 0.666,
            "strikeType": "Slash",
            "overrideByWeapon": false,
            "attackType": "Melee",
            "enBreak": 100,
            "elementDurability": 50
          },
          "hitPattern": {
            "onHitEffectName": "default",
            "hitImpulseType": "LV5",
            "canBeDefenceHalt": true,
            "muteHitText": false,
            "retreatType": "ByHitDirection"
          }
        }
      },
      "ChargeAtkThunder": {
        "attackPattern": {
          "$type": "ConfigAttackCircle",
          "triggerType": "TriggerNoRepeat",
          "radius": 5,
          "height": 2,
          "born": {
            "$type": "ConfigBornBySelf",
            "offset": {
              "x": 0,
              "y": -0.2,
              "z": 0
            }
          },
          "ignoreMassive": true
        },
        "attackInfo": {
          "attackTag": "Monster_Samurai_Kairagi_ThunderHit",
          "attackProperty": {
            "damagePercentage": 0.666,
            "strikeType": "Slash",
            "overrideByWeapon": false,
            "attackType": "Melee",
            "enBreak": 100,
            "elementType": "Electric",
            "elementDurability": 50
          },
          "hitPattern": {
            "onHitEffectName": "default",
            "hitImpulseType": "LV5",
            "canBeDefenceHalt": true,
            "muteHitText": false,
            "retreatType": "ByHitDirection"
          }
        }
      },
      "AddElementAtkThunder": {
        "attackPattern": {
          "$type": "ConfigAttackBox",
          "triggerType": "TriggerNoRepeat",
          "size": {
            "x": 4,
            "y": 3,
            "z": 6
          },
          "born": {
            "$type": "ConfigBornBySelf",
            "offset": {
              "x": 0,
              "y": 1.5,
              "z": 0
            }
          },
          "ignoreMassive": true
        },
        "attackInfo": {
          "attackTag": "Monster_Samurai_Kairagi_ThunderHit",
          "attackProperty": {
            "damagePercentage": 1.0,
            "strikeType": "Slash",
            "overrideByWeapon": false,
            "attackType": "Melee",
            "enBreak": 100,
            "elementType": "Electric",
            "elementDurability": 50
          },
          "hitPattern": {
            "onHitEffectName": "default",
            "hitImpulseType": "LV5",
            "canBeDefenceHalt": true,
            "muteHitText": false,
            "retreatType": "ByAttacker"
          },
          "cameraShake": {
            "shakeType": "CustomVector",
            "shakeDir": {
              "x": 0,
              "y": 1,
              "z": 0
            },
            "shakeDistance": 20,
            "shakeRange": 0.3,
            "shakeTime": 0.1
          },
          "forceCameraShake": true
        }
      }
    }
  },
  "stateLayers": {
    "defaultLayer": {
      "$type": "ConfigNormalStateLayer",
      "stateIDs": {
        "Born": {
          "$type": "ConfigMonsterStateIDInfo",
          "animatorStates": {
            "Born": ["Audio_Samurai_Kairagi_Born"]
          },
          "canSyncMove": true,
          "resetAnimatorTriggerOnExit": ["DoSkill"]
        },
        "NormalIdle": {
          "$type": "ConfigMonsterStateIDInfo",
          "animatorStates": {
            "Standby": []
          },
          "canDoSkill": true,
          "canSyncMove": true,
          "resetAnimatorTriggerOnExit": ["DoSkill"]
        },
        "NormalMove": {
          "$type": "ConfigMonsterStateIDInfo",
          "animatorStates": {
            "WalkForward": ["Audio_Samurai_Kairagi_Walk"],
            "WalkBack": ["Audio_Samurai_Kairagi_Walk"],
            "WalkRight": ["Audio_Samurai_Kairagi_Walk"],
            "WalkLeft": ["Audio_Samurai_Kairagi_Walk"],
            "WalkFree": ["Audio_Samurai_Kairagi_Walk"]
          },
          "canDoSkill": true,
          "canSteer": true,
          "canSyncMove": true,
          "resetAnimatorTriggerOnExit": ["DoSkill"]
        },
        "Turn": {
          "$type": "ConfigMonsterStateIDInfo",
          "animatorStates": {
            "TurnLeft": ["Audio_Samurai_Kairagi_Walk"],
            "TurnRight": ["Audio_Samurai_Kairagi_Walk"]
          },
          "canDoSkill": true,
          "canSyncMove": true,
          "canSteer": true,
          "resetAnimatorTriggerOnExit": ["DoSkill"]
        },
        "BeHit": {
          "$type": "ConfigMonsterStateIDInfo",
          "animatorStates": {
            "Hit_L": ["Audio_Samurai_Kairagi_Hit_L_VO"],
            "Hit_H": ["Audio_Samurai_Kairagi_Hit_H_VO"]
          },
          "resetAnimatorTriggerOnEnter": ["BeHit"],
          "resetAnimatorTriggerOnExit": ["DoSkill"]
        },
        "Run": {
          "$type": "ConfigMonsterStateIDInfo",
          "animatorStates": {
            "Run": ["Audio_Samurai_Kairagi_Run"]
          },
          "canDoSkill": true,
          "canSyncMove": true,
          "canSteer": true,
          "resetAnimatorTriggerOnExit": ["DoSkill"]
        },
        "RunFree": {
          "$type": "ConfigMonsterStateIDInfo",
          "animatorStates": {
            "RunFree": ["Audio_Samurai_Kairagi_Run"]
          },
          "canDoSkill": true,
          "canSyncMove": true,
          "canSteer": true,
          "resetAnimatorTriggerOnExit": ["DoSkill"]
        },
        "BeHitThrow": {
          "$type": "ConfigMonsterStateIDInfo",
          "animatorStates": {
            "HitThrow": [],
            "HitThrowDrop": [],
            "HitThrowToGround": ["Audio_Samurai_Kairagi_HitThrowToGround"]
          },
          "resetAnimatorTriggerOnEnter": ["BeHit", "HitAir2HitDrop"],
          "resetAnimatorTriggerOnExit": ["DoSkill"]
        },
        "Struggle": {
          "$type": "ConfigMonsterStateIDInfo",
          "animatorStates": {
            "Struggle": []
          },
          "resetAnimatorTriggerOnEnter": ["BeHit", "HitAir2HitDrop"],
          "resetAnimatorTriggerOnExit": ["DoSkill"]
        },
        "Die": {
          "$type": "ConfigMonsterStateIDInfo",
          "animatorStates": {
            "Die": ["", "Audio_Samurai_Kairagi_Die"],
            "Die2": ["", "Audio_Samurai_Kairagi_Die"],
            "SwimDie": [],
            "SwimDie_AS": []
          }
        },
        "Die_RagDoll": {
          "$type": "ConfigMonsterStateIDInfo",
          "animatorStates": {
            "AirDie": []
          },
          "enableRagDoll": true
        },
        "Alert": {
          "$type": "ConfigMonsterStateIDInfo",
          "animatorStates": {
            "Alert": ["Audio_Samurai_Kairagi_Alert"]
          },
          "canSteer": true,
          "resetAnimatorTriggerOnExit": ["BeHit", "DoSkill"]
        },
        "MeleeAtk1": {
          "$type": "ConfigMonsterStateIDInfo",
          "animatorStates": {
            "MeleeAttack1": [
              "Monster_Samurai_Kairagi_MeleeAttack1",
              "Audio_Samurai_Kairagi_MeleeAtk1"
            ],
            "MeleeAttack1_Thunder": [
              "Monster_Samurai_Kairagi_MeleeAttack1_Thunder",
              "Audio_Samurai_Kairagi_MeleeAtk1_Thunder"
            ],
            "ElementCombo_MeleeAttack1_Thunder": [
              "Monster_Samurai_Kairagi_MeleeAttack1_Thunder",
              "Audio_Samurai_Kairagi_MeleeAtk1_Thunder"
            ]
          },
          "canSteer": true,
          "resetAnimatorTriggerOnEnter": ["DoSkill"],
          "resetAnimatorTriggerOnExit": ["BeHit", "DoSkill"]
        },
        "MeleeAtk2": {
          "$type": "ConfigMonsterStateIDInfo",
          "animatorStates": {
            "MeleeAttack2": [
              "Monster_Samurai_Kairagi_MeleeAttack2",
              "Audio_Samurai_Kairagi_MeleeAtk2"
            ],
            "MeleeAttack2_Thunder": [
              "Monster_Samurai_Kairagi_MeleeAttack2_Thunder",
              "Audio_Samurai_Kairagi_MeleeAtk2_Thunder"
            ],
            "ElementCombo_MeleeAttack2_Thunder": [
              "Monster_Samurai_Kairagi_MeleeAttack2_Thunder",
              "Audio_Samurai_Kairagi_MeleeAtk2_Thunder"
            ]
          },
          "canSteer": true,
          "resetAnimatorTriggerOnEnter": ["DoSkill"],
          "resetAnimatorTriggerOnExit": ["BeHit", "DoSkill"]
        },
        "MeleeAtk3": {
          "$type": "ConfigMonsterStateIDInfo",
          "animatorStates": {
            "MeleeAttack3": [
              "Monster_Samurai_Kairagi_MeleeAttack3",
              "Audio_Samurai_Kairagi_MeleeAtk3"
            ],
            "MeleeAttack3_Thunder": [
              "Monster_Samurai_Kairagi_MeleeAttack3_Thunder",
              "Audio_Samurai_Kairagi_MeleeAtk3_Thunder"
            ],
            "ElementCombo_MeleeAttack3_Thunder": [
              "Monster_Samurai_Kairagi_MeleeAttack3_Thunder",
              "Audio_Samurai_Kairagi_MeleeAtk3_Thunder"
            ]
          },
          "canSteer": true,
          "resetAnimatorTriggerOnEnter": ["DoSkill"],
          "resetAnimatorTriggerOnExit": ["BeHit", "DoSkill"]
        },
        "RushAtk": {
          "$type": "ConfigMonsterStateIDInfo",
          "animatorStates": {
            "RushAtk": [
              "Monster_Samurai_Kairagi_RushAtk",
              "Audio_Samurai_Kairagi_RushAtk"
            ],
            "RushAtk_Thunder": [
              "Monster_Samurai_Kairagi_RushAtk_Thunder",
              "Audio_Samurai_Kairagi_RushAtk_Thunder"
            ],
            "DodgeRushAttack": [
              "Monster_Samurai_Kairagi_RushAtk_Thunder",
              "Audio_Samurai_Kairagi_RushAtk_Thunder"
            ],
            "ElementCombo_RushAtk_Thunder": [
              "Monster_Samurai_Kairagi_RushAtk_Thunder",
              "Audio_Samurai_Kairagi_RushAtk_Thunder"
            ]
          },
          "canSteer": true,
          "addEndure": 0,
          "resetAnimatorTriggerOnExit": ["BeHit", "DoSkill"]
        },
        "JumpAttack": {
          "$type": "ConfigMonsterStateIDInfo",
          "animatorStates": {
            "JumpAttack": [
              "Monster_Samurai_Kairagi_JumpAttack",
              "Audio_Samurai_Kairagi_JumpAtk"
            ],
            "JumpAttack_Thunder": [
              "Monster_Samurai_Kairagi_JumpAttack_Thunder",
              "Audio_Samurai_Kairagi_JumpAtk_Thunder"
            ],
            "ElementCombo_JumpAttack_Thunder": [
              "Monster_Samurai_Kairagi_JumpAttack_Thunder",
              "Audio_Samurai_Kairagi_JumpAtk_Thunder"
            ]
          },
          "canSteer": true,
          "canSyncMove": true,
          "addEndure": 0,
          "resetAnimatorTriggerOnExit": ["BeHit", "DoSkill"]
        },
        "ChargeAttack": {
          "$type": "ConfigMonsterStateIDInfo",
          "animatorStates": {
            "ChargeAttack": [
              "Monster_Samurai_Kairagi_ChargeAttack",
              "Audio_Samurai_Kairagi_DodgeChargeAtk"
            ],
            "ChargeAttack_Thunder": [
              "Monster_Samurai_Kairagi_ChargeAttack_Thunder",
              "Audio_Samurai_Kairagi_DodgeChargeAtk_Thunder"
            ],
            "Combo_ChargeAttack_Thunder": [
              "Monster_Samurai_Kairagi_ChargeAttack_Thunder",
              "Audio_Samurai_Kairagi_DodgeChargeAtk_Thunder"
            ],
            "DodgeChargeAttack": [
              "Monster_Samurai_Kairagi_ChargeAttack_Thunder",
              "Audio_Samurai_Kairagi_DodgeChargeAtk_Thunder"
            ]
          },
          "canSteer": true,
          "canSyncMove": true,
          "addEndure": 0,
          "resetAnimatorTriggerOnExit": ["BeHit", "DoSkill"]
        },
        "ElementAttack": {
          "$type": "ConfigMonsterStateIDInfo",
          "animatorStates": {
            "ElementAttack": [
              "Monster_Samurai_Kairagi_ElementAttack_Thunder",
              "Audio_Samurai_Kairagi_ElementAtk_Thunder"
            ]
          },
          "canSteer": true,
          "addEndure": 0,
          "resetAnimatorTriggerOnExit": ["BeHit", "DoSkill"]
        },
        "Angry": {
          "$type": "ConfigMonsterStateIDInfo",
          "animatorStates": {
            "Angry": [
              "Monster_Samurai_Kairagi_Angry_Thunder",
              "Audio_Samurai_Kairagi_Angry_01"
            ]
          },
          "canSteer": true,
          "addEndure": 0,
          "resetAnimatorTriggerOnExit": ["BeHit", "DoSkill"]
        },
        "Dodge": {
          "$type": "ConfigMonsterStateIDInfo",
          "animatorStates": {
            "Dodge": [
              "Monster_Samurai_Kairagi_Dodge",
              "Audio_Samurai_Kairagi_Dodge"
            ],
            "ForceDodge": [
              "Monster_Samurai_Kairagi_Dodge",
              "Audio_Samurai_Kairagi_Dodge"
            ]
          },
          "canSteer": true,
          "addEndure": 0,
          "resetAnimatorTriggerOnExit": ["BeHit", "DoSkill"]
        },
        "Provoke": {
          "$type": "ConfigMonsterStateIDInfo",
          "animatorStates": {
            "Provoke": ["Audio_Samurai_Kairagi_Provoke"]
          },
          "canSteer": true,
          "resetAnimatorTriggerOnExit": ["BeHit", "DoSkill"]
        },
        "DefendBS": {
          "$type": "ConfigMonsterStateIDInfo",
          "animatorStates": {
            "Defend_BS1": ["Audio_Samurai_Kairagi_Defend_BS1"],
            "Defend_BS2": ["Audio_Samurai_Kairagi_Defend_BS2"]
          },
          "canSteer": true,
          "resetAnimatorTriggerOnExit": ["BeHit", "DoSkill"]
        },
        "DefendLoop": {
          "$type": "ConfigMonsterStateIDInfo",
          "animatorStates": {
            "Defend_Loop1": [""],
            "Defend_Loop2": [""]
          },
          "canSteer": true,
          "resetAnimatorTriggerOnExit": ["BeHit", "DoSkill"]
        },
        "DefendHit": {
          "$type": "ConfigMonsterStateIDInfo",
          "animatorStates": {
            "Defend_Hit1": ["Audio_Samurai_Kairagi_Defend_Hit"],
            "Defend_Hit2": ["Audio_Samurai_Kairagi_Defend_Hit"]
          },
          "canSteer": true,
          "resetAnimatorTriggerOnExit": ["BeHit", "DoSkill"]
        },
        "DefendAS": {
          "$type": "ConfigMonsterStateIDInfo",
          "animatorStates": {
            "Defend_AS1": ["Audio_Samurai_Kairagi_Defend_AS1"],
            "Defend_AS2": ["Audio_Samurai_Kairagi_Defend_AS2"]
          },
          "canSteer": true,
          "resetAnimatorTriggerOnExit": ["BeHit", "DoSkill"]
        },
        "DefendBreak": {
          "$type": "ConfigMonsterStateIDInfo",
          "animatorStates": {
            "Defend_Break1": ["Audio_Samurai_Kairagi_Defend_Break1"],
            "Defend_Break2": ["Audio_Samurai_Kairagi_Defend_Break2"]
          },
          "canSteer": true,
          "resetAnimatorTriggerOnExit": ["BeHit", "DoSkill"]
        },
        "OutOfBattle": {
          "$type": "ConfigMonsterStateIDInfo",
          "animatorStates": {
            "OutOfBattle": ["Audio_Samurai_Kairagi_OutOfBattle"]
          },
          "canSteer": false,
          "resetAnimatorTriggerOnExit": ["BeHit", "DoSkill"]
        },
        "Command": {
          "$type": "ConfigMonsterStateIDInfo",
          "animatorStates": {
            "Command": [""]
          },
          "canSteer": false,
          "canDoSkill": true,
          "resetAnimatorTriggerOnExit": ["BeHit", "DoSkill"]
        },
        "Practice": {
          "$type": "ConfigMonsterStateIDInfo",
          "animatorStates": {
            "Practice": [""]
          },
          "canSteer": false,
          "canDoSkill": true,
          "resetAnimatorTriggerOnExit": ["BeHit", "DoSkill"]
        }
      }
    }
  },
  "abilities": [
    {
      "abilityName": "Monster_Samurai_Kairagi_01_RushAttack"
    },
    {
      "abilityName": "Monster_Samurai_Kairagi_01_Die"
    },
    {
      "abilityName": "Monster_Samurai_Kairagi_01_Steer"
    },
    {
      "abilityName": "Monster_Samurai_Kairagi_01_AddElement_Electric"
    },
    {
      "abilityName": "Monster_Samurai_Kairagi_Angry_Thunder"
    },
    {
      "abilityName": "Monster_Samurai_Kairagi_01_Alert"
    },
    {
      "abilityName": "Monster_Samurai_Kairagi_Block"
    },
    {
      "abilityName": "Monster_Samurai_Kairagi_01_OutOfBattle"
    },
    {
      "abilityName": "Monster_Samurai_EnsureVisible"
    },
    {
      "abilityName": "Monster_Samurai_Kairagi_ForceDodge"
    },
    {
      "abilityName": "Monster_Samurai_Kairagi_Thunder_AttackMark"
    },
    {
      "abilityName": "Monster_Samurai_Kairagi_ChangeToAngryPose"
    },
    {
      "abilityName": "Monster_Samurai_Kairagi_01_AddElement_ComboCheckDistance"
    },
    {
      "abilityName": "Monster_Samurai_Kairagi_GhostChallenge_PowerUp"
    },
    {
      "abilityName": "Monster_Samurai_Kairagi_SevenBlade_Affix"
    }
  ],
  "initialPoses": {
    "Default": {
      "initialPoseID": 1
    },
    "Command": {
      "initialPoseID": 1001,
      "initialPoseParams": {
        "boolParams": {
          "Command": "true"
        }
      }
    },
    "Sit": {
      "initialPoseID": 1002,
      "initialPoseParams": {
        "boolParams": {
          "Sit": "true"
        }
      }
    },
    "Practice": {
      "initialPoseID": 1003,
      "initialPoseParams": {
        "boolParams": {
          "Practice": "true"
        }
      }
    }
  },
  "aibeta": {
    "enable": true,
    "skillGCD": 3.0,
    "neurons": {
      "DefaultSetting": ["HIT"],
      "NeverCombat": []
    },
    "sensing": {
      "settings": {
        "DefaultSetting": {
          "viewRange": 25.0,
          "feelRange": 10.0
        },
        "NeverCombat": {
          "enableVision": false,
          "feelRange": 0.0,
          "hearAttractionRange": 0.0
        },
        "LowAlert": {
          "viewRange": 10,
          "feelRange": 5
        }
      },
      "templates": {
        "DefaultTemplate": {
          "DefaultPoses": "DefaultSetting",
          "1001": "DefaultSetting",
          "1002": "LowAlert",
          "1003": "DefaultSetting"
        },
        "NeverCombatTemplate": {
          "DefaultPoses": "NeverCombat"
        }
      }
    },
    "defendArea": {
      "enable": true,
      "defendRange": 50
    },
    "threat": {
      "clearThreatByLostPath": true,
      "clearThreatTimerByLostPath": 11,
      "viewAttenuation": [
        { "x": 10.0, "y": 2.0 },
        { "x": 15.0, "y": 0.8 },
        { "x": 20.0, "y": 0.5 },
        { "x": 25.0, "y": 0.3 },
        { "x": 30.0, "y": 0.2 }
      ],
      "resistTauntLevel": "Monster_TauntLevel_2"
    },
    "returnToBornTactic": {
      "enable": true,
      "defaultSetting": {
        "speedLevel": 2,
        "performTime": 5
      }
    },
    "wanderTactic": {
      "enable": true,
      "condition": {
        "pose": [1]
      },
      "defaultSetting": {
        "speedLevel": 1,
        "turnSpeedOverride": 1.0,
        "cdMin": 2.5,
        "cdMax": 5.0,
        "distanceFromBorn": 15.0,
        "distanceFromCurrentMin": 5,
        "distanceFromCurrentMax": 7.5
      }
    },
    "meleeChargeTactic": {
      "enable": true,
      "condition": {
        "pose": [101, 201, 301]
      },
      "defaultSetting": {
        "speedLevel": 2,
        "speedLevelInner": 1,
        "innerDistance": 0,
        "stopDistance": 7,
        "startDistanceMin": 10,
        "startDistanceMax": 99.0
      }
    },
    "facingMoveTactic": {
      "enable": true,
      "condition": {
        "pose": [101, 201, 301]
      },
      "defaultSetting": {
        "speedLevel": 1,
        "rangeMin": 0,
        "rangeMax": 7,
        "restTimeMin": 2,
        "restTimeMax": 5,
        "facingMoveTurnInterval": 1,
        "obstacleDetectRange": 1,
        "facingMoveWeight": {
          "stop": 0,
          "forward": 1,
          "back": 1,
          "left": 3,
          "right": 3
        }
      }
    },
    "skillGroupCDConfigs": [
      { "skillGroupCDID": 0, "skillGroupCDTime": 5 },
      { "skillGroupCDID": 1, "skillGroupCDTime": 10 },
      { "skillGroupCDID": 2, "skillGroupCDTime": 15 }
    ],
    "network": {
      "syncSkill": true
    },
    "skillSetting": {
      "skillEliteSet": {
        "1": [10001],
        "2": [1001]
      }
    },
    "skills": {
      "1": {
        "name": "OnAlert",
        "stateIDs": ["Alert"],
        "skillType": "OnAlert",
        "skillQueryingTime": 3,
        "triggerGCD": false,
        "ignoreGCD": true,
        "faceTarget": true
      },
      "2": {
        "cd": 5,
        "cdUpperRange": 5,
        "initialCD": 1,
        "name": "Command",
        "stateIDs": ["Command"],
        "skillType": "Free",
        "castCondition": {
          "pose": [1001]
        }
      },
      "3": {
        "cd": 5,
        "cdUpperRange": 5,
        "initialCD": 1,
        "name": "Practice",
        "stateIDs": ["Practice"],
        "skillType": "Free",
        "castCondition": {
          "pose": [1003]
        }
      },
      "101": {
        "cd": 5,
        "priority": 3,
        "cdUpperRange": 2.5,
        "name": "MeleeAtk",
        "stateIDs": ["MeleeAtk1", "MeleeAtk2", "MeleeAtk3"],
        "skillType": "Combat",
        "enableSkillPrepare": true,
        "skillPrepareSpeedLevel": 1,
        "skillPrepareTimeout": 2,
        //"skillQueryingTime": 2,
        "castCondition": {
          "pickRangeMin": 0,
          "pickRangeMax": 7,
          "castRangeMax": 2,
          "maxTargetAngleXZ": 90,
          "pose": [101]
        }
      },
      "102": {
        "cd": 2,
        "priority": 3,
        "cdUpperRange": 1,
        "name": "MeleeAtk",
        "stateIDs": ["MeleeAtk1", "MeleeAtk2", "MeleeAtk3", "ChargeAttack"],
        "skillType": "Combat",
        "enableSkillPrepare": true,
        "skillPrepareSpeedLevel": 1,
        "skillPrepareTimeout": 2,
        //"skillQueryingTime": 2,
        "castCondition": {
          "pickRangeMin": 0,
          "pickRangeMax": 7,
          "castRangeMax": 2,
          "maxTargetAngleXZ": 90,
          "pose": [201, 301]
        }
      },
      "201": {
        "cd": 7,
        "priority": 4,
        "cdUpperRange": 7,
        "initialCD": 1,
        "name": "RushAtk",
        "stateIDs": ["RushAtk"],
        "skillType": "Combat",
        "skillQueryingTime": 2,
        "flagSelfInZone": "11",
        "flagTargetReachable": "11",
        "castCondition": {
          "pickRangeMin": 5,
          "pickRangeMax": 15,
          "maxTargetAngleXZ": 90,
          "pose": [101]
        }
      },
      "202": {
        "cd": 1,
        "priority": 1,
        "initialCD": 1,
        "ignoreGCD": true,
        "name": "RushAtkFire",
        "stateIDs": ["RushAtk"],
        "skillType": "Combat",
        "skillQueryingTime": 2,
        "flagSelfInZone": "11",
        "flagTargetReachable": "11",
        "castCondition": {
          "pickRangeMin": 0,
          "pickRangeMax": 12,
          "maxTargetAngleXZ": 90,
          "pose": [201],
          "globalValues": ["_MONSTER_KAIRAGI_FIRE_HIT"],
          "globalValuesLogicAnd": false
        }
      },
      "203": {
        "cd": 3,
        "priority": 3,
        "cdUpperRange": 3,
        "initialCD": 1,
        "name": "RushAtk",
        "stateIDs": ["RushAtk"],
        "skillType": "Combat",
        "skillQueryingTime": 2,
        "flagSelfInZone": "11",
        // "flagTargetReachable":"11",
        "castCondition": {
          "pickRangeMin": 5,
          "pickRangeMax": 15,
          "maxTargetAngleXZ": 90,
          "pose": [201, 301]
        }
      },
      "301": {
        "cd": 7,
        "priority": 3,
        "cdUpperRange": 5,
        "initialCD": 1,
        "publicCDGroup": "Samurai_Kairagi_PowerAttack",
        "name": "JumpAttack",
        "stateIDs": ["JumpAttack"],
        "skillType": "Combat",
        "skillQueryingTime": 2,
        "enableSkillPrepare": true,
        "skillPrepareSpeedLevel": 2,
        "skillPrepareTimeout": 2,
        "castCondition": {
          "pickRangeMin": 5,
          "pickRangeMax": 10,
          "castRangeMax": 3,
          "maxTargetAngleXZ": 90,
          "pose": [101]
        }
      },
      "302": {
        "cd": 7,
        "priority": 3,
        "cdUpperRange": 5,
        "initialCD": 1,
        "publicCDGroup": "Samurai_Kairagi_PowerAttack",
        "name": "JumpAttack_Thunder",
        "stateIDs": ["JumpAttack"],
        "skillType": "Combat",
        "skillQueryingTime": 2,
        "enableSkillPrepare": true,
        "skillPrepareSpeedLevel": 2,
        "skillPrepareTimeout": 2,
        "castCondition": {
          "pickRangeMin": 5,
          "pickRangeMax": 10,
          "castRangeMax": 3,
          "maxTargetAngleXZ": 90,
          "pose": [201]
        }
      },
      "303": {
        "cd": 4,
        "priority": 3,
        "cdUpperRange": 2,
        "initialCD": 1,
        "publicCDGroup": "Samurai_Kairagi_PowerAttack",
        "name": "JumpAttack_Thunder",
        "stateIDs": ["JumpAttack"],
        "skillType": "Combat",
        "skillQueryingTime": 2,
        "castCondition": {
          "pickRangeMin": 5,
          "pickRangeMax": 10,
          "maxTargetAngleXZ": 90,
          "pose": [301]
        }
      },
      "401": {
        "cd": 10,
        "priority": 3,
        "cdUpperRange": 5,
        "initialCD": 1,
        "name": "ChargeAttack",
        "stateIDs": ["ChargeAttack"],
        "skillType": "Combat",
        "skillQueryingTime": 2,
        "flagSelfInZone": "11",
        //"flagTargetReachable":"11",
        "castCondition": {
          "pickRangeMin": 0,
          "pickRangeMax": 7,
          "pose": [101]
        }
      },
      "402": {
        "cd": 10,
        "priority": 3,
        "cdUpperRange": 5,
        "initialCD": 1,
        "publicCDGroup": "Samurai_Kairagi_PowerAttack",
        "name": "ChargeAttack_Thunder",
        "stateIDs": ["ChargeAttack"],
        "skillType": "Combat",
        "skillQueryingTime": 2,
        "flagSelfInZone": "11",
        //"flagTargetReachable":"11",
        "castCondition": {
          "pickRangeMin": 0,
          "pickRangeMax": 7,
          "pose": [201]
        }
      },
      "403": {
        "cd": 4,
        "priority": 3,
        "cdUpperRange": 2,
        "initialCD": 1,
        "name": "ChargeAttack_Thunder",
        "stateIDs": ["ChargeAttack"],
        "skillType": "Combat",
        "skillQueryingTime": 2,
        "flagSelfInZone": "11",
        //"flagTargetReachable":"11",
        "publicCDGroup": "Samurai_Kairagi_PowerAttack",
        "castCondition": {
          "pickRangeMin": 0,
          "pickRangeMax": 7,
          "pose": [301]
        }
      },
      "501": {
        "cd": 30,
        "priority": 2,
        "initialCD": 10,
        "name": "ElementAttack",
        "stateIDs": [
          "ElementAttack",
          "RushAtk",
          "JumpAttack",
          "MeleeAtk1",
          "MeleeAtk2",
          "MeleeAtk3"
        ],
        "skillType": "Combat",
        "skillQueryingTime": 2,
        "enableSkillPrepare": true,
        "skillPrepareSpeedLevel": 2,
        "skillPrepareTimeout": 5,
        "castCondition": {
          "pickRangeMin": 0,
          "pickRangeMax": 20,
          "castRangeMax": 3,
          "maxTargetAngleXZ": 90,
          "pose": [101, 301]
        }
      },
      "601": {
        "cd": 99999,
        "priority": 1,
        "cdUpperRange": 2.5,
        "ignoreGCD": true,
        "triggerGCD": false,
        "initialCD": 1,
        "name": "Angry",
        "stateIDs": ["Angry"],
        "skillType": "Combat",
        "skillQueryingTime": 2,
        "flagSelfInZone": "11",
        "flagTargetReachable": "11",
        "castCondition": {
          "pickRangeMin": 0,
          "pickRangeMax": 50,
          "pose": [301]
        }
      },
      "1001": {
        "cd": 5,
        "priority": 4,
        "cdUpperRange": 5,
        "triggerGCD": false,
        "ignoreGCD": true,
        "name": "Dodge",
        "stateIDs": ["Dodge"],
        "skillType": "Combat",
        "skillQueryingTime": 2,
        "castCondition": {
          "pickRangeMin": 0,
          "pickRangeMax": 4,
          "pose": [101, 201, 301]
        }
      },
      //用来标记如果一段时间内挨打过会开放dodge主动释放
      "10001": {
        "cd": 9999999,
        "initialCD": 9999999,
        "priority": 4,
        "cdUpperRange": 5,
        "triggerGCD": false,
        "ignoreGCD": true,
        "name": "Dodge",
        "stateIDs": ["Dodge"],
        "skillType": "Combat",
        "skillQueryingTime": 2,
        "castCondition": {
          "pickRangeMin": 0,
          "pickRangeMax": 4,
          "pose": [101, 201, 301]
        }
      },
      "1002": {
        "cd": 10,
        "priority": 5,
        "cdUpperRange": 5,
        "name": "Provoke",
        "triggerGCD": false,
        "ignoreGCD": true,
        "stateIDs": ["Provoke"],
        "skillType": "Combat",
        "skillQueryingTime": 2,
        "flagTargetReachable": "11",
        "flagSelfInZone": "11",
        "castCondition": {
          "pickRangeMin": 5,
          "pickRangeMax": 10,
          "pose": [101]
        }
      },
      "1003": {
        "priority": 4,
        "skillGroupCDID": 1,
        "initialCD": 1,
        "ignoreGCD": true,
        "triggerGCD": false,
        "name": "Defend1",
        "stateIDs": [
          "DefendBS",
          "DefendLoop",
          "DefendAS",
          "DefendBreak",
          "DefendHit"
        ],
        "skillType": "Combat",
        "skillQueryingTime": 2,
        "castCondition": {
          "pickRangeMin": 0,
          "pickRangeMax": 10,
          "pose": [101, 201]
        }
      },
      "1004": {
        "priority": 4,
        "skillGroupCDID": 1,
        "initialCD": 1,
        "ignoreGCD": true,
        "triggerGCD": false,
        "name": "Defend2",
        "stateIDs": [
          "DefendBS",
          "DefendLoop",
          "DefendAS",
          "DefendBreak",
          "DefendHit"
        ],
        "skillType": "Combat",
        "skillQueryingTime": 2,
        "castCondition": {
          "pickRangeMin": 0,
          "pickRangeMax": 10,
          "pose": [101, 201]
        }
      }
      ////////////////////////////////////////////////////////////////////
      ///
      /// Test
      ///
      ////////////////////////////////////////////////////////////////////
    }
  },
  "inputKeys": [
    //1
    {
      "keyID": 101,
      "inputKeyCode": 257
    },
    //2
    {
      "keyID": 201,
      "inputKeyCode": 258
    },
    //3
    {
      "keyID": 301,
      "inputKeyCode": 259
    },
    //4
    {
      "keyID": 401,
      "inputKeyCode": 260
    },
    //5
    {
      "keyID": 501,
      "inputKeyCode": 261
    },
    //6
    {
      "keyID": 601,
      "inputKeyCode": 262
    },
    //7
    {
      "keyID": 1001,
      "inputKeyCode": 263
    },
    //8
    {
      "keyID": 1002,
      "inputKeyCode": 264
    },
    //9
    {
      "keyID": 1003,
      "inputKeyCode": 265
    },
    // \+1
    {
      "keyID": 102,
      "inputKeyCode": 266
    },
    // \+2
    {
      "keyID": 202,
      "inputKeyCode": 267
    },
    // \+3
    {
      "keyID": 302,
      "inputKeyCode": 268
    },
    // \+4
    {
      "keyID": 402,
      "inputKeyCode": 269
    },
    // \+5
    {
      "keyID": 502,
      "inputKeyCode": 270
    },
    // \+6
    {
      "keyID": 1004,
      "inputKeyCode": 271
    }
  ],
  "audio": {
    "$type": "ConfigMonsterAudio",
    "animAudio": {
      "onTransitionOut": [
        {
          "currentStateName": "Weak_Loop",
          "audioEvent": { "text": "Stop_sfx_monster_gloves_wind_weak_Loop" },
          "otherStateNames": [""],
          "usage": "Any"
        },
        {
          "currentStateName": "Block_Loop",
          "audioEvent": { "text": "Stop_sfx_monster_gloves_wind_block_Loop" },
          "otherStateNames": [""],
          "usage": "Any"
        }
      ],
      "onTransitionIn": [
        {
          "currentStateName": "Weak_Loop",
          "audioEvent": { "text": "Play_sfx_monster_gloves_wind_weak_Loop" },
          "otherStateNames": [""],
          "usage": "Any"
        },
        {
          "currentStateName": "Block_Loop",
          "audioEvent": { "text": "Play_sfx_monster_gloves_wind_block_Loop" },
          "otherStateNames": [""],
          "usage": "Any"
        }
      ]
    },
    "disableEvent": {
      "text": ""
    },
    "destroyEvent": {
      "text": ""
    }
  }
}
