{
  "$type": "ConfigMonster",
  "headControl": {
    "$type": "ConfigHeadControl",
    "useHeadControl": true,
    "animStates": [
      "NormalIdle/Standby",
      "NormalMove/WalkForward",
      "NormalMove/WalkBack",
      "NormalMove/WalkRight",
      "NormalMove/WalkLeft",
      "NormalMove/Run",
      "Turn/TurnLeft",
      "Turn/TurnRight"
    ]
  },
  "common": {
    "viewSize": 1.0,
    "effectAttachShape": {
      "$type": "ConfigEffectAttachSkinnedMesh",
      "mesh": "EffectMesh"
    },
    "mass": 30.0,
    "useGrassDisplacement": true,
    "affectedByWorld": true,
    "checkInSurface": true,
    "scale": 1.1,
    "height": 1.35,
    "modelHeight": 1.35
  },
  "move": {
    "$type": "ConfigAnimatorMove",
    "facingMove": "FourDirection",
    "monsterSizeType": "StoopType"
  },
  "model": {
    "bornEffect": "Eff_Monster_Common_Born"
  },
  "equipController": {
    "attachPoints": {
      "equip01": "WeaponR",
      "equip02": "WeaponL"
    },
    "sheathPoint": ""
  },
  "billboard": {
    "$type": "ConfigCombatBillboard",
    "offsetType": "Character",
    "offset": {
      "x": -0.05,
      "y": 0,
      "z": 0
    },
    "showHPBar": true,
    "radiusOffset": 0.25,
    "size": "Normal"
  },
  "combat": {
    "property": {
      "weight": 75, //weightLevel = 2
      "endureType": "Monster_Minion",
      "endureshake": 0
    },
    "combatLock": {
      "denyLockOn": false,
      "lockType": "Avatar&Monster_Lv4",
      "overrideRange": -1,
      "overrideNormalPri": -1,
      "overrideCombatPri": -1
    },
    "beHit": {
      "hitBloodEffect": "",
      "muteAllHit": false,
      "muteAllHitEffect": false,
      "muteAllHitText": false
    },
    "die": {
      "hasAnimatorDie": true,
      "dieDisappearEffect": "Eff_Death_Common",
      "dieDisappearEffectDelay": 0.0,
      "dieEndTime": 2.0,
      "dieForceDisappearTime": 4,
      "dieModelFadeDelay": 0.5,
      "dieShaderData": "MonsterDie",
      "useRagDoll": true,
      "ragDollDieEndTimeDelay": 0.0,
      "muteHitBox": true,
      "dieDenyLockOn": true,
      "dieIsGhostToEnemy": true,
      "dieIgnoreTriggerBullet": true,
      "muteBillboard": true,
      "mutePushCollider": true
    },
    "animEvents": {
      "AtkL01": {
        "attackPattern": {
          "$type": "ConfigAttackCircle",
          "duration": 0.0,
          "triggerType": "TriggerNoRepeat",
          "fanAngle": 75.0,
          "radius": 2.0,
          "born": {
            "$type": "ConfigBornBySelf",
            "offset": {
              "x": 0.0,
              "y": 0.0,
              "z": -0.5
            }
          }
        },
        "attackInfo": {
          "attackProperty": {
            "damagePercentage": 1.0,
            "strikeType": "Blunt",
            "attackType": "Melee",
            "enBreak": 50.0
          },
          "hitPattern": {
            "onHitEffectName": "default",
            "hitImpulseType": "LV2",
            "reboundRatio": 0,
            "hitHaltTime": 0,
            "hitHaltTimeScale": 0,
            "muteHitText": false
          }
          // "forceCameraShake": false,
          // "cameraShake":
          // {
          // 	"shakeType": "HitVector",
          // 	"shakeRange": 0.16,
          // 	"shakeTime": 0.12,
          // 	"shakeDistance": 35,
          // 	"shakeDir":
          // 	{
          // 		"x":-1,
          // 		"y":1,
          // 		"z":0,
          // 	},
          // },
        }
      },
      "AtkL02": {
        "attackPattern": {
          "$type": "ConfigAttackCircle",
          "duration": 0.0,
          "triggerType": "TriggerNoRepeat",
          "fanAngle": 75.0,
          "radius": 2.0,
          "born": {
            "$type": "ConfigBornBySelf",
            "offset": {
              "x": 0.0,
              "y": 0.0,
              "z": -0.5
            }
          }
        },
        "attackInfo": {
          "attackProperty": {
            "damagePercentage": 1.0,
            "strikeType": "Blunt",
            "attackType": "Melee",
            "enBreak": 50.0
          },
          "hitPattern": {
            "onHitEffectName": "default",
            "hitImpulseType": "LV2",
            "reboundRatio": 0,
            "hitHaltTime": 0,
            "hitHaltTimeScale": 0,
            "muteHitText": false
          }
          // "forceCameraShake": false,
          // "cameraShake":
          // {
          // 	"shakeType": "HitVector",
          // 	"shakeRange": 0.16,
          // 	"shakeTime": 0.12,
          // 	"shakeDistance": 35,
          // 	"shakeDir":
          // 	{
          // 		"x":1,
          // 		"y":0,
          // 		"z":1,
          // 	},
          // },
        }
      },
      "AtkL03": {
        "attackPattern": {
          "$type": "ConfigAttackCircle",
          "duration": 0.0,
          "triggerType": "TriggerNoRepeat",
          "fanAngle": 75.0,
          "radius": 2.0,
          "born": {
            "$type": "ConfigBornBySelf",
            "offset": {
              "x": 0.0,
              "y": 0.0,
              "z": -0.5
            }
          }
        },
        "attackInfo": {
          "attackProperty": {
            "damagePercentage": 1.25,
            "strikeType": "Blunt",
            "attackType": "Melee",
            "enBreak": 100.0
          },
          "hitPattern": {
            "onHitEffectName": "default",
            "hitImpulseType": "LV4",
            "reboundRatio": 0,
            "hitHaltTime": 0,
            "hitHaltTimeScale": 0,
            "muteHitText": false
          },
          "forceCameraShake": false,
          "cameraShake": {
            "shakeType": "HitVector",
            "shakeRange": 0.04,
            "shakeTime": 0.09,
            "shakeDistance": 20,
            "shakeDir": {
              "x": 0,
              "y": -1,
              "z": 0
            }
          }
        }
      },
      "AtkH": {
        "attackPattern": {
          "$type": "ConfigAttackCircle",
          "duration": 0.0,
          "triggerType": "TriggerNoRepeat",
          "fanAngle": 75.0,
          "radius": 1.75,
          "born": {
            "$type": "ConfigBornBySelf",
            "offset": {
              "x": 0.0,
              "y": 0.0,
              "z": -0.5
            }
          }
        },
        "attackInfo": {
          "attackProperty": {
            "damagePercentage": 2.0,
            "strikeType": "Blunt",
            "attackType": "Melee",
            "enBreak": 200.0
          },
          "hitPattern": {
            "onHitEffectName": "default",
            "hitImpulseType": "LV5",
            "reboundRatio": 0,
            "hitHaltTime": 0,
            "hitHaltTimeScale": 0,
            "muteHitText": false
          },
          "forceCameraShake": false,
          "cameraShake": {
            "shakeType": "HitVector",
            "shakeRange": 0.06,
            "shakeTime": 0.09,
            "shakeDistance": 20,
            "shakeDir": {
              "x": 0,
              "y": -1,
              "z": 0
            }
          }
        }
      },
      "AtkNormal": {
        "attackPattern": {
          "$type": "ConfigAttackCircle",
          "duration": 0.0,
          "triggerType": "TriggerNoRepeat",
          "fanAngle": 60.0,
          "radius": 1.75,
          "born": {
            "$type": "ConfigBornBySelf",
            "offset": {
              "x": 0.0,
              "y": 0.0,
              "z": 0.0
            }
          }
        },
        "attackInfo": {
          "attackProperty": {
            "damagePercentage": 1.0,
            "strikeType": "Blunt",
            "attackType": "Melee",
            "enBreak": 80.0
          },
          "hitPattern": {
            "onHitEffectName": "default",
            "hitImpulseType": "LV3",
            "reboundRatio": 0,
            "hitHaltTime": 0.0,
            "hitHaltTimeScale": 0.01,
            "muteHitText": false
          }
          // "forceCameraShake": false,
          // "cameraShake":
          // {
          // 	"shakeType": "HitVector",
          // 	"shakeRange": 0.16,
          // 	"shakeTime": 0.12,
          // 	"shakeDistance": 35,
          // 	"shakeDir":
          // 	{
          // 		"x":-1,
          // 		"y":-1,
          // 		"z":0,
          // 	},
          // },
        }
      },
      "AtkNo": {
        "attackPattern": {
          "$type": "ConfigAttackCircle",
          "duration": 0.0,
          "triggerType": "TriggerNoRepeat",
          "fanAngle": 60.0,
          "radius": 1.5,
          "born": {
            "$type": "ConfigBornBySelf",
            "offset": {
              "x": 0.0,
              "y": 0.0,
              "z": -0.5
            }
          }
        },
        "attackInfo": {
          "attackProperty": {
            "damagePercentage": 0.75,
            "strikeType": "Blunt",
            "attackType": "Melee",
            "enBreak": 60.0
          },
          "hitPattern": {
            "onHitEffectName": "default",
            "hitImpulseType": "LV3",
            "reboundRatio": 0,
            "hitHaltTime": 0.0,
            "hitHaltTimeScale": 0.01,
            "muteHitText": false
          }
          // "forceCameraShake": false,
          // "cameraShake":
          // {
          // 	"shakeType": "HitVector",
          // 	"shakeRange": 0.12,
          // 	"shakeTime": 0.12,
          // 	"shakeDistance": 35,
          // 	"shakeDir":
          // 	{
          // 		"x":-1,
          // 		"y":-1,
          // 		"z":0,
          // 	},
          // },
        }
      },
      "DefendAttack_BS": {
        "attackPattern": {
          "$type": "ConfigAttackCircle",
          "duration": 0.0,
          "triggerType": "TriggerNoRepeat",
          "fanAngle": 120.0,
          "radius": 1.5,
          "born": {
            "$type": "ConfigBornBySelf",
            "offset": {
              "x": 0.0,
              "y": 0.0,
              "z": -0.5
            },
            "direction": {
              "$type": "ConfigDirectionByEntity",
              "angleOffset": {
                "x": 0.0,
                "y": -30.0,
                "z": 0.0
              }
            }
          }
        },
        "attackInfo": {
          "attackProperty": {
            "damagePercentage": 0.0,
            "strikeType": "None",
            "enBreak": 60.0
          },
          "hitPattern": {
            "onHitEffectName": "default",
            "hitImpulseType": "LV3",
            "reboundRatio": 0,
            "hitHaltTime": 0.12,
            "hitHaltTimeScale": 0.1,
            "muteHitText": true
          }
          // "forceCameraShake": false,
          // "cameraShake":
          // {
          // 	"shakeType": "HitVector",
          // 	"shakeRange": 0.12,
          // 	"shakeTime": 0.12,
          // 	"shakeDistance": 35,
          // 	"shakeDir":
          // 	{
          // 		"x":-1,
          // 		"y":0,
          // 		"z":1,
          // 	},
          // },
        }
      },
      "DefendAttack_AS": {
        "attackPattern": {
          "$type": "ConfigAttackCircle",
          "duration": 0.0,
          "triggerType": "TriggerNoRepeat",
          "fanAngle": 75.0,
          "radius": 2.0,
          "born": {
            "$type": "ConfigBornBySelf",
            "offset": {
              "x": 0.0,
              "y": 0.0,
              "z": -0.5
            }
          }
        },
        "attackInfo": {
          "attackProperty": {
            "damagePercentage": 1.0,
            "strikeType": "Blunt",
            "attackType": "Melee",
            "enBreak": 60.0
          },
          "hitPattern": {
            "onHitEffectName": "default",
            "hitImpulseType": "LV4",
            "reboundRatio": 0,
            "hitHaltTime": 0,
            "hitHaltTimeScale": 0,
            "muteHitText": false
          }
          // "forceCameraShake": false,
          // "cameraShake":
          // {
          // 	"shakeType": "HitVector",
          // 	"shakeRange": 0.12,
          // 	"shakeTime": 0.12,
          // 	"shakeDistance": 35,
          // 	"shakeDir":
          // 	{
          // 		"x":-1,
          // 		"y":-1,
          // 		"z":0,
          // 	},
          // },
        }
      }
    }
  },
  "inputKeys": [
    {
      "keyID": 201,
      "inputKeyCode": 257
    },
    {
      "keyID": 231,
      "inputKeyCode": 258
    },
    {
      "keyID": 211,
      "inputKeyCode": 259
    },
    {
      "keyID": 601,
      "inputKeyCode": 260
    },
    {
      "keyID": 221,
      "inputKeyCode": 262
    },
    {
      "keyID": 901,
      "inputKeyCode": 261
    },
    {
      "keyID": 301,
      "inputKeyCode": 264
    },
    {
      "keyID": 311,
      "inputKeyCode": 265
    }
  ],
  "stateLayers": {
    "defaultLayer": {
      "$type": "ConfigNormalStateLayer",
      "stateIDs": {
        "NormalIdle": {
          "$type": "ConfigMonsterStateIDInfo",
          "animatorStates": {
            "Standby": [],
            "Born": []
          },
          "combatMove": true,
          "canDoSkill": true,
          "canSyncMove": true,
          "resetAnimatorTriggerOnExit": ["DoSkill"]
        },
        "NormalMove": {
          "$type": "ConfigMonsterStateIDInfo",
          "animatorStates": {
            "WalkForward": ["Audio_Hili_Walk"],
            "WalkBack": ["Audio_Hili_Walk"],
            "WalkRight": ["Audio_Hili_Walk"],
            "WalkLeft": ["Audio_Hili_Walk"],
            "Run": ["Audio_Hili_Run"]
          },
          "combatMove": true,
          "canDoSkill": true,
          "canSteer": true,
          "canSyncMove": true,
          "resetAnimatorTriggerOnExit": ["DoSkill"]
        },
        "Turn": {
          "$type": "ConfigMonsterStateIDInfo",
          "animatorStates": {
            "TurnLeft": ["Audio_Hili_Walk"],
            "TurnRight": ["Audio_Hili_Walk"]
          },
          "combatMove": true,
          "canDoSkill": true,
          "canSteer": true,
          "autoSteer": true,
          "canSyncMove": true,
          "resetAnimatorTriggerOnExit": ["DoSkill"]
        },
        "WeaponOnFire": {
          "$type": "ConfigMonsterStateIDInfo",
          "animatorStates": {
            "WeaponOnFire": ["Audio_Hili_WeaponOnFire"]
          },
          "combatMove": true,
          "canSyncMove": true,
          "resetAnimatorTriggerOnExit": ["DoSkill"]
        },
        "BeHit": {
          "$type": "ConfigMonsterStateIDInfo",
          "animatorStates": {
            "Hit_L": ["Audio_Hili_Hit_L"],
            "Hit_H": ["Audio_Hili_Hit_H"],
            "DHit": ["Audio_Hili_Hit_L"]
          },
          "combatMove": true,
          "resetAnimatorTriggerOnEnter": ["BeHit"],
          "resetAnimatorTriggerOnExit": ["DoSkill"]
        },
        "BeHitThrow": {
          "$type": "ConfigMonsterStateIDInfo",
          "animatorStates": {
            "HitThrow": ["Audio_Hili_Hit_Throw"],
            "HitThrowDrop": [],
            "HitThrowToGround": ["Audio_Hili_Hit_ThrowToGround"]
          },
          "combatMove": true,
          "resetAnimatorTriggerOnEnter": ["BeHit", "HitAir2HitDrop"],
          "resetAnimatorTriggerOnExit": ["DoSkill"]
        },
        "Struggle": {
          "$type": "ConfigMonsterStateIDInfo",
          "animatorStates": {
            "Struggle": []
          },
          "combatMove": true,
          "resetAnimatorTriggerOnEnter": ["BeHit", "HitAir2HitDrop"],
          "resetAnimatorTriggerOnExit": ["DoSkill"]
        },
        "Die": {
          "$type": "ConfigMonsterStateIDInfo",
          "animatorStates": {
            "SwimDie": ["Monster_Hili_None_Die", "Audio_Hili_SwimDie"],
            "SwimDie_AS": ["Audio_Hili_SwimDie"]
          }
        },
        "Die_RagDoll": {
          "$type": "ConfigMonsterStateIDInfo",
          "animatorStates": {
            "Die1": ["Monster_Hili_None_Die", "Audio_Hili_Die1"],
            "Die2": ["Monster_Hili_None_Die", "Audio_Hili_Die2"],
            "AirDie": ["Monster_Hili_None_Die", "Audio_Hili_Die1"]
          },
          "enableRagDoll": true
        },
        "Life_Alert": {
          "$type": "ConfigMonsterStateIDInfo",
          "animatorStates": {
            "Alert": []
          },
          "combatMove": true,
          "resetAnimatorTriggerOnExit": ["BeHit", "DoSkill"]
        },
        "Life_Warning": {
          "$type": "ConfigMonsterStateIDInfo",
          "animatorStates": {
            "Warning": [
              "Monster_Undead01_Warning",
              "Monster_Hili_None_Alert",
              "Audio_Hili_Warning"
            ]
          },
          "combatMove": true,
          "resetAnimatorTriggerOnExit": ["BeHit", "DoSkill"]
        },
        "Life_Talk": {
          "$type": "ConfigMonsterStateIDInfo",
          "animatorStates": {
            "Talk": [],
            "Talk_Sit": []
          },
          "combatMove": true,
          "canDoSkill": true,
          "resetAnimatorTriggerOnExit": ["BeHit", "DoSkill"]
        },
        //////////////////////////////////////////////////
        //	Sit states
        //////////////////////////////////////////////////
        "TurnToSit": {
          "$type": "ConfigMonsterStateIDInfo",
          "animatorStates": {
            "TurnToSit": ["Monster_Hili_None_TurnToSit"]
          },
          "combatMove": true,
          "canDoSkill": true,
          "resetAnimatorTriggerOnExit": ["BeHit", "DoSkill"]
        },
        "OutOfSit": {
          "$type": "ConfigMonsterStateIDInfo",
          "animatorStates": {
            "OutOfSit": ["Monster_Hili_None_OutOfSit"]
          },
          "combatMove": true,
          "canDoSkill": true,
          "resetAnimatorTriggerOnExit": ["BeHit", "DoSkill"]
        },
        "Sit": {
          "$type": "ConfigMonsterStateIDInfo",
          "animatorStates": {
            "Sit": []
          },
          "combatMove": true,
          "canDoSkill": true,
          "canSyncMove": true,
          "resetAnimatorTriggerOnExit": ["DoSkill"]
        },
        "SitFree01": {
          "$type": "ConfigMonsterStateIDInfo",
          "animatorStates": {
            "SitFree01": []
          },
          "combatMove": true,
          "canDoSkill": true,
          "resetAnimatorTriggerOnExit": ["BeHit", "DoSkill"]
        },
        //////////////////////////////////////////////////
        //	Sleep states
        //////////////////////////////////////////////////
        "TurnToSleep": {
          "$type": "ConfigMonsterStateIDInfo",
          "animatorStates": {
            "TurnToSleep": ["Monster_Hili_None_TurnToSleep"]
          },
          "combatMove": true,
          "canDoSkill": true,
          "resetAnimatorTriggerOnExit": ["BeHit", "DoSkill"]
        },
        "OutOfSleep": {
          "$type": "ConfigMonsterStateIDInfo",
          "animatorStates": {
            "OutOfSleep": ["Monster_Hili_None_OutOfSleep"]
          },
          "combatMove": true,
          "canDoSkill": true,
          "resetAnimatorTriggerOnExit": ["BeHit", "DoSkill"]
        },
        "Sleep": {
          "$type": "ConfigMonsterStateIDInfo",
          "animatorStates": {
            "Sleep": ["Audio_Hili_Sleep"]
          },
          "combatMove": true,
          "canDoSkill": true,
          "canSyncMove": true,
          "resetAnimatorTriggerOnExit": ["DoSkill"]
        },
        "SleepFree01": {
          "$type": "ConfigMonsterStateIDInfo",
          "animatorStates": {
            "SleepFree01": []
          },
          "combatMove": true,
          "canDoSkill": true,
          "resetAnimatorTriggerOnExit": ["BeHit", "DoSkill"]
        },
        "SleepFree02": {
          "$type": "ConfigMonsterStateIDInfo",
          "animatorStates": {
            "SleepFree02": []
          },
          "combatMove": true,
          "canDoSkill": true,
          "resetAnimatorTriggerOnExit": ["BeHit", "DoSkill"]
        },
        "SleepFree03": {
          "$type": "ConfigMonsterStateIDInfo",
          "animatorStates": {
            "SleepFree03": []
          },
          "combatMove": true,
          "canDoSkill": true,
          "resetAnimatorTriggerOnExit": ["BeHit", "DoSkill"]
        },
        //////////////////////////////////////////////////
        //	Practice states
        //////////////////////////////////////////////////
        "TurnToPractice": {
          "$type": "ConfigMonsterStateIDInfo",
          "animatorStates": {
            "TurnToPractice": ["Monster_Hili_None_TurnToPractice"]
          },
          "combatMove": true,
          "canDoSkill": true,
          "resetAnimatorTriggerOnExit": ["BeHit", "DoSkill"]
        },
        "OutOfPractice": {
          "$type": "ConfigMonsterStateIDInfo",
          "animatorStates": {
            "OutOfPractice": ["Monster_Hili_None_OutOfPractice"]
          },
          "combatMove": true,
          "canDoSkill": true,
          "resetAnimatorTriggerOnExit": ["BeHit", "DoSkill"]
        },
        "Practice": {
          "$type": "ConfigMonsterStateIDInfo",
          "animatorStates": {
            "Practice": []
          },
          "combatMove": true,
          "canDoSkill": true,
          "canSyncMove": true,
          "resetAnimatorTriggerOnExit": ["DoSkill"]
        },
        "Practice_Action": {
          "$type": "ConfigMonsterStateIDInfo",
          "animatorStates": {
            "Practice_NoWeapon": ["Audio_Hili_Practice_NoWeapon"],
            "Practice_NoWeapon_Back": [],
            "Practice_Sword": ["Audio_Hili_Practice_Sword"],
            "Practice_Sword_Back": [],
            "Practice_Shoot_Aim": [],
            "Practice_Shoot_Attack": []
          },
          "combatMove": false,
          "canDoSkill": true,
          "canSyncMove": true,
          "resetAnimatorTriggerOnExit": ["DoSkill"]
        },
        //////////////////////////////////////////////////
        //	Threat states
        //////////////////////////////////////////////////
        "TurnToThreat": {
          "$type": "ConfigMonsterStateIDInfo",
          "animatorStates": {
            "TurnToThreat": ["Monster_Hili_None_TurnToThreat"]
          },
          "combatMove": true,
          "canDoSkill": true,
          "resetAnimatorTriggerOnExit": ["BeHit", "DoSkill"]
        },
        "OutOfThreat": {
          "$type": "ConfigMonsterStateIDInfo",
          "animatorStates": {
            "OutOfThreat": ["Monster_Hili_None_OutOfThreat"]
          },
          "combatMove": true,
          "canDoSkill": true,
          "resetAnimatorTriggerOnExit": ["BeHit", "DoSkill"]
        },
        "Threat": {
          "$type": "ConfigMonsterStateIDInfo",
          "animatorStates": {
            "Threat": []
          },
          "combatMove": true,
          "canDoSkill": true,
          "resetAnimatorTriggerOnExit": ["BeHit", "DoSkill"]
        },
        "ThreatFree01": {
          "$type": "ConfigMonsterStateIDInfo",
          "animatorStates": {
            "ThreatFree01_NoWeapon": ["Audio_Hili_Taunt"],
            "ThreatFree01_Club": ["Audio_Hili_Taunt"]
          },
          "combatMove": true,
          "canDoSkill": true,
          "resetAnimatorTriggerOnExit": ["BeHit", "DoSkill"]
        },
        "ThreatFree02": {
          "$type": "ConfigMonsterStateIDInfo",
          "animatorStates": {
            "ThreatFree02_NoWeapon": ["Audio_Hili_Taunt"],
            "ThreatFree02_Club": ["Audio_Hili_Taunt"]
          },
          "combatMove": true,
          "canDoSkill": true,
          "resetAnimatorTriggerOnExit": ["BeHit", "DoSkill"]
        },
        //////////////////////////////////////////////////
        //	Surround states
        //////////////////////////////////////////////////
        "TurnToSurround": {
          "$type": "ConfigMonsterStateIDInfo",
          "animatorStates": {
            "TurnToSurround": ["Monster_Hili_None_TurnToSurround"]
          },
          "combatMove": true,
          "canDoSkill": true,
          "resetAnimatorTriggerOnExit": ["BeHit", "DoSkill"]
        },
        "OutOfSurround": {
          "$type": "ConfigMonsterStateIDInfo",
          "animatorStates": {
            "OutOfSurround": ["Monster_Hili_None_OutOfSurround"]
          },
          "combatMove": true,
          "canDoSkill": true,
          "resetAnimatorTriggerOnExit": ["BeHit", "DoSkill"]
        },
        "Surround": {
          "$type": "ConfigMonsterStateIDInfo",
          "animatorStates": {
            "Surround": []
          },
          "combatMove": true,
          "canDoSkill": true,
          "resetAnimatorTriggerOnExit": ["BeHit", "DoSkill"]
        },
        "SurroundFree01": {
          "$type": "ConfigMonsterStateIDInfo",
          "animatorStates": {
            "SurroundFree01_NoWeapon": [],
            "SurroundFree01_Club": []
          },
          "combatMove": true,
          "canDoSkill": true,
          "resetAnimatorTriggerOnExit": ["BeHit", "DoSkill"]
        },
        //////////////////////////////////////////////////
        //	Build states
        //////////////////////////////////////////////////
        "TurnToBuild": {
          "$type": "ConfigMonsterStateIDInfo",
          "animatorStates": {
            "TurnToBuild": ["Monster_Hili_None_TurnToBuild"]
          },
          "combatMove": true,
          "canDoSkill": true,
          "resetAnimatorTriggerOnExit": ["BeHit", "DoSkill"]
        },
        "OutOfBuild": {
          "$type": "ConfigMonsterStateIDInfo",
          "animatorStates": {
            "OutOfBuild": ["Monster_Hili_None_OutOfBuild"]
          },
          "combatMove": true,
          "canDoSkill": true,
          "resetAnimatorTriggerOnExit": ["BeHit", "DoSkill"]
        },
        "Build": {
          "$type": "ConfigMonsterStateIDInfo",
          "animatorStates": {
            "Build": ["Monster_Hili_None_Build"]
          },
          "combatMove": true,
          "canDoSkill": true,
          "resetAnimatorTriggerOnExit": ["BeHit", "DoSkill"]
        },
        //////////////////////////////////////////////////
        //	Make states
        //////////////////////////////////////////////////
        "TurnToMake": {
          "$type": "ConfigMonsterStateIDInfo",
          "animatorStates": {
            "TurnToMake": ["Monster_Hili_None_TurnToMake"]
          },
          "combatMove": true,
          "canDoSkill": true,
          "resetAnimatorTriggerOnExit": ["BeHit", "DoSkill"]
        },
        "OutOfMake": {
          "$type": "ConfigMonsterStateIDInfo",
          "animatorStates": {
            "OutOfMake": ["Monster_Hili_None_OutOfMake"]
          },
          "combatMove": true,
          "canDoSkill": true,
          "resetAnimatorTriggerOnExit": ["BeHit", "DoSkill"]
        },
        "Make": {
          "$type": "ConfigMonsterStateIDInfo",
          "animatorStates": {
            "Make": ["Monster_Hili_None_Make"]
          },
          "combatMove": true,
          "canDoSkill": true,
          "resetAnimatorTriggerOnExit": ["BeHit", "DoSkill"]
        },
        //////////////////////////////////////////////////
        //	Search states
        //////////////////////////////////////////////////
        "TurnToSearch": {
          "$type": "ConfigMonsterStateIDInfo",
          "animatorStates": {
            "TurnToSearch": ["Monster_Hili_None_TurnToSearch"]
          },
          "combatMove": true,
          "canDoSkill": true,
          "resetAnimatorTriggerOnExit": ["BeHit", "DoSkill"]
        },
        "OutOfSearch": {
          "$type": "ConfigMonsterStateIDInfo",
          "animatorStates": {
            "OutOfSearch": ["Monster_Hili_None_OutOfSearch"]
          },
          "combatMove": true,
          "canDoSkill": true,
          "resetAnimatorTriggerOnExit": ["BeHit", "DoSkill"]
        },
        "Search": {
          "$type": "ConfigMonsterStateIDInfo",
          "animatorStates": {
            "Search": ["Monster_Hili_None_Search"]
          },
          "combatMove": true,
          "canDoSkill": true,
          "resetAnimatorTriggerOnExit": ["BeHit", "DoSkill"]
        },
        //////////////////////////////////////////////////
        //	Dance states
        //////////////////////////////////////////////////
        "TurnToDance": {
          "$type": "ConfigMonsterStateIDInfo",
          "animatorStates": {
            "TurnToDance": ["Monster_Hili_None_TurnToDance"]
          },
          "combatMove": true,
          "canDoSkill": true,
          "resetAnimatorTriggerOnExit": ["BeHit", "DoSkill"]
        },
        "OutOfDance": {
          "$type": "ConfigMonsterStateIDInfo",
          "animatorStates": {
            "OutOfDance": ["Monster_Hili_None_OutOfDance"]
          },
          "combatMove": true,
          "canDoSkill": true,
          "resetAnimatorTriggerOnExit": ["BeHit", "DoSkill"]
        },
        "Dance": {
          "$type": "ConfigMonsterStateIDInfo",
          "animatorStates": {
            "Dance": []
          },
          "combatMove": true,
          "canDoSkill": true,
          "resetAnimatorTriggerOnExit": ["BeHit", "DoSkill"]
        },
        //////////////////////////////////////////////////
        //         2.6      	Mining states
        //////////////////////////////////////////////////
        "TurnToMining": {
          "$type": "ConfigMonsterStateIDInfo",
          "animatorStates": {
            "TurnToMining": ["Monster_Hili_None_TurnToMining"]
          },
          "combatMove": true,
          "canDoSkill": true,
          "resetAnimatorTriggerOnExit": ["BeHit", "DoSkill"]
        },
        "OutOfMining": {
          "$type": "ConfigMonsterStateIDInfo",
          "animatorStates": {
            "OutOfMining": ["Monster_Hili_None_OutOfMining"]
          },
          "combatMove": true,
          "canDoSkill": true,
          "resetAnimatorTriggerOnExit": ["BeHit", "DoSkill"]
        },
        "Mining": {
          "$type": "ConfigMonsterStateIDInfo",
          "animatorStates": {
            "Mining": []
          },
          "canDoSkill": true,
          "resetAnimatorTriggerOnExit": ["BeHit", "DoSkill"]
        },
        "MiningFree": {
          "$type": "ConfigMonsterStateIDInfo",
          "animatorStates": {
            "Mining_01": [
              "Monster_Hili_None_Mining_Sparkle_Weak",
              "Audio_Hili_Mining_01"
            ],
            "Mining_02": [
              "Monster_Hili_None_Mining_Sparkle_Strong",
              "Audio_Hili_Mining_02"
            ]
          },
          "canDoSkill": true,
          "resetAnimatorTriggerOnExit": ["BeHit", "DoSkill"]
        },
        //////////////////////////////////////////////////
        //	Unclassified states
        //////////////////////////////////////////////////
        "Life_AwakeAlertBS": {
          "$type": "ConfigMonsterStateIDInfo",
          "animatorStates": {
            "AwakeAlert_BS": ["Monster_Hili_None_AwakeAlert"]
          },
          "combatMove": true,
          "resetAnimatorTriggerOnExit": ["BeHit", "DoSkill", "AwakeAlert"]
        },
        "Life_AwakeAlertAS": {
          "$type": "ConfigMonsterStateIDInfo",
          "animatorStates": {
            "AwakeAlert_AS": []
          },
          "combatMove": true,
          "canDoSkill": true,
          "resetAnimatorTriggerOnExit": ["BeHit", "DoSkill"]
        },
        "Sword_TripleAttack": {
          "$type": "ConfigMonsterStateIDInfo",
          "animatorStates": {
            //"Sword_TripleAttack": ["Monster_Undead01_TripleAttack", "Audio_Hili_TripleAtk"],
            "Sword_TripleAttack_First_BS": [
              "Monster_Undead01_TripleAttack_First"
            ],
            "Sword_TripleAttack_First_Halt": [
              "Monster_Undead01_TripleAttack_First"
            ],
            "Sword_TripleAttack_First": [
              "Monster_Undead01_TripleAttack_First",
              "Audio_Hili_TripleAtk_01",
              "Audio_Hili_TripleAtk"
            ],
            "Sword_TripleAttack_Second_Halt": [
              "Monster_Undead01_TripleAttack_Second"
            ],
            "Sword_TripleAttack_Second": [
              "Monster_Undead01_TripleAttack_Second",
              "Audio_Hili_TripleAtk_01"
            ],
            "Sword_TripleAttack_Thrid_Halt": [
              "Monster_Undead01_TripleAttack_Thrid"
            ],
            "Sword_TripleAttack_Thrid": [
              "Monster_Undead01_TripleAttack_Thrid",
              "Audio_Hili_TripleAtk_02"
            ]
          },
          "combatMove": true,
          "resetAnimatorTriggerOnExit": ["BeHit", "DoSkill"]
        },
        "Sword_ThumpAttack": {
          "$type": "ConfigMonsterStateIDInfo",
          "animatorStates": {
            //"Sword_ThumpAttack": ["Monster_Undead01_ThumpAttack", "Audio_Hili_ThumpAtk"],
            "Sword_ThumpAttack_BS": [
              "Monster_Undead01_ThumpAttack",
              "Audio_Hili_ThumpAtk"
            ],
            "Sword_ThumpAttack_Halt": ["Monster_Undead01_ThumpAttack"],
            "Sword_ThumpAttack": [
              "Monster_Undead01_ThumpAttack",
              "Audio_Hili_Sword_ThumpAttack"
            ]
          },
          "combatMove": true,
          "resetAnimatorTriggerOnExit": ["BeHit", "DoSkill"],
          "addEndure": 0.6
        },
        "Sword_NormalAttack": {
          "$type": "ConfigMonsterStateIDInfo",
          "animatorStates": {
            "Sword_NormalAttack": [
              "Monster_Hili_None_NormalAttack",
              "Audio_Hili_Sword_NormalAtk"
            ]
          },
          "combatMove": true,
          "resetAnimatorTriggerOnExit": ["BeHit", "DoSkill"]
        },
        "NoWeapon_Attack": {
          "$type": "ConfigMonsterStateIDInfo",
          "animatorStates": {
            "NoWeapon_Attack": [
              "Monster_Hili_None_NoWeaponAttack",
              "Audio_Hili_NormalAtk"
            ]
          },
          "combatMove": true,
          "resetAnimatorTriggerOnExit": ["BeHit", "DoSkill"]
        },
        "PickUp": {
          "$type": "ConfigMonsterStateIDInfo",
          "animatorStates": {
            "PickUp": ["Monster_Undead01_PickUp"]
          },
          "combatMove": true,
          "resetAnimatorTriggerOnExit": ["BeHit", "DoSkill"]
        },
        "Taunt": {
          "$type": "ConfigMonsterStateIDInfo",
          "animatorStates": {
            "Taunt_1": ["Audio_Hili_Taunt"],
            "Taunt_2": ["Audio_Hili_Taunt"],
            "Taunt_3": ["Audio_Hili_Taunt"]
          },
          "combatMove": true,
          "resetAnimatorTriggerOnExit": ["BeHit", "DoSkill"]
        },
        "Taunt_NoWeapon": {
          "$type": "ConfigMonsterStateIDInfo",
          "animatorStates": {
            "Taunt_NoWeapon_1": ["Audio_Hili_Taunt"],
            "Taunt_NoWeapon_2": ["Audio_Hili_Taunt"]
          },
          "combatMove": true,
          "resetAnimatorTriggerOnExit": ["BeHit", "DoSkill"]
        },
        "Aim": {
          "$type": "ConfigMonsterStateIDInfo",
          "animatorStates": {
            "Aim": []
          },
          "combatMove": true,
          "resetAnimatorTriggerOnExit": ["BeHit", "DoSkill"]
        },
        "Shoot": {
          "$type": "ConfigMonsterStateIDInfo",
          "animatorStates": {
            "Attack": [
              "Monster_Hili_Grass_Shoot_WithRandom",
              "Audio_Hili_Shoot_Atk"
            ]
          },
          "combatMove": true,
          "resetAnimatorTriggerOnExit": ["BeHit", "DoSkill"]
        },
        "Dodge": {
          "$type": "ConfigMonsterStateIDInfo",
          "animatorStates": {
            "Dodge": ["Audio_Hili_Crossbow_Dodge"]
          },
          "combatMove": true,
          "resetAnimatorTriggerOnExit": ["BeHit", "DoSkill", "DodgeTrigger"]
        },
        "Defend": {
          "$type": "ConfigMonsterStateIDInfo",
          "animatorStates": {
            "Defend": ["Audio_Hili_DefendAtk_Defend"]
          },
          "combatMove": true,
          "resetAnimatorTriggerOnEnter": ["DefendTrigger"],
          "resetAnimatorTriggerOnExit": ["BeHit", "DoSkill"]
        },
        "DefendAttack": {
          "$type": "ConfigMonsterStateIDInfo",
          "animatorStates": {
            "DefendAttack_BS": [
              "Monster_Hili_None_DefendAttack_BS",
              "Audio_Hili_DefendAtk_BS"
            ],
            "DefendAttack_AS": [
              "Monster_Hili_None_DefendAttack_AS",
              "Audio_Hili_DefendAtk_AS"
            ]
          },
          "combatMove": true,
          "resetAnimatorTriggerOnEnter": ["DefendAttackTrigger"],
          "resetAnimatorTriggerOnExit": ["BeHit", "DoSkill"],
          "addEndure": 0.6
        },
        "ThrowPebble": {
          "$type": "ConfigMonsterStateIDInfo",
          "animatorStates": {
            "ThrowPebble": [
              "Monster_Hili_None_ThrowPebble",
              "Audio_Hili_ThrowPebble"
            ]
          },
          "combatMove": true,
          "resetAnimatorTriggerOnExit": ["BeHit", "DoSkill"],
          "massRatio": 100.0
        },
        "ThrowPebble_Shield": {
          "$type": "ConfigMonsterStateIDInfo",
          "animatorStates": {
            "ThrowPebble_Shield": [
              "Monster_Hili_None_ThrowPebble_Shield",
              "Audio_Hili_ThrowPebble_Shield"
            ]
          },
          "combatMove": true,
          "resetAnimatorTriggerOnExit": ["BeHit", "DoSkill"],
          "massRatio": 100.0
        }
      }
    }
  },
  "abilities": [
    //////////////////////////////////////////////////
    //	Alert abilities
    //////////////////////////////////////////////////
    {
      "abilityID": "Alert",
      "abilityName": "Hili_None_Alert",
      "lightWeightRemove": true
    },
    {
      "abilityID": "AwakeAlert",
      "abilityName": "Hili_None_AwakeAlert",
      "lightWeightRemove": true
    },
    //////////////////////////////////////////////////
    //	Unclassified abilities
    //////////////////////////////////////////////////
    {
      "abilityID": "SteerAttack",
      "abilityName": "Hili_None_SteerAttack"
    },
    {
      "abilityID": "Shoot",
      "abilityName": "Hili_None_ShootArrow_WithRandom"
    },
    // {
    // 	"abilityID": "Dodge",
    // 	"abilityName": "Hili_None_Dodge",
    // },
    {
      "abilityID": "ThrowPebble_Effect",
      "abilityName": "Hili_None_ThrowPebble_Effect"
    },
    {
      "abilityID": "ThrowPebble",
      "abilityName": "Hili_None_ThrowPebble"
    },
    {
      "abilityID": "ThrowPebble_Shield_Effect",
      "abilityName": "Hili_None_ThrowPebble_Shield_Effect"
    },
    {
      "abilityID": "ThrowPebble_Shield",
      "abilityName": "Hili_None_ThrowPebble_Shield"
    },
    {
      "abilityID": "Hili_None_SpecialsState_Weapon",
      "abilityName": "Hili_None_SpecialsState_Weapon",
      "lightWeightRemove": true
    },
    {
      "abilityID": "Hili_None_SpecialsState_HideWeapon",
      "abilityName": "Hili_None_SpecialsState_HideWeapon",
      "lightWeightRemove": true
    },
    {
      "abilityID": "SpecialsState_AIStateInitial",
      "abilityName": "Hili_None_SpecialsState_AIStateInitial",
      "lightWeightRemove": true
    },
    {
      "abilityID": "EquipFlagManager",
      "abilityName": "Hili_None_EquipFlagManager"
    },
    {
      "abilityID": "Hili_ActionPointRegister",
      "abilityName": "Hili_None_ActionPointRegister",
      "lightWeightRemove": true
    },
    //////////////////////////////////////////////////
    //	Sleep abilities
    //////////////////////////////////////////////////
    {
      "abilityID": "TurnToSleep",
      "abilityName": "Hili_None_TurnToSleep",
      "lightWeightRemove": true
    },
    {
      "abilityID": "OutOfSleep",
      "abilityName": "Hili_None_OutOfSleep",
      "lightWeightRemove": true
    },
    //////////////////////////////////////////////////
    //	Sit abilities
    //////////////////////////////////////////////////
    {
      "abilityID": "TurnToSit",
      "abilityName": "Hili_None_TurnToSit",
      "lightWeightRemove": true
    },
    {
      "abilityID": "OutOfSit",
      "abilityName": "Hili_None_OutOfSit",
      "lightWeightRemove": true
    },
    //////////////////////////////////////////////////
    //	Practice abilities
    //////////////////////////////////////////////////
    {
      "abilityID": "TurnToPractice",
      "abilityName": "Hili_None_TurnToPractice",
      "lightWeightRemove": true
    },
    {
      "abilityID": "OutOfPractice",
      "abilityName": "Hili_None_OutOfPractice",
      "lightWeightRemove": true
    },
    //////////////////////////////////////////////////
    //	Threat abilities
    //////////////////////////////////////////////////
    {
      "abilityID": "TurnToThreat",
      "abilityName": "Hili_None_TurnToThreat",
      "lightWeightRemove": true
    },
    {
      "abilityID": "OutOfThreat",
      "abilityName": "Hili_None_OutOfThreat",
      "lightWeightRemove": true
    },
    //////////////////////////////////////////////////
    //	Surround abilities
    //////////////////////////////////////////////////
    {
      "abilityID": "TurnToSurround",
      "abilityName": "Hili_None_TurnToSurround",
      "lightWeightRemove": true
    },
    {
      "abilityID": "OutOfSurround",
      "abilityName": "Hili_None_OutOfSurround",
      "lightWeightRemove": true
    },
    //////////////////////////////////////////////////
    //	Build abilities
    //////////////////////////////////////////////////
    {
      "abilityID": "TurnToBuild",
      "abilityName": "Hili_None_TurnToBuild",
      "lightWeightRemove": true
    },
    {
      "abilityID": "OutOfBuild",
      "abilityName": "Hili_None_OutOfBuild",
      "lightWeightRemove": true
    },
    {
      "abilityID": "Build_Effect",
      "abilityName": "Hili_None_Build_Effect",
      "lightWeightRemove": true
    },
    //////////////////////////////////////////////////
    //	Make abilities
    //////////////////////////////////////////////////
    {
      "abilityID": "TurnToMake",
      "abilityName": "Hili_None_TurnToMake",
      "lightWeightRemove": true
    },
    {
      "abilityID": "OutOfMake",
      "abilityName": "Hili_None_OutOfMake",
      "lightWeightRemove": true
    },
    {
      "abilityID": "Make_Effect",
      "abilityName": "Hili_None_Make_Effect",
      "lightWeightRemove": true
    },
    //////////////////////////////////////////////////
    //	Search abilities
    //////////////////////////////////////////////////
    {
      "abilityID": "TurnToSearch",
      "abilityName": "Hili_None_TurnToSearch",
      "lightWeightRemove": true
    },
    {
      "abilityID": "OutOfSearch",
      "abilityName": "Hili_None_OutOfSearch",
      "lightWeightRemove": true
    },
    {
      "abilityID": "Search_Effect",
      "abilityName": "Hili_None_Search_Effect",
      "lightWeightRemove": true
    },
    //////////////////////////////////////////////////
    //	Dance abilities
    //////////////////////////////////////////////////
    {
      "abilityID": "TurnToDance",
      "abilityName": "Hili_None_TurnToDance",
      "lightWeightRemove": true
    },
    {
      "abilityID": "OutOfDance",
      "abilityName": "Hili_None_OutOfDance",
      "lightWeightRemove": true
    },
    //////////////////////////////////////////////////
    //	Mining abilities
    //////////////////////////////////////////////////
    {
      "abilityName": "Hili_None_TurnToMining",
      "lightWeightRemove": true
    },
    {
      "abilityName": "Hili_None_OutOfMining",
      "lightWeightRemove": true
    }
  ],
  "initialPoses": {
    "Default": {
      "initialPoseID": 0
    },
    "CrossBow_Fixed": {
      "initialPoseID": 402,
      "initialPoseParams": {
        "boolParams": {
          "CrossBow_Fixed": "true"
        }
      }
    },
    "Sleep": {
      "initialPoseID": 9002,
      "initialPoseParams": {
        "boolParams": {
          "Sleep": "true"
        }
      }
    },
    "Sit": {
      "initialPoseID": 9003,
      "initialPoseParams": {
        "boolParams": {
          "Sit": "true"
        }
      }
    },
    "Threat": {
      "initialPoseID": 9010,
      "initialPoseParams": {
        "boolParams": {
          "Threat": "true"
        }
      }
    },
    "Build": {
      "initialPoseID": 9015,
      "initialPoseParams": {
        "boolParams": {
          "Make": "true"
        }
      }
    },
    "Make": {
      "initialPoseID": 9011,
      "initialPoseParams": {
        "boolParams": {
          "Make": "true"
        }
      }
    },
    "Search": {
      "initialPoseID": 9016,
      "initialPoseParams": {
        "boolParams": {
          "Make": "true"
        }
      }
    },
    "Dance": {
      "initialPoseID": 9012,
      "initialPoseParams": {
        "boolParams": {
          "Dance": "true"
        }
      }
    },
    "Practice": {
      "initialPoseID": 9013,
      "initialPoseParams": {
        "boolParams": {
          "Practice": "true"
        }
      }
    },
    "Surround": {
      "initialPoseID": 9014,
      "initialPoseParams": {
        "boolParams": {
          "Surround": "true"
        }
      }
    },
    "Mining": {
      "initialPoseID": 9017,
      "initialPoseParams": {
        "boolParams": {
          "Mining": "true"
        }
      }
    }
  },
  "aibeta": {
    "enable": true,
    "skillGCD": 3.0,
    "moveSetting": {
      "almostReachedDistanceRun": 1.5
    },
    // For later use
    //"neurons": ["HIT", "ASLEEP", "AWAKE"],
    "neurons": {
      "DefaultSetting": ["HIT"],
      "Sleep": ["HIT", "ASLEEP", "AWAKE"],
      "Sit": ["HIT", "SIT"],
      "Threat": ["HIT", "THREAT"],
      "Surround": ["HIT", "SURROUND"],
      "Build": ["HIT", "BUILD"],
      "Make": ["HIT", "MAKE"],
      "Search": ["HIT", "SEARCH"],
      "Practice": ["HIT", "TRAIN"],
      "Dance": ["HIT", "DANCE"],
      "NeverCombat": []
    },
    "profiling": {
      "staticPoses": [9002, 9003]
    },
    "sensing": {
      "settings": {
        "DefaultSetting": {
          "viewRange": 30.0,
          "feelRange": 8.0
        },
        "HighAlert": {
          "viewRange": 40.0,
          "feelRange": 10.0
        },
        "Sleep": {
          "viewRange": 0.0,
          "feelRange": 3.0
        },
        "Sit": {
          "viewRange": 10.0,
          "feelRange": 5.0
        },
        "Threat": {
          "viewRange": 10.0,
          "feelRange": 5.0
        },
        "Make": {
          "viewRange": 10.0,
          "feelRange": 5.0
        },
        "Dance": {
          "viewRange": 10.0,
          "feelRange": 5.0
        },
        "NeverCombat": {
          "enableVision": false,
          "feelRange": 0.0,
          "hearAttractionRange": 0.0
        },
        "LowAlertForMimiTomo": {
          "viewRange": 5.0,
          "feelRange": 2.5,
          "hearAttractionRange": 0.0
        },
        "HighFeel": {
          "viewRange": 40.0,
          "feelRange": 20.0
        }
      },
      "templates": {
        "DefaultTemplate": {
          "DefaultPoses": "DefaultSetting",
          "9002": "Sleep",
          "9003": "Sit",
          "9010": "Threat",
          "9011": "Make",
          "9012": "Dance",
          "9017": "Make"
        },
        "HighAlertTemplate": {
          "DefaultPoses": "HighAlert",
          "9002": "Sleep",
          "9003": "Sit",
          "9010": "Threat",
          "9011": "Make",
          "9012": "Dance",
          "9017": "Make"
        },
        "NeverCombatTemplate": {
          "DefaultPoses": "NeverCombat",
          "9002": "NeverCombat",
          "9003": "NeverCombat",
          "9010": "NeverCombat",
          "9011": "NeverCombat",
          "9012": "NeverCombat"
        },
        "LowAlertForMimiTomoTemplate": {
          "DefaultPoses": "LowAlertForMimiTomo",
          "9002": "LowAlertForMimiTomo",
          "9003": "LowAlertForMimiTomo",
          "9010": "LowAlertForMimiTomo",
          "9011": "LowAlertForMimiTomo",
          "9012": "LowAlertForMimiTomo"
        },
        "HighFeelTemplate": {
          "DefaultPoses": "HighFeel",
          "9002": "Sleep",
          "9003": "Sit",
          "9010": "Threat",
          "9011": "Make",
          "9012": "Dance"
        }
      }
    },
    // For later use
    // "precombat":
    // {
    // 	"bioClockSleepFrom": 11,
    // 	"bioClockSleepTo": 12,
    // },
    "defendArea": {
      "enable": true
    },
    "threat": {
      "clearThreatTimerByDistance": 3.0,
      "clearThreatByLostPath": true,
      "clearThreatTimerByLostPath": 10,
      "viewAttenuation": [
        { "x": 10.0, "y": 2.0 },
        { "x": 15.0, "y": 0.8 },
        { "x": 20.0, "y": 0.5 },
        { "x": 25.0, "y": 0.3 },
        { "x": 30.0, "y": 0.2 }
      ]
    },
    "returnToBornTactic": {
      "enable": true,
      "defaultSetting": {
        "speedLevel": 2
      }
    },
    "investigateTactic": {
      "enable": true,
      "condition": {
        "pose": [1, 101, 401, 201, 301]
      }
    },
    // For later use
    "reactActionPointTactic": {
      "enable": true,
      "defaultSetting": {
        "reactList": [
          {
            "pointType": "SleepPoint",
            "detectDistance": 15,
            "pose": [1, 101, 401, 402, 201, 301],
            "nerveTrigger": ["ASLEEP"],
            "skillID": 111
          },
          {
            "pointType": "SitPoint",
            "detectDistance": 15,
            "pose": [1, 101, 401, 402, 201, 301],
            "nerveTrigger": ["SIT"],
            "skillID": 121
          },
          {
            "pointType": "TrainingPoint",
            "detectDistance": 15,
            "pose": [1, 101, 401, 402, 201, 301],
            "nerveTrigger": ["TRAIN"],
            "skillID": 1001
          },
          {
            "pointType": "ThreatPoint",
            "detectDistance": 15,
            "pose": [1, 101, 401, 402, 201, 301],
            "nerveTrigger": ["THREAT"],
            "skillID": 1101
          },
          {
            "pointType": "SurroundPoint",
            "detectDistance": 15,
            "pose": [1, 101, 401, 402, 201, 301],
            "nerveTrigger": ["SURROUND"],
            "skillID": 1201
          },
          {
            "pointType": "BuildingPoint",
            "detectDistance": 15,
            "pose": [1, 101, 401, 402, 201, 301],
            "nerveTrigger": ["BUILD"],
            "skillID": 1301
          },
          {
            "pointType": "MakingPoint",
            "detectDistance": 15,
            "pose": [1, 101, 401, 402, 201, 301],
            "nerveTrigger": ["MAKE"],
            "skillID": 1401
          },
          {
            "pointType": "SearchPoint",
            "detectDistance": 15,
            "pose": [1, 101, 401, 402, 201, 301],
            "nerveTrigger": ["MAKE"],
            "skillID": 1501
          },
          {
            "pointType": "DancingPoint",
            "detectDistance": 15,
            "pose": [1, 101, 401, 402, 201, 301],
            "nerveTrigger": ["DANCE"],
            "skillID": 1601
          },
          {
            "pointType": "MiningPoint",
            "detectDistance": 15,
            "pose": [1, 101, 401, 402, 201, 301],
            "nerveTrigger": ["MAKE"],
            "skillID": 1701
          }
        ]
      }
    },
    "wanderTactic": {
      "enable": true,
      "condition": {
        "pose": [1, 101, 401, 201, 301]
      },
      "defaultSetting": {
        "speedLevel": 1,
        "cdMin": 1.5,
        "cdMax": 3.0,
        "distanceFromBorn": 15.0,
        "distanceFromCurrentMin": 3.75,
        "distanceFromCurrentMax": 7.5
      }
    },
    "patrolFollowTactic": {
      "enable": true,
      "condition": {
        "pose": [1, 101, 201, 301]
      },
      "defaultSetting": {
        "speedLevel": 2,
        "innerDistance": 5.0,
        "speedLevelInner": 1,
        "outDistance": 35.0,
        "stopDistance": 2.0
      }
    },
    "meleeChargeTactic": {
      "enable": true,
      "condition": {
        "pose": [1001, 1101, 1301, 1201]
      },
      "defaultSetting": {
        "speedLevel": 2,
        "speedLevelInner": 1,
        "innerDistance": 0,
        "stopDistance": 4.5,
        "startDistanceMin": 6.0,
        "startDistanceMax": 50
      }
    },
    "facingMoveTactic": {
      "enable": true,
      "condition": {
        "pose": [1001, 1101, 1401, 1301, 1201]
      },
      "defaultSetting": {
        "speedLevel": 1,
        "rangeMin": 2.5,
        "rangeMax": 4.5,
        "facingMoveWeight": {
          "stop": 1.0,
          "forward": 0.0,
          "back": 0.0,
          "left": 2.0,
          "right": 2.0
        }
      },
      "specification": {
        "1401": {
          "rangeMin": 5,
          "rangeMax": 30,
          "facingMoveWeight": {
            "stop": 1,
            "forward": 0.0,
            "back": 0.0,
            "left": 0.0,
            "right": 0.0
          }
        },
        "1301": {
          "rangeMin": 2.0,
          "rangeMax": 3.0,
          "facingMoveWeight": {
            "stop": 1.0,
            "forward": 0.0,
            "back": 0.0,
            "left": 2.0,
            "right": 2.0
          }
        }
      }
    },
    "skills": {
      //////////////////////////////////////////////////
      //	Alert Skills
      //////////////////////////////////////////////////
      "103": {
        "name": "OnAlert",
        "stateIDs": ["Life_Warning"],
        "skillType": "OnAlert",
        "skillQueryingTime": 3,
        "triggerGCD": false,
        "ignoreGCD": true,
        "faceTarget": true
      },
      "104": {
        "name": "OnAlert",
        "stateIDs": ["Life_Warning"],
        "skillType": "OnNerve",
        "skillQueryingTime": 3,
        "triggerGCD": false,
        "ignoreGCD": true,
        "faceTarget": true,
        "castCondition": {
          "pose": [9002, 9003, 9010, 9011, 9012, 9013, 9014, 9015, 9016, 9017]
        },
        "nerveTrigger": ["HIT"]
      },
      //////////////////////////////////////////////////
      //	Unclassified Skills
      //////////////////////////////////////////////////
      "123": {
        "cd": 15.0,
        "cdUpperRange": 25.0,
        "ignoreGCD": false,
        "initialCD": 15.0,
        "initialCDUpperRange": 25.0,
        /*				"publicCDGroup": "meleeAttack_long",*/
        "name": "Talk_Sit",
        "stateIDs": ["Life_Talk"],
        "skillType": "Free",
        "castCondition": {
          "pose": [9003]
        }
      },
      "201": {
        "cd": 20.0,
        "cdUpperRange": 10.0,
        "initialCD": 10.0,
        "initialCDUpperRange": 10.0,
        "priority": 2,
        "publicCDGroup": "meleeAttack_long",
        "name": "ThumpAttack",
        "stateIDs": ["Sword_ThumpAttack"],
        "castCondition": {
          "pickRangeMin": 2.75,
          "pickRangeMax": 5.25,
          "pose": [1101]
        }
      },
      "211": {
        "cd": 3.0,
        "cdUpperRange": 1.0,
        "combatSkillType": "MeleeAttack",
        "name": "NoWeapon_Attack",
        "stateIDs": ["NoWeapon_Attack"],
        "enableSkillPrepare": true,
        "castCondition": {
          "pickRangeMin": 0.25,
          "pickRangeMax": 5.25,
          "castRangeMin": 1.25,
          "castRangeMax": 1.5,
          "pose": [1001]
        }
      },
      "212": {
        "cd": 2.5,
        "cdUpperRange": 1.0,
        "combatSkillType": "MeleeAttack",
        "name": "NoWeapon_Attack",
        "stateIDs": ["NoWeapon_Attack"],
        "flagSelfInZone": "01",
        "castCondition": {
          "pickRangeMin": 0.0,
          "pickRangeMax": 1.5,
          "pose": [1001]
        }
      },
      "221": {
        "priority": 4,
        "cd": 3.0,
        "cdUpperRange": 1.0,
        "combatSkillType": "MeleeAttack",
        "name": "SingleAttack",
        "stateIDs": ["Sword_NormalAttack"],
        "faceTarget": true,
        "castCondition": {
          "pickRangeMin": 1.5,
          "pickRangeMax": 3.25,
          "pose": [1101]
        }
      },
      "222": {
        "priority": 4,
        "cd": 3.5,
        "cdUpperRange": 1.5,
        "combatSkillType": "MeleeAttack",
        "name": "SingleAttack",
        "stateIDs": ["Sword_NormalAttack"],
        "faceTarget": true,
        "castCondition": {
          "pickRangeMin": 1.5,
          "pickRangeMax": 3.0,
          "pose": [1301]
        }
      },
      "223": {
        "priority": 4,
        "cd": 2.5,
        "cdUpperRange": 1.0,
        "combatSkillType": "MeleeAttack",
        "name": "SingleAttack",
        "stateIDs": ["Sword_NormalAttack"],
        "faceTarget": true,
        "flagSelfInZone": "01",
        "castCondition": {
          "pickRangeMin": 0,
          "pickRangeMax": 2.0,
          "pose": [1101, 1301]
        }
      },
      "231": {
        "priority": 3,
        "cd": 10.0,
        "cdUpperRange": 10.0,
        "initialCD": 5.0,
        "initialCDUpperRange": 10.0,
        "publicCDGroup": "meleeAttack_long",
        "name": "TripleAttack",
        "stateIDs": ["Sword_TripleAttack"],
        "castCondition": {
          "pickRangeMin": 0,
          "pickRangeMax": 4.25,
          "pose": [1101]
        }
      },
      "901": {
        "cd": 1.0,
        "cdUpperRange": 3.0,
        "name": "Taunt",
        "stateIDs": ["Taunt"],
        "publicCDGroup": "RandomAction",
        "flagSelfInZone": "01",
        "faceTarget": true,
        "ignoreGCD": true,
        "triggerGCD": false,
        "castCondition": {
          "pickRangeMin": 2.0,
          "pickRangeMax": 10.0,
          "pose": [1101, 1301, 9010],
          "maxTargetAngleY": 45.0
        }
      },
      "902": {
        "cd": 1.0,
        "cdUpperRange": 3.0,
        "name": "Taunt",
        "stateIDs": ["Taunt"],
        "publicCDGroup": "RandomAction",
        "flagTargetReachable": "01",
        "faceTarget": true,
        "ignoreGCD": true,
        "triggerGCD": false,
        "castCondition": {
          "pickRangeMin": 0.0,
          "pickRangeMax": 10.0,
          "pose": [1101, 1301, 9010],
          "maxTargetAngleY": 45.0
        }
      },
      "903": {
        "cd": 1.0,
        "cdUpperRange": 3.0,
        "name": "Taunt",
        "stateIDs": ["Taunt"],
        "publicCDGroup": "RandomAction",
        "flagSelfInZone": "01",
        "flagTargetReachable": "01",
        "faceTarget": true,
        "ignoreGCD": true,
        "triggerGCD": false,
        "castCondition": {
          "pickRangeMin": 0.0,
          "pickRangeMax": 10.0,
          "pose": [1101, 1301, 9010],
          "maxTargetAngleY": 45.0
        }
      },
      "904": {
        "priority": 2,
        "cd": 5.0,
        "cdUpperRange": 10.0,
        "name": "Taunt",
        "stateIDs": ["Taunt"],
        "publicCDGroup": "RandomAction",
        "faceTarget": true,
        //"ignoreGCD": true,
        //"triggerGCD": false,
        "castCondition": {
          "pickRangeMin": 6.0,
          "pickRangeMax": 30.0,
          "pose": [1101, 9010],
          "maxTargetAngleY": 45.0
        }
      },
      "905": {
        "cd": 2.0,
        "cdUpperRange": 5.0,
        "name": "Taunt",
        "stateIDs": ["Taunt"],
        "publicCDGroup": "RandomAction",
        "faceTarget": true,
        //"ignoreGCD": true,
        "triggerGCD": false,
        "castCondition": {
          "pickRangeMin": 3.0,
          "pickRangeMax": 6.0,
          "pose": [1101, 9010],
          "maxTargetAngleY": 45.0
        }
      },
      "906": {
        "cd": 15.0,
        "cdUpperRange": 15.0,
        "name": "Taunt",
        "stateIDs": ["Taunt"],
        "publicCDGroup": "RandomAction",
        "faceTarget": true,
        //"ignoreGCD": true,
        "triggerGCD": false,
        "castCondition": {
          "pickRangeMin": 3.0,
          "pickRangeMax": 6.0,
          "pose": [1301, 9010],
          "maxTargetAngleY": 45.0
        }
      },
      "911": {
        "cd": 1.0,
        "cdUpperRange": 3.0,
        "name": "Taunt_NoWeapon",
        "stateIDs": ["Taunt_NoWeapon"],
        "publicCDGroup": "RandomAction",
        "flagSelfInZone": "01",
        "faceTarget": true,
        "ignoreGCD": true,
        "triggerGCD": false,
        "castCondition": {
          "pickRangeMin": 2.0,
          "pickRangeMax": 10.0,
          "pose": [1001, 9010],
          "maxTargetAngleY": 45.0
        }
      },
      "912": {
        "cd": 1.0,
        "cdUpperRange": 3.0,
        "name": "Taunt_NoWeapon",
        "stateIDs": ["Taunt_NoWeapon"],
        "publicCDGroup": "RandomAction",
        "flagTargetReachable": "01",
        "faceTarget": true,
        "ignoreGCD": true,
        "triggerGCD": false,
        "castCondition": {
          "pickRangeMin": 0.0,
          "pickRangeMax": 10.0,
          "pose": [1001, 9010],
          "maxTargetAngleY": 45.0
        }
      },
      "913": {
        "cd": 1.0,
        "cdUpperRange": 3.0,
        "name": "Taunt_NoWeapon",
        "stateIDs": ["Taunt_NoWeapon"],
        "publicCDGroup": "RandomAction",
        "flagSelfInZone": "01",
        "flagTargetReachable": "01",
        "faceTarget": true,
        "ignoreGCD": true,
        "triggerGCD": false,
        "castCondition": {
          "pickRangeMin": 0.0,
          "pickRangeMax": 10.0,
          "pose": [1001, 9010],
          "maxTargetAngleY": 45.0
        }
      },
      "914": {
        "priority": 2,
        "cd": 5.0,
        "cdUpperRange": 10.0,
        "name": "Taunt_NoWeapon",
        "stateIDs": ["Taunt_NoWeapon"],
        "publicCDGroup": "RandomAction",
        "faceTarget": true,
        //"ignoreGCD": true,
        //"triggerGCD": false,
        "castCondition": {
          "pickRangeMin": 6.0,
          "pickRangeMax": 30.0,
          "pose": [1001, 9010],
          "maxTargetAngleY": 45.0
        }
      },
      "915": {
        "cd": 2.0,
        "cdUpperRange": 5.0,
        "name": "Taunt_NoWeapon",
        "stateIDs": ["Taunt_NoWeapon"],
        "publicCDGroup": "RandomAction",
        "faceTarget": true,
        //"ignoreGCD": true,
        "triggerGCD": false,
        "castCondition": {
          "pickRangeMin": 3.0,
          "pickRangeMax": 6.0,
          "pose": [1001, 9010],
          "maxTargetAngleY": 45.0
        }
      },
      "601": {
        "cd": 3.5,
        "combatSkillType": "RangedAttack",
        "name": "RangedAttack",
        "stateIDs": ["Aim", "Shoot"],
        "faceTarget": true,
        "flagSelfInZone": "11",
        "flagTargetReachable": "11",
        "flagSelfOnTemplateCollider": "11",
        "castCondition": {
          "pickRangeMin": 0.0,
          "pickRangeMax": 45.0,
          "pose": [1401, 1402]
        }
      },
      "301": {
        "cd": 5,
        "combatSkillType": "RangedAttack",
        "name": "ThrowPebble",
        "stateIDs": ["ThrowPebble"],
        "flagSelfOnTemplateCollider": "11",
        "castCondition": {
          "pickRangeMin": 4.25,
          "pickRangeMax": 15.0,
          "pose": [1001]
        }
      },
      "302": {
        "cd": 5,
        "combatSkillType": "RangedAttack",
        "name": "ThrowPebble",
        "stateIDs": ["ThrowPebble"],
        "flagTargetReachable": "01",
        "castCondition": {
          "pickRangeMin": 0.0,
          "pickRangeMax": 15.0,
          "pose": [1001]
        }
      },
      "303": {
        "cd": 5,
        "combatSkillType": "RangedAttack",
        "name": "ThrowPebble",
        "stateIDs": ["ThrowPebble"],
        "flagSelfInZone": "01",
        "flagTargetReachable": "11",
        "flagSelfOnTemplateCollider": "11",
        "castCondition": {
          "pickRangeMin": 0.0,
          "pickRangeMax": 15.0,
          "pose": [1001]
        }
      },
      "311": {
        "cd": 5,
        "combatSkillType": "RangedAttack",
        "name": "ThrowPebble_Shield",
        "stateIDs": ["ThrowPebble_Shield"],
        "flagSelfOnTemplateCollider": "11",
        "castCondition": {
          "pickRangeMin": 4.25,
          "pickRangeMax": 15.0,
          "pose": [1201]
        }
      },
      "312": {
        "cd": 5,
        "combatSkillType": "RangedAttack",
        "name": "ThrowPebble_Shield",
        "stateIDs": ["ThrowPebble_Shield"],
        "flagTargetReachable": "01",
        "castCondition": {
          "pickRangeMin": 0.0,
          "pickRangeMax": 15.0,
          "pose": [1201]
        }
      },
      "313": {
        "cd": 5,
        "combatSkillType": "RangedAttack",
        "name": "ThrowPebble_Shield",
        "stateIDs": ["ThrowPebble_Shield"],
        "flagSelfInZone": "01",
        "flagTargetReachable": "11",
        "flagSelfOnTemplateCollider": "11",
        "castCondition": {
          "pickRangeMin": 0.0,
          "pickRangeMax": 15.0,
          "pose": [1201]
        }
      },
      //////////////////////////////////////////////////
      //	Sleep Skills
      //////////////////////////////////////////////////
      "111": {
        "name": "TurnToSleep",
        "stateIDs": ["TurnToSleep"],
        "skillType": "ActionPoint",
        "skillQueryingTime": 3,
        "triggerGCD": false,
        "castCondition": {
          "pose": [1, 101, 401, 402, 201, 301]
        }
      },
      "112": {
        "name": "OutOfSleep",
        "stateIDs": ["OutOfSleep"],
        "skillType": "OnNerve",
        "skillQueryingTime": 3,
        "triggerGCD": false,
        "castCondition": {
          "pose": [9002]
        },
        "nerveTrigger": ["AWAKE"]
      },
      "124": {
        "cd": 15.0,
        "cdUpperRange": 25.0,
        "ignoreGCD": false,
        "initialCD": 15.0,
        "initialCDUpperRange": 25.0,
        /*				"publicCDGroup": "meleeAttack_long",*/
        "name": "SleepFree01",
        "stateIDs": ["SleepFree01"],
        "skillType": "Free",
        "castCondition": {
          "pose": [9002]
        }
      },
      "125": {
        "cd": 15.0,
        "cdUpperRange": 25.0,
        "ignoreGCD": false,
        "initialCD": 15.0,
        "initialCDUpperRange": 25.0,
        /*				"publicCDGroup": "meleeAttack_long",*/
        "name": "SleepFree02",
        "stateIDs": ["SleepFree02"],
        "skillType": "Free",
        "castCondition": {
          "pose": [9002]
        }
      },
      "126": {
        "cd": 15.0,
        "cdUpperRange": 25.0,
        "ignoreGCD": false,
        "initialCD": 15.0,
        "initialCDUpperRange": 25.0,
        /*				"publicCDGroup": "meleeAttack_long",*/
        "name": "SleepFree03",
        "stateIDs": ["SleepFree03"],
        "skillType": "Free",
        "castCondition": {
          "pose": [9002]
        }
      },
      //////////////////////////////////////////////////
      //	Sit Skills
      //////////////////////////////////////////////////
      "121": {
        "name": "TurnToSit",
        "stateIDs": ["TurnToSit"],
        "skillType": "ActionPoint",
        "skillQueryingTime": 3,
        "triggerGCD": false,
        "castCondition": {
          "pose": [1, 101, 401, 402, 201, 301]
        }
      },
      "122": {
        "name": "OutOfSit",
        "stateIDs": ["OutOfSit"],
        "skillType": "OnNerve",
        "skillQueryingTime": 3,
        "triggerGCD": false,
        "castCondition": {
          "pose": [9003]
        },
        "nerveTrigger": ["ASLEEP", "WEATHER_BAD"]
      },
      "127": {
        "cd": 15.0,
        "cdUpperRange": 15.0,
        "ignoreGCD": false,
        "initialCD": 15.0,
        "initialCDUpperRange": 15.0,
        /*				"publicCDGroup": "meleeAttack_long",*/
        "name": "SitFree01",
        "stateIDs": ["SitFree01"],
        "skillType": "Free",
        "castCondition": {
          "pose": [9003]
        }
      },
      //////////////////////////////////////////////////
      //	Practice Skills
      //////////////////////////////////////////////////
      "1001": {
        "name": "TurnToPractice",
        "stateIDs": ["TurnToPractice"],
        "skillType": "ActionPoint",
        "skillQueryingTime": 3,
        "triggerGCD": false,
        "castCondition": {
          "pose": [1, 101, 201, 301]
        }
      },
      "1002": {
        "name": "OutOfPractice",
        "stateIDs": ["OutOfPractice"],
        "skillType": "OnNerve",
        "skillQueryingTime": 3,
        "triggerGCD": false,
        "castCondition": {
          "pose": [9013]
        },
        "nerveTrigger": ["ASLEEP", "WEATHER_BAD"]
      },
      "1011": {
        "cd": 3.0,
        "cdUpperRange": 5.0,
        "ignoreGCD": false,
        "initialCD": 3.0,
        "name": "Practice",
        "stateIDs": ["Practice_Action"],
        "skillType": "Free",
        "castCondition": {
          "pose": [9013]
        }
      },
      //////////////////////////////////////////////////
      //	Threat Skills
      //////////////////////////////////////////////////
      "1101": {
        "name": "TurnToThreat",
        "stateIDs": ["TurnToThreat"],
        "skillType": "ActionPoint",
        "skillQueryingTime": 3,
        "triggerGCD": false,
        "castCondition": {
          "pose": [1, 101, 201, 301]
        }
      },
      "1102": {
        "name": "OutOfThreat",
        "stateIDs": ["OutOfThreat"],
        "skillType": "OnNerve",
        "skillQueryingTime": 3,
        "triggerGCD": false,
        "castCondition": {
          "pose": [9010]
        },
        "nerveTrigger": ["ASLEEP", "WEATHER_BAD"]
      },
      "1111": {
        "cd": 3.0,
        "cdUpperRange": 5.0,
        "ignoreGCD": false,
        "initialCD": 3.0,
        "name": "ThreatFree01",
        "stateIDs": ["ThreatFree01"],
        "skillType": "Free",
        "castCondition": {
          "pose": [9010]
        }
      },
      "1112": {
        "cd": 3.0,
        "cdUpperRange": 5.0,
        "ignoreGCD": false,
        "initialCD": 3.0,
        "name": "ThreatFree02",
        "stateIDs": ["ThreatFree02"],
        "skillType": "Free",
        "castCondition": {
          "pose": [9010]
        }
      },
      //////////////////////////////////////////////////
      //	Surround Skills
      //////////////////////////////////////////////////
      "1201": {
        "name": "TurnToSurround",
        "stateIDs": ["TurnToSurround"],
        "skillType": "ActionPoint",
        "skillQueryingTime": 3,
        "triggerGCD": false,
        "castCondition": {
          "pose": [1, 101, 201, 301]
        }
      },
      "1202": {
        "name": "OutOfSurround",
        "stateIDs": ["OutOfSurround"],
        "skillType": "OnNerve",
        "skillQueryingTime": 3,
        "triggerGCD": false,
        "castCondition": {
          "pose": [9014]
        },
        "nerveTrigger": ["ASLEEP", "WEATHER_BAD"]
      },
      "1211": {
        "cd": 3.0,
        "cdUpperRange": 5.0,
        "ignoreGCD": false,
        "initialCD": 3.0,
        "name": "SurroundFree01",
        "stateIDs": ["SurroundFree01"],
        "skillType": "Free",
        "castCondition": {
          "pose": [9014]
        }
      },
      //////////////////////////////////////////////////
      //	Build Skills
      //////////////////////////////////////////////////
      "1301": {
        "name": "TurnToBuild",
        "stateIDs": ["TurnToBuild"],
        "skillType": "ActionPoint",
        "skillQueryingTime": 3,
        "triggerGCD": false,
        "castCondition": {
          "pose": [1, 101, 201, 301]
        }
      },
      "1302": {
        "name": "OutOfBuild",
        "stateIDs": ["OutOfBuild"],
        "skillType": "OnNerve",
        "skillQueryingTime": 3,
        "triggerGCD": false,
        "castCondition": {
          "pose": [9015]
        },
        "nerveTrigger": ["ASLEEP", "WEATHER_BAD"]
      },
      //////////////////////////////////////////////////
      //	Make Skills
      //////////////////////////////////////////////////
      "1401": {
        "name": "TurnToMake",
        "stateIDs": ["TurnToMake"],
        "skillType": "ActionPoint",
        "skillQueryingTime": 3,
        "triggerGCD": false,
        "castCondition": {
          "pose": [1, 101, 201, 301]
        }
      },
      "1402": {
        "name": "OutOfMake",
        "stateIDs": ["OutOfMake"],
        "skillType": "OnNerve",
        "skillQueryingTime": 3,
        "triggerGCD": false,
        "castCondition": {
          "pose": [9011]
        },
        "nerveTrigger": ["ASLEEP", "WEATHER_BAD"]
      },
      //////////////////////////////////////////////////
      //	Search Skills
      //////////////////////////////////////////////////
      "1501": {
        "name": "TurnToSearch",
        "stateIDs": ["TurnToSearch"],
        "skillType": "ActionPoint",
        "skillQueryingTime": 3,
        "triggerGCD": false,
        "castCondition": {
          "pose": [1, 101, 201, 301]
        }
      },
      "1502": {
        "name": "OutOfSearch",
        "stateIDs": ["OutOfSearch"],
        "skillType": "OnNerve",
        "skillQueryingTime": 3,
        "triggerGCD": false,
        "castCondition": {
          "pose": [9016]
        },
        "nerveTrigger": ["ASLEEP", "WEATHER_BAD"]
      },
      //////////////////////////////////////////////////
      //	Dance Skills
      //////////////////////////////////////////////////
      "1601": {
        "name": "TurnToDance",
        "stateIDs": ["TurnToDance"],
        "skillType": "ActionPoint",
        "skillQueryingTime": 3,
        "triggerGCD": false,
        "castCondition": {
          "pose": [1, 101, 201, 301]
        }
      },
      "1602": {
        "name": "OutOfDance",
        "stateIDs": ["OutOfDance"],
        "skillType": "OnNerve",
        "skillQueryingTime": 3,
        "triggerGCD": false,
        "castCondition": {
          "pose": [9012]
        },
        "nerveTrigger": ["ASLEEP", "WEATHER_BAD"]
      },
      // 2.6层岩添加  用于挖矿生态布设
      "1701": {
        "name": "TurnToMining",
        "stateIDs": ["TurnToMining"],
        "skillType": "ActionPoint",
        "skillQueryingTime": 3,
        "triggerGCD": false,
        "castCondition": {
          "pose": [1, 101, 201, 301]
        }
      },
      "1702": {
        "name": "OutOfMining",
        "stateIDs": ["OutOfMining"],
        "skillType": "OnNerve",
        "skillQueryingTime": 3,
        "triggerGCD": false,
        "castCondition": {
          "pose": [9017]
        },
        "nerveTrigger": ["ASLEEP", "WEATHER_BAD"]
      },
      "1711": {
        "cd": 0.0,
        "cdUpperRange": 3.0,
        "ignoreGCD": true,
        "initialCD": 1.0,
        "name": "Mining_01",
        "stateIDs": ["MiningFree"],
        "skillType": "Free",
        "castCondition": {
          "pose": [9017]
        }
      },
      "1712": {
        "cd": 2.0,
        "cdUpperRange": 6.0,
        "ignoreGCD": true,
        "initialCD": 5.0,
        "name": "Mining_02",
        "stateIDs": ["MiningFree"],
        "skillType": "Free",
        "castCondition": {
          "pose": [9017]
        }
      }
    }
  },
  "audio": {
    "$type": "ConfigMonsterAudio",
    "animAudio": {
      "onTransitionOut": [
        {
          "currentStateName": "Sword_TripleAttack",
          "audioEvent": { "text": "Stop_sfx_monster_hili_club_tripleAttack" },
          "otherStateNames": [],
          "usage": "Any"
        },
        {
          "currentStateName": "Sword_ThumpAttack",
          "audioEvent": { "text": "Stop_sfx_monster_hili_club_attack" },
          "otherStateNames": [],
          "usage": "Any"
        },
        {
          "currentStateName": "Build",
          "audioEvent": { "text": "Stop_sfx_monster_hili_build" },
          "otherStateNames": [],
          "usage": "Any"
        },
        {
          "currentStateName": "Make",
          "audioEvent": { "text": "Stop_sfx_monster_hili_build" },
          "otherStateNames": [""],
          "usage": "Any"
        },
        {
          "currentStateName": "Practice_Sword",
          "audioEvent": { "text": "Stop_sfx_monster_hili_practice_sword" },
          "otherStateNames": [""],
          "usage": "Any"
        },
        {
          "currentStateName": "Practice_NoWeapon",
          "audioEvent": { "text": "Stop_sfx_monster_hili_practice_sword" },
          "otherStateNames": [""],
          "usage": "Any"
        },
        {
          "currentStateName": "Practice_Sword_Back",
          "audioEvent": { "text": "Stop_sfx_monster_hili_practice_back" },
          "otherStateNames": [""],
          "usage": "Any"
        },
        {
          "currentStateName": "Practice_NoWeapon_Back",
          "audioEvent": { "text": "Stop_sfx_monster_hili_practice_back" },
          "otherStateNames": [""],
          "usage": "Any"
        },
        {
          "currentStateName": "Practice_Shoot_Aim",
          "audioEvent": { "text": "Stop_sfx_monster_hili_practice_shoot_aim" },
          "otherStateNames": ["Practice_Shoot_Attack"],
          "usage": "Except"
        },
        {
          "currentStateName": "Practice_Shoot_Attack",
          "audioEvent": { "text": "Stop_sfx_monster_hili_practice_shoot_aim" },
          "otherStateNames": [""],
          "usage": "Any"
        },
        {
          "currentStateName": "Dance",
          "audioEvent": { "text": "Stop_sfx_monster_hili_dance" },
          "otherStateNames": [""],
          "usage": "Any"
        },
        {
          "currentStateName": "SurroundFree01_Club",
          "audioEvent": { "text": "Stop_sfx_monster_hili_dance" },
          "otherStateNames": [""],
          "usage": "Any"
        },
        {
          "currentStateName": "SurroundFree01_NoWeapon",
          "audioEvent": { "text": "Stop_sfx_monster_hili_dance" },
          "otherStateNames": [""],
          "usage": "Any"
        },
        {
          "currentStateName": "ThreatFree01_NoWeapon",
          "audioEvent": { "text": "Stop_sfx_monster_hili_dance" },
          "otherStateNames": [""],
          "usage": "Any"
        },
        {
          "currentStateName": "ThreatFree02_NoWeapon",
          "audioEvent": { "text": "Stop_sfx_monster_hili_dance" },
          "otherStateNames": [""],
          "usage": "Any"
        },
        {
          "currentStateName": "ThreatFree01_Club",
          "audioEvent": { "text": "Stop_sfx_monster_hili_dance" },
          "otherStateNames": [""],
          "usage": "Any"
        },
        {
          "currentStateName": "ThreatFree02_Club",
          "audioEvent": { "text": "Stop_sfx_monster_hili_dance" },
          "otherStateNames": [""],
          "usage": "Any"
        }
      ],
      "onTransitionIn": [
        {
          "currentStateName": "OutOfBuild",
          "audioEvent": { "text": "Stop_sfx_monster_hili_build" },
          "otherStateNames": [],
          "usage": "Any"
        },
        {
          "currentStateName": "Alert",
          "audioEvent": { "text": "Stop_sfx_monster_hili_build" },
          "otherStateNames": [],
          "usage": "Any"
        },
        {
          "currentStateName": "BeHit",
          "audioEvent": { "text": "Stop_sfx_monster_hili_build" },
          "otherStateNames": [],
          "usage": "Any"
        },
        {
          "currentStateName": "Die",
          "audioEvent": { "text": "Stop_sfx_monster_hili_build" },
          "otherStateNames": [],
          "usage": "Any"
        },
        {
          "currentStateName": "Die1",
          "audioEvent": { "text": "Stop_sfx_monster_hili_build" },
          "otherStateNames": [],
          "usage": "Any"
        },
        {
          "currentStateName": "Die2",
          "audioEvent": { "text": "Stop_sfx_monster_hili_build" },
          "otherStateNames": [],
          "usage": "Any"
        },
        {
          "currentStateName": "OutOfMake",
          "audioEvent": { "text": "Stop_sfx_monster_hili_build" },
          "otherStateNames": [""],
          "usage": "Any"
        },
        {
          "currentStateName": "Practice_Sword_Back",
          "audioEvent": { "text": "Play_sfx_monster_hili_practice_back" },
          "otherStateNames": [""],
          "usage": "Any"
        },
        {
          "currentStateName": "Practice_NoWeapon_Back",
          "audioEvent": { "text": "Play_sfx_monster_hili_practice_back" },
          "otherStateNames": [""],
          "usage": "Any"
        },
        {
          "currentStateName": "Practice_Shoot_Aim",
          "audioEvent": { "text": "Play_sfx_monster_hili_practice_shoot_aim" },
          "otherStateNames": [""],
          "usage": "Any"
        },
        {
          "currentStateName": "Dance",
          "audioEvent": { "text": "Play_sfx_monster_hili_dance" },
          "otherStateNames": [""],
          "usage": "Any"
        },
        {
          "currentStateName": "OutOfDance",
          "audioEvent": { "text": "Stop_sfx_monster_hili_dance" },
          "otherStateNames": [""],
          "usage": "Any"
        },
        {
          "currentStateName": "SurroundFree01_Club",
          "audioEvent": { "text": "Play_sfx_monster_hili_dance" },
          "otherStateNames": [""],
          "usage": "Any"
        },
        {
          "currentStateName": "SurroundFree01_NoWeapon",
          "audioEvent": { "text": "Play_sfx_monster_hili_dance" },
          "otherStateNames": [""],
          "usage": "Any"
        },
        {
          "currentStateName": "OutOfSurround",
          "audioEvent": { "text": "Stop_sfx_monster_hili_dance" },
          "otherStateNames": [""],
          "usage": "Any"
        },
        {
          "currentStateName": "Alert",
          "audioEvent": { "text": "Stop_sfx_monster_hili_dance" },
          "otherStateNames": [],
          "usage": "Any"
        },
        {
          "currentStateName": "BeHit",
          "audioEvent": { "text": "Stop_sfx_monster_hili_dance" },
          "otherStateNames": [],
          "usage": "Any"
        },
        {
          "currentStateName": "Die",
          "audioEvent": { "text": "Stop_sfx_monster_hili_dance" },
          "otherStateNames": [],
          "usage": "Any"
        },
        {
          "currentStateName": "Die1",
          "audioEvent": { "text": "Stop_sfx_monster_hili_dance" },
          "otherStateNames": [],
          "usage": "Any"
        },
        {
          "currentStateName": "Die2",
          "audioEvent": { "text": "Stop_sfx_monster_hili_dance" },
          "otherStateNames": [],
          "usage": "Any"
        },
        {
          "currentStateName": "ThreatFree01_NoWeapon",
          "audioEvent": { "text": "Play_sfx_monster_hili_dance" },
          "otherStateNames": [""],
          "usage": "Any"
        },
        {
          "currentStateName": "ThreatFree02_NoWeapon",
          "audioEvent": { "text": "Play_sfx_monster_hili_dance" },
          "otherStateNames": [""],
          "usage": "Any"
        },
        {
          "currentStateName": "ThreatFree01_Club",
          "audioEvent": { "text": "Play_sfx_monster_hili_dance" },
          "otherStateNames": [""],
          "usage": "Any"
        },
        {
          "currentStateName": "ThreatFree02_Club",
          "audioEvent": { "text": "Play_sfx_monster_hili_dance" },
          "otherStateNames": [""],
          "usage": "Any"
        },
        {
          "currentStateName": "OutOfThreat",
          "audioEvent": { "text": "Stop_sfx_monster_hili_dance" },
          "otherStateNames": [""],
          "usage": "Any"
        }
      ]
    },
    "disableEvent": {
      "text": "Stop_sfx_monster_hili_dance"
    },
    "destroyEvent": {
      "text": "Stop_sfx_monster_hili_dance"
    },
    "randomVariantSwitchGroup": {
      "text": ""
    },
    "randomVariantSwitchValues": [
      {
        "text": ""
      }
    ]
  }
}
