{
  "$type": "ConfigMonster",
  // "headControl" :
  // {
  // 	"$type": "ConfigHeadControl",
  // 	"useHeadControl": false,
  // 	"maxYawDegree": 50,
  // 	"maxPitchDegree": 45,
  // 	"animStates":
  // 	[

  // 	],
  // },
  "common": {
    "mass": 40.0,
    "height": 0.9,
    "modelHeight": 0.9,
    "affectedByWorld": true,
    "checkInSurface": true,
    "scale": 1.0,
    "viewSize": 1.0,
    "effectAttachShape": {
      "$type": "ConfigEffectAttachSkinnedMesh",
      "mesh": "EffectMesh"
    },
    "clearAnimatorOnSetLightDeactive": true,
    "clearAIOnSetLightDeactive": true,
    "recoverByInitPose": true,
    "useGrassDisplacement": true
  },
  "move": {
    "$type": "ConfigAnimatorMove",
    "facingMove": "ForwardBackward",
    "airFacingMove": "AirBlend3D",
    "monsterSizeType": "SlimeType",
    "moveOnWater": false,
    "launchStates": ["Launch_Loop"],
    "landStates": ["Drop_Loop"],
    "raycasts": [
      {
        "raycastLength": 5.0,
        "raycastType": "DownToGroundAndWaterOnlyInAir"
      }
    ],
    "positionModifyExtra": true
    // "velocityForce":
    // {
    // 	"excludeForces": ["WindZoneType", "AirflowType"],
    // },
  },
  "dither": {
    "showDitherDuration": 2.0
  },
  "billboard": {
    "$type": "ConfigCombatBillboard",
    "offset": {
      "x": 0,
      "y": 0.5,
      "z": 0
    },
    "radiusOffset": 1.0,
    "enableSelfAdapt": true,
    "showHPBar": true,
    "size": "Normal"
  },
  "model": {
    "canBakeMesh": false
  },
  "combat": {
    "property": {
      "endureType": "Monster_Slime",
      "weight": 75 //weightLevel = 3
    },
    "combatLock": {
      "denyLockOn": false,
      "lockType": "Avatar&Monster_Lv4"
    },
    "beHit": {
      "hitBloodEffect": "",
      "hitAutoRedirect": true,
      "muteAllHit": false,
      "muteAllHitEffect": false,
      "muteAllHitText": false
    },
    "die": {
      "hasAnimatorDie": true,
      "dieDisappearEffect": "Eff_Death_Common",
      "dieDisappearEffectDelay": 0.0,
      "dieEndTime": 0.5,
      "dieForceDisappearTime": 1.5,
      "dieModelFadeDelay": 0.0,
      "dieShaderData": "MonsterDie",
      "muteHitBox": true,
      "dieDenyLockOn": true,
      "dieIsGhostToEnemy": true,
      "dieIgnoreTriggerBullet": true,
      "muteBillboard": true,
      "mutePushCollider": true
    },
    "animEvents": {
      "RamNormal": {
        "attackPattern": {
          "$type": "ConfigAttackCircle",
          "duration": 0.0,
          "triggerType": "TriggerNoRepeat",
          "fanAngle": 90.0,
          "radius": 2.0,
          "height": 1.8,
          "born": {
            "$type": "ConfigBornBySelf",
            "offset": {
              "x": 0.0,
              "y": 0.5,
              "z": 0.0
            }
          }
        },
        "attackInfo": {
          "attackProperty": {
            "damagePercentage": 0.3,
            "strikeType": "Blunt",
            "attackType": "Melee",
            "enBreak": 60.0
          },
          "hitPattern": {
            "onHitEffectName": "default",
            "hitImpulseType": "LV2",
            "reboundRatio": 0,
            "hitHaltTime": 0,
            "hitHaltTimeScale": 0,
            "muteHitText": false
          }
        }
      },
      "RamDecayed": {
        "attackPattern": {
          "$type": "ConfigAttackCircle",
          "duration": 0.0,
          "triggerType": "TriggerNoRepeat",
          "fanAngle": 90.0,
          "radius": 2.4,
          "height": 1.8,
          "born": {
            "$type": "ConfigBornBySelf",
            "offset": {
              "x": 0.0,
              "y": 0.5,
              "z": 0.0
            }
          }
        },
        "attackInfo": {
          "attackProperty": {
            "damagePercentage": 0.6,
            "strikeType": "Blunt",
            "attackType": "Melee",
            "enBreak": 150.0
          },
          "hitPattern": {
            "onHitEffectName": "default",
            "hitImpulseType": "LV3",
            "reboundRatio": 0,
            "hitHaltTime": 0,
            "hitHaltTimeScale": 0,
            "muteHitText": false
          }
        }
      }
    }
  },
  "inputKeys": [
    {
      "keyID": 301,
      "inputKeyCode": 257
    },
    {
      "keyID": 501,
      "inputKeyCode": 258
    },
    {
      "keyID": 311,
      "inputKeyCode": 259
    },
    {
      "keyID": 511,
      "inputKeyCode": 260
    },
    {
      "keyID": 321,
      "inputKeyCode": 261
    },
    {
      "keyID": 521,
      "inputKeyCode": 262
    },
    {
      "keyID": 102,
      "inputKeyCode": 263
    },
    {
      "keyID": 103,
      "inputKeyCode": 264
    },
    {
      "keyID": 104,
      "inputKeyCode": 265
    },
    // {
    // 	"keyID": 105,
    // 	"inputKeyCode": 266,
    // },
    // Test Skills ///////////////////////////////
    {
      //\+1
      "keyID": 9997,
      "inputKeyCode": 266
    },
    {
      //\+2
      "keyID": 9998,
      "inputKeyCode": 267
    },
    {
      //\+3
      "keyID": 9999,
      "inputKeyCode": 268
    }
  ],
  "stateLayers": {
    "defaultLayer": {
      "$type": "ConfigNormalStateLayer",
      "stateIDs": {
        "Born": {
          "$type": "ConfigMonsterStateIDInfo",
          "animatorStates": {
            "Born": [""]
          },
          "canSyncMove": true,
          "resetAnimatorTriggerOnExit": ["DoSkill"]
        },
        "NormalIdle": {
          "$type": "ConfigMonsterStateIDInfo",
          "animatorStates": {
            "StandbyFree": [],
            "Standby": []
          },
          "canDoSkill": true,
          "canSteer": true,
          "autoSteer": true,
          "canSyncMove": true,
          "resetAnimatorTriggerOnExit": ["DoSkill"]
        },
        "NormalMove": {
          "$type": "ConfigMonsterStateIDInfo",
          "animatorStates": {
            "Walk": ["Audio_Monster_Fungus_Un_Walk"]
          },
          "canDoSkill": true,
          "canSteer": true,
          "canSyncMove": true,
          "resetAnimatorTriggerOnExit": ["DoSkill"],
          "setAnimatorFloat": [
            {
              "name": "FlyMotionHor",
              "normalizeStart": 0.0,
              "normalizeEnd": 0.0,
              "value": 0.0
            },
            {
              "name": "FlyMotionVer",
              "normalizeStart": 0.0,
              "normalizeEnd": 0.0,
              "value": 0.0
            }
          ]
        },
        "NormalFly": {
          "$type": "ConfigMonsterStateIDInfo",
          "animatorStates": {
            "Fly": []
          },
          "canDoSkill": true,
          "canSteer": true,
          //"autoSteer" : true,
          "canSyncMove": true,
          "resetAnimatorTriggerOnExit": ["DoSkill"],
          "blendMove": "BlendMove3D",
          "setAnimatorFloat": [
            {
              "name": "FlyMotionHor",
              "normalizeStart": 0.0,
              "normalizeEnd": 0.0,
              "value": 0.0
            },
            {
              "name": "FlyMotionVer",
              "normalizeStart": 0.0,
              "normalizeEnd": 0.0,
              "value": 0.0
            }
          ]
        },
        "BeHit": {
          "$type": "ConfigMonsterStateIDInfo",
          "animatorStates": {
            "Hit_H": ["Audio_Monster_Fungus_Un_HitThrow"]
          },
          "canSyncMove": true,
          "resetAnimatorTriggerOnEnter": ["BeHit"],
          "resetAnimatorTriggerOnExit": ["DoSkill"],
          "airMoveFollowAnimation": true
        },
        "BeHitThrow": {
          "$type": "ConfigMonsterStateIDInfo",
          "animatorStates": {
            "HitThrow": ["Audio_Monster_Fungus_Un_HitThrow"],
            "HitThrowDrop": [],
            "HitThrowToGround": [
              "Monster_Fungus_Un_Delta_Wind_HitThrowToGround",
              "Audio_Monster_Fungus_Un_HitThrowToGround"
            ]
          },
          "remoteForceCloseAirMove": true,
          "combatMove": true,
          "resetAnimatorTriggerOnEnter": ["BeHit", "HitAir2HitDrop"],
          "resetAnimatorTriggerOnExit": ["DoSkill"]
        },
        "Struggle": {
          "$type": "ConfigMonsterStateIDInfo",
          "animatorStates": {
            "Struggle": []
          },
          "canSyncMove": false,
          "combatMove": true,
          "resetAnimatorTriggerOnEnter": ["BeHit", "HitAir2HitDrop"],
          "resetAnimatorTriggerOnExit": ["DoSkill"]
        },
        "Die": {
          "$type": "ConfigMonsterStateIDInfo",
          "animatorStates": {
            "Die_BS": ["Audio_Monster_Fungus_Un_Die"],
            "Die": ["Monster_Fungus_Un_Die", ""],
            "AirDie": ["Monster_Fungus_Un_Die"],
            "SwimDie_BS": [""],
            "SwimDie": ["Monster_Fungus_Un_Die"]
          }
        },
        "Warning": {
          "$type": "ConfigMonsterStateIDInfo",
          "animatorStates": {
            "Warning": ["", "Audio_Monster_Fungus_Un_Warning"]
          },
          "canSyncMove": true,
          "canSteer": true,
          "resetAnimatorTriggerOnExit": ["BeHit", "DoSkill"]
        },
        //Jump
        "Jump_BS": {
          "$type": "ConfigMonsterStateIDInfo",
          "animatorStates": {
            "Jump_BS": ["Audio_Monster_Fungus_Un_Jump_BS"]
          },
          "canDoSkill": false,
          "canSteer": true,
          "autoSteer": false,
          "canSyncMove": true,
          "airMoveFollowAnimation": true,
          "resetAnimatorTriggerOnExit": ["DoSkill"]
        },
        "JumpProcess": {
          "$type": "ConfigMonsterStateIDInfo",
          "animatorStates": {
            "Launch_Loop": [],
            "Jump_AS": ["Audio_Monster_Fungus_Un_Jump_AS"],
            "Drop_Loop": []
          },
          "canDoSkill": true,
          "canSteer": true,
          "autoSteer": false,
          "canSyncMove": true,
          "airMoveFollowAnimation": true,
          "resetAnimatorTriggerOnExit": ["DoSkill", "Launch"]
        },
        "Land_AS": {
          "$type": "ConfigMonsterStateIDInfo",
          "animatorStates": {
            "Land_AS": ["Audio_Monster_Fungus_Un_Jump_AS"]
          },
          "canDoSkill": false,
          "canSteer": true,
          "autoSteer": false,
          "canSyncMove": true,
          "airMoveFollowAnimation": true,
          "resetAnimatorTriggerOnEnter": ["Land", "BeHit", "HitAir2HitDrop"],
          "resetAnimatorTriggerOnExit": ["DoSkill", "Land"]
        },
        "ChangeState": {
          "$type": "ConfigMonsterStateIDInfo",
          "animatorStates": {
            "ChangeStateToOverdose": ["Audio_Monster_Fungus_Un_ChangeState"],
            "ChangeStateToDecayed": ["Audio_Monster_Fungus_Un_ChangeState"]
          },
          "canSyncMove": true,
          "resetAnimatorTriggerOnEnter": ["BeHit"],
          "resetAnimatorTriggerOnExit": ["DoSkill"],
          "airMoveFollowAnimation": true
        },
        ////////////////////////////////////////////////////////////
        // Combat skills
        ////////////////////////////////////////////////////////////
        "RamNormal_BS": {
          "$type": "ConfigMonsterStateIDInfo",
          "animatorStates": {
            "RamNormal_BS": ["", "Audio_Monster_Fungus_Un_Ram_BS"],
            "RamNormal_Loop": ["", ""]
          },
          "canSyncMove": true,
          "canSteer": true,
          "resetAnimatorTriggerOnExit": ["BeHit", "DoSkill"]
        },
        "RamOverdose_BS": {
          "$type": "ConfigMonsterStateIDInfo",
          "animatorStates": {
            "RamOverdose_BS": ["", "Audio_Monster_Fungus_Un_Ram_BS"],
            "RamOverdose_Loop": ["", ""]
          },
          "canSyncMove": true,
          "canSteer": true,
          "resetAnimatorTriggerOnExit": ["BeHit", "DoSkill"]
        },
        "RamDecayed_BS": {
          "$type": "ConfigMonsterStateIDInfo",
          "animatorStates": {
            "RamDecayed_BS": [
              "Monster_Fungus_Un_Delta_Wind_RamDecayed_BS",
              "Audio_Monster_Fungus_Un_Ram_BS"
            ],
            "RamDecayed_Loop": ["", ""]
          },
          "canSyncMove": true,
          "canSteer": true,
          "resetAnimatorTriggerOnExit": ["BeHit", "DoSkill"]
        },
        "Ram": {
          "$type": "ConfigMonsterStateIDInfo",
          "animatorStates": {
            "RamNormal_Attack": [
              "Monster_Fungus_Un_Delta_Wind_RamNormal",
              "Audio_Monster_Fungus_Un_Ram_Attack"
            ]
          },
          //"canSyncMove" : true,
          "canSteer": true,
          "resetAnimatorTriggerOnExit": ["BeHit", "DoSkill"]
        },
        "Ram_AS": {
          "$type": "ConfigMonsterStateIDInfo",
          "animatorStates": {
            "RamNormal_AS": ["Audio_Monster_Fungus_Un_Ram_AS"],
            "RamOverdose_Attack": [
              "Monster_Fungus_Un_Delta_Wind_RamNormal",
              "Audio_Monster_Fungus_Un_Ram_Attack"
            ],
            "RamOverdose_AS": ["", "Audio_Monster_Fungus_Un_Ram_AS"],
            "RamDecayed_Attack": [
              "Monster_Fungus_Un_Delta_Wind_RamDecayed",
              "Audio_Monster_Fungus_Un_Ram_Attack"
            ],
            "RamDecayed_AS": ["", "Audio_Monster_Fungus_Un_Ram_AS"]
          },
          //"canSyncMove" : true,
          "canSteer": true,
          "resetAnimatorTriggerOnExit": ["BeHit", "DoSkill"]
        },
        "ShootNormal_BS": {
          "$type": "ConfigMonsterStateIDInfo",
          "animatorStates": {
            "ShootNormal_BS": ["", "Audio_Monster_Fungus_Un_Shoot_BS"],
            "ShootNormal_Loop": ["", ""]
          },
          "canSyncMove": true,
          "canSteer": true,
          "resetAnimatorTriggerOnExit": ["BeHit", "DoSkill"]
        },
        "ShootOverdose_BS": {
          "$type": "ConfigMonsterStateIDInfo",
          "animatorStates": {
            "ShootOverdose_BS": ["", "Audio_Monster_Fungus_Un_Shoot_BS"],
            "ShootOverdose_Loop": ["", ""]
          },
          "canSyncMove": true,
          "canSteer": true,
          "resetAnimatorTriggerOnExit": ["BeHit", "DoSkill"]
        },
        "ShootDecayed_BS": {
          "$type": "ConfigMonsterStateIDInfo",
          "animatorStates": {
            "ShootDecayed_BS": ["", "Audio_Monster_Fungus_Un_Shoot_BS"],
            "ShootDecayed_Loop": ["", ""]
          },
          "canSyncMove": true,
          "canSteer": true,
          "resetAnimatorTriggerOnExit": ["BeHit", "DoSkill"]
        },
        "Shoot": {
          "$type": "ConfigMonsterStateIDInfo",
          "animatorStates": {
            "ShootNormal_Attack": [
              "Monster_Fungus_Un_Delta_Wind_ShootNormal",
              "Audio_Monster_Fungus_Un_Wind_Shoot_Attack"
            ],
            "ShootNormal_AS": ["", "Audio_Monster_Fungus_Un_Shoot_AS"],
            "ShootOverdose_Attack01": [
              "Monster_Fungus_Un_Delta_Wind_ShootOverdose",
              "Audio_Monster_Fungus_Un_Wind_Shoot_Attack"
            ],
            "ShootOverdose_Attack02": [
              "Monster_Fungus_Un_Delta_Wind_ShootOverdose",
              "Audio_Monster_Fungus_Un_Wind_Shoot_Attack"
            ],
            "ShootOverdose_Attack03": [
              "Monster_Fungus_Un_Delta_Wind_ShootOverdose",
              "Audio_Monster_Fungus_Un_Wind_Shoot_Attack"
            ],
            "ShootOverdose_AS": ["", "Audio_Monster_Fungus_Un_Shoot_AS"],
            "ShootDecayed_Attack": [
              "Monster_Fungus_Un_Delta_Wind_ShootDecayed",
              "Audio_Monster_Fungus_Un_Wind_Shoot_Attack"
            ],
            "ShootDecayed_AS": ["", "Audio_Monster_Fungus_Un_Shoot_AS"]
          },
          "canSyncMove": true,
          "canSteer": true,
          "resetAnimatorTriggerOnExit": ["BeHit", "DoSkill"]
        },
        "Dance": {
          "$type": "ConfigMonsterStateIDInfo",
          "animatorStates": {
            "Dance": ["", "Audio_Monster_Fungus_Un_Dance"]
          },
          "canDoSkill": true,
          "canSyncMove": true,
          "canSteer": true,
          "resetAnimatorTriggerOnExit": ["BeHit", "DoSkill"]
        },
        "Tease": {
          "$type": "ConfigMonsterStateIDInfo",
          "animatorStates": {
            "Tease": ["", "Audio_Monster_Fungus_Un_Tease"]
          },
          "canDoSkill": true,
          "canSyncMove": true,
          "canSteer": true,
          "resetAnimatorTriggerOnExit": ["BeHit", "DoSkill"]
        },
        "Absorb": {
          "$type": "ConfigMonsterStateIDInfo",
          "animatorStates": {
            "Absorb": [
              "Monster_Fungus_Un_Absorb",
              "Audio_Monster_Fungus_Un_Absorb"
            ]
          },
          "canDoSkill": true,
          "canSyncMove": true,
          "canSteer": true,
          "resetAnimatorTriggerOnExit": ["BeHit", "DoSkill"]
        },
        "Practice": {
          "$type": "ConfigMonsterStateIDInfo",
          "animatorStates": {
            "Practice": ["", "Audio_Monster_Fungus_Un_Practice"]
          },
          "canDoSkill": true,
          "canSyncMove": true,
          "canSteer": true,
          "resetAnimatorTriggerOnExit": ["BeHit", "DoSkill"]
        },
        //////////////////////////////////////////////////
        //	ReturnToBorn states
        //////////////////////////////////////////////////
        "ReturnToBorn": {
          "$type": "ConfigMonsterStateIDInfo",
          "animatorStates": {
            "ReturnToBorn_BS": [
              "Monster_Fungus_Un_ReturnToBorn_BS",
              "Audio_Monster_Fungus_Un_ReturnToBorn_BS"
            ],
            "ReturnToBorn_Loop": [""],
            "ReturnToBorn_AS": [
              "Monster_Fungus_Un_ReturnToBorn_AS",
              "Audio_Monster_Fungus_Un_ReturnToBorn_AS"
            ]
          },
          "combatMove": true,
          "cullingModelAlwaysAnimate": true,
          "resetAnimatorTriggerOnExit": ["BeHit", "DoSkill"]
        }
      }
    }
  },
  "abilities": [
    // Un General Abilities
    {
      "abilityName": "Monster_Fungus_Un_Jump"
    },
    {
      "abilityName": "Monster_Fungus_Un_ReturnToBornManager"
    },
    {
      "abilityName": "Monster_Fungus_Un_Wind_HitThrowDropToGround"
    },
    // State Abilities
    {
      "abilityName": "Monster_Fungus_FungusStateManager"
    },
    // Skill Abilities
    {
      "abilityName": "Monster_Fungus_Un_Delta_Wind_ShootNormal"
    },
    {
      "abilityName": "Monster_Fungus_Un_Delta_Wind_ShootOverdose"
    },
    {
      "abilityName": "Monster_Fungus_Un_Delta_Wind_ShootDecayed"
    },
    {
      "abilityName": "Monster_Fungus_Un_Delta_Wind_Steer"
    },
    {
      "abilityName": "Monster_Fungus_Not_Un_Gamma_Water_Mark" // 3.0成就新增，用于标记非水蕈兽的其他蕈兽
    }
  ],
  "initialPoses": {
    "Default": {
      "initialPoseID": 101
    },
    "Dance": {
      "initialPoseID": 102,
      "initialPoseParams": {
        "boolParams": {
          "Dance": "true"
        }
      }
    },
    "Tease": {
      "initialPoseID": 103,
      "initialPoseParams": {
        "boolParams": {
          "Tease": "true"
        }
      }
    },
    "Absorb": {
      "initialPoseID": 104,
      "initialPoseParams": {
        "boolParams": {
          "Absorb": "true"
        }
      }
    },
    "Practice": {
      "initialPoseID": 105,
      "initialPoseParams": {
        "boolParams": {
          "Practice": "true"
        }
      }
    }
  },
  "aibeta": {
    "enable": true,
    "moveSetting": {
      "useNavMesh": true
    },
    "skillGCD": 3.5,
    "neurons": {
      "DefaultSetting": ["HIT"],
      "NeverCombat": []
    },
    "sensing": {
      "settings": {
        "DefaultSetting": {
          "viewRange": 22.0,
          "feelRange": 8.75
        },
        "Patrol": {
          "viewRange": 0.0,
          "feelRange": 6.0
        },
        "NoSensing": {
          "enableVision": false,
          "feelRange": 0.0,
          "hearAttractionRange": 0.0
        }
      },
      "templates": {
        "DefaultTemplate": {
          "DefaultPoses": "DefaultSetting"
        },
        "Patrol": {
          "DefaultPoses": "Patrol"
        },
        "NoSensing": {
          "DefaultPoses": "NoSensing"
        }
      }
    },
    "defendArea": {
      "defendRange": 50.0
    },
    "fly": {
      "enable": true,
      "floatingPoses": [
        201,
        211,
        221, //FreeAir
        501,
        511,
        521 //FightAir
      ]
    },
    "threat": {
      "clearThreatTargetDistance": 30.0,
      "clearThreatTimerByDistance": 2.0,
      "clearThreatEdgeDistance": 5.0,
      "viewAttenuation": [
        { "x": 12.0, "y": 1.0 },
        { "x": 20.0, "y": 0.5 }
      ]
    },
    "returnToBornTactic": {
      "enable": true,
      "defaultSetting": {
        "speedLevel": 2,
        "spacial": true,
        "performTime": 2.2
      }
    },
    "followServerRouteTactic": {
      "enable": true,
      "defaultSetting": {
        "turnSpeedOverrideWalk": 1,
        "turnSpeedOverrideRun": 1,
        "special": true
      }
    },
    "followScriptedPathTactic": {
      "enable": true,
      "defaultSetting": {
        "turnSpeedOverrideWalk": 1,
        "turnSpeedOverrideRun": 1
      },
      "specification": {
        "201": {
          "turnSpeedOverrideWalk": 1,
          "turnSpeedOverrideRun": 1,
          "spacial": true
        },
        "211": {
          "turnSpeedOverrideWalk": 1,
          "turnSpeedOverrideRun": 1,
          "spacial": true
        },
        "221": {
          "turnSpeedOverrideWalk": 1,
          "turnSpeedOverrideRun": 1,
          "spacial": true
        }
      }
    },
    "spacialChaseTactic": {
      "enable": true,
      "condition": {
        "pose": [521]
      },
      "defaultSetting": {
        "speedLevel": 2,
        "chaseStartDistance": 11.0,
        "chaseStopDistance": 8.0,
        "yOffsetMin": 0.5,
        "yOffsetMax": 1.5,
        //"segmentDistance": 3.0,
        "canStartRangeByRaycast": [
          {
            "min": 0.5,
            "max": 3.0,
            "raycastType": "DownToGroundAndWaterOnlyInAir"
          }
        ]
      },
      "specification": {
        "521": {
          "speedLevel": 2,
          "chaseStartDistance": 6.0,
          "chaseStopDistance": 6.0,
          "yOffsetMin": 0.5,
          "yOffsetMax": 1.0,
          "canStartRangeByRaycast": [
            {
              "min": 0.5,
              "max": 3.0,
              "raycastType": "DownToGroundAndWaterOnlyInAir"
            }
          ]
        }
      }
    },
    "meleeChargeTactic": {
      "enable": true,
      "condition": {
        "pose": [301, 311, 321]
      },
      "defaultSetting": {
        "speedLevel": 1,
        "speedLevelInner": 2,
        "innerDistance": 10,
        "stopDistance": 9.0,
        "startDistanceMin": 10.0,
        "startDistanceMax": 50
      },
      "specification": {
        "321": {
          "speedLevel": 1,
          "speedLevelInner": 2,
          "innerDistance": 6,
          "stopDistance": 3.0,
          "startDistanceMin": 10.0,
          "startDistanceMax": 50
        }
      }
    },
    "facingMoveTactic": {
      "enable": true,
      "condition": {
        "pose": [301, 311, 321]
      },
      "defaultSetting": {
        "speedLevel": 2,
        "rangeMin": 4.0,
        "rangeMax": 10.0,
        "restTimeMin": 1.0,
        "restTimeMax": 4.0,
        "facingMoveWeight": {
          "stop": 0.5,
          "forward": 0.5,
          "back": 0.0,
          "left": 0.0,
          "right": 0.0
        }
      }
      // "specification":
      // {
      // 	"321":
      // 	{
      // 		"speedLevel": 2,
      // 		"rangeMin": 5.0,
      // 		"rangeMax": 50.0,
      // 		"restTimeMin": 1.0,
      // 		"restTimeMax": 2.0,
      // 		"facingMoveWeight":
      // 		{
      // 			"stop": 0.0,
      // 			"forward": 1.0,
      // 			"back": 0.0,
      // 			"left": 0.0,
      // 			"right": 0.0,
      // 		},
      // 	},
      // },
    },
    "spacialFacingMoveTactic": {
      "enable": true,
      "condition": {
        "pose": [501, 511]
      },
      "defaultSetting": {
        "speedLevel": 2,
        "rangeRadiusMin": 4.0,
        "rangeRadiusMax": 8.0,
        "restTimeMin": 0,
        "restTimeMax": 2.0,
        "facingMoveTurnInterval": 1.5,
        "facingMoveMinAvoidanceVelecity": 0.5,
        "obstacleDetectRange": 1.5,
        "obstacleUpRange": 3.0,
        "useAniamtorVelocityInIdle": true,
        "spacialFacingMoveProbability": {
          "stop": 0.5,
          ////////////////////////////
          "forward": 0.9,
          "forwardMin": 1.0,
          "forwardMax": 4.0,
          "backMin": 1.0,
          "backMax": 2.0,
          ////////////////////////////
          "right": 0.5,
          "rightMin": 4.0,
          "rightMax": 8.0,
          "leftMin": 4.0,
          "leftMax": 8.0,
          ////////////////////////////
          "up": 0.0,
          "upMin": 0.0,
          "upMax": 0.0,
          "downMin": 1.5,
          "downMax": 3.0,
          ////////////////////////////
          "bestHeight": 1.0,
          "minHeight": 0.0,
          "maxHeight": 4.0
        },
        "canStartRangeByRaycast": [
          {
            "min": 0.5,
            "max": 3.0,
            "raycastType": "DownToGroundAndWaterOnlyInAir"
          }
        ]
      },
      "specification": {
        "511": {
          "speedLevel": 2,
          "rangeRadiusMin": 3.0,
          "rangeRadiusMax": 6.0,
          "restTimeMin": 0.0,
          "restTimeMax": 0.0,
          "facingMoveTurnInterval": 1.5,
          "facingMoveMinAvoidanceVelecity": 0.1,
          "obstacleDetectRange": 1.5,
          "obstacleUpRange": 3.0,
          "useAniamtorVelocityInIdle": true,
          "spacialFacingMoveProbability": {
            "stop": 0.0,
            ////////////////////////////
            "forward": 0.5,
            "forwardMin": 1.5,
            "forwardMax": 4.0,
            "backMin": 1.5,
            "backMax": 4.0,
            ////////////////////////////
            "right": 0.5,
            "rightMin": 2.5,
            "rightMax": 8.0,
            "leftMin": 2.5,
            "leftMax": 8.0,
            ////////////////////////////
            "up": 0.5,
            "upMin": 1.0,
            "upMax": 2.0,
            "downMin": 0.5,
            "downMax": 1.0,
            ////////////////////////////
            "bestHeight": 1.5,
            "minHeight": 0.5,
            "maxHeight": 2.0
          },
          "canStartRangeByRaycast": [
            {
              "min": 0.5,
              "max": 3.0,
              "raycastType": "DownToGroundAndWaterOnlyInAir"
            }
          ]
        }
      }
    },
    "skillSetting": {
      "skillEliteSet": {
        "1": [], // 普通蕈兽状态
        "2": [112] // 有表演的蕈兽状态
      }
    },
    "skills": {
      "100": {
        "name": "OnAlert",
        "stateIDs": ["Warning"],
        "skillType": "OnAlert",
        "skillQueryingTime": 3,
        "triggerGCD": false,
        "faceTarget": true
      },
      "102": {
        "cd": 15.0,
        "initialCD": 5.0,
        "name": "Dance",
        "stateIDs": ["Dance"],
        "skillType": "Free",
        "skillQueryingTime": 3,
        "triggerGCD": false,
        "castCondition": {
          "pose": [102]
        }
      },
      // 3.2 蕈兽活动新增 用于101Pose下的战前表演
      "112": {
        "cd": 0.5,
        "initialCD": 0.6,
        "name": "Practice2",
        "stateIDs": ["Practice"],
        "skillType": "Free",
        "skillQueryingTime": 3,
        "triggerGCD": false,
        "castCondition": {
          "pose": [101, 111, 121]
        }
      },
      "103": {
        "cd": 10.0,
        "cdUpperRange": 10.0,
        "initialCD": 5.0,
        "initialCDUpperRange": 10.0,
        "name": "Tease",
        "stateIDs": ["Tease"],
        "skillType": "Free",
        "skillQueryingTime": 3,
        "triggerGCD": false,
        "castCondition": {
          "pose": [103]
        }
      },
      "104": {
        "cd": 10.0,
        "cdUpperRange": 10.0,
        "initialCD": 5.0,
        "initialCDUpperRange": 10.0,
        "name": "Absorb",
        "stateIDs": ["Absorb"],
        "skillType": "Free",
        "skillQueryingTime": 3,
        "triggerGCD": false,
        "castCondition": {
          "pose": [104]
        }
      },
      "105": {
        "cd": 10.0,
        "cdUpperRange": 10.0,
        "initialCD": 5.0,
        "initialCDUpperRange": 10.0,
        "name": "Practice",
        "stateIDs": ["Practice"],
        "skillType": "Free",
        "skillQueryingTime": 3,
        "triggerGCD": false,
        "castCondition": {
          "pose": [105]
        }
      },
      "301": {
        "cd": 5.0,
        "initialCD": 5.0,
        "name": "RamNormal",
        "stateIDs": ["Ram", "RamNormal_BS"],
        "flagTargetReachable": "11",
        "flagSelfInZone": "11",
        "castCondition": {
          "pickRangeMin": 0.0,
          "pickRangeMax": 2.0,
          "pose": [301]
          //"needReInitCD": true,
        }
      },
      "311": {
        "cd": 5.0,
        "initialCD": 5.0,
        "name": "RamOverdose",
        "stateIDs": ["Ram", "RamOverdose_BS"],
        "flagTargetReachable": "11",
        "flagSelfInZone": "11",
        "castCondition": {
          "pickRangeMin": 0.0,
          "pickRangeMax": 2.0,
          "pose": [311]
          //"needReInitCD": true,
        }
      },
      "321": {
        "cd": 5.0,
        "initialCD": 0.0,
        "name": "RamDecayed",
        "stateIDs": ["Ram", "RamDecayed_BS"],
        "flagTargetReachable": "11",
        "flagSelfInZone": "11",
        "castCondition": {
          "pickRangeMin": 0.0,
          "pickRangeMax": 2.0,
          "pose": [321]
          //"needReInitCD": true,
        }
      },
      "501": {
        "cd": 5.0,
        "cdUpperRange": 10.0,
        "initialCD": 1.0,
        "initialCDUpperRange": 2.5,
        "name": "ShootNormal",
        "stateIDs": ["Shoot", "ShootNormal_BS"],
        "combatSkillType": "RangedAttack",
        "flagTargetReachable": "11",
        "flagSelfInZone": "11",
        "castCondition": {
          //pickRange////////////////////////////
          "pickRangeMin": 0.0,
          "pickRangeMax": 12.0,
          "pickRangeYMin": 0.7,
          "pickRangeYMax": 8.0,
          "pickRangeByRaycast": [
            {
              "min": 0.25,
              "max": 1.5,
              "raycastType": "DownToGroundAndWaterOnlyInAir"
            }
          ],
          //castRange////////////////////////////
          "castRangeType": "RangeXZ_Y",
          "castRangeXZ_Y": {
            "castRangeXZMin": 0.0,
            "castRangeXZMax": 16.0,
            "castRangeYMin": 0.0,
            "castRangeYMax": 8.0
          },
          //pose////////////////////////////
          "pose": [501],
          "needReInitCD": true
        }
      },
      "511": {
        "cd": 5.0,
        "cdUpperRange": 3.0,
        "initialCD": 0.5,
        "initialCDUpperRange": 1.5,
        "name": "ShootOverdose",
        "stateIDs": ["Shoot", "ShootOverdose_BS"],
        "combatSkillType": "RangedAttack",
        "flagTargetReachable": "11",
        "flagSelfInZone": "11",
        "castCondition": {
          //pickRange////////////////////////////
          "pickRangeMin": 0.0,
          "pickRangeMax": 12.0,
          "pickRangeYMin": 0.7,
          "pickRangeYMax": 8.0,
          "pickRangeByRaycast": [
            {
              "min": 0.25,
              "max": 1.25,
              "raycastType": "DownToGroundAndWaterOnlyInAir"
            }
          ],
          //castRange////////////////////////////
          "castRangeType": "RangeXZ_Y",
          "castRangeXZ_Y": {
            "castRangeXZMin": 0.0,
            "castRangeXZMax": 16.0,
            "castRangeYMin": 0.0,
            "castRangeYMax": 8.0
          },
          //pose////////////////////////////
          "pose": [511],
          "needReInitCD": true
        }
      },
      "521": {
        "cd": 6.0,
        "cdUpperRange": 4.0,
        "initialCD": 1.0,
        "initialCDUpperRange": 2.0,
        "name": "ShootDecayed",
        "stateIDs": ["Shoot", "ShootDecayed_BS"],
        "combatSkillType": "RangedAttack",
        "flagTargetReachable": "11",
        "flagSelfInZone": "11",
        "castCondition": {
          //pickRange////////////////////////////
          "pickRangeMin": 0.0,
          "pickRangeMax": 12.0,
          "pickRangeYMin": 0.7,
          "pickRangeYMax": 8.0,
          "pickRangeByRaycast": [
            {
              "min": 0.25,
              "max": 1.25,
              "raycastType": "DownToGroundAndWaterOnlyInAir"
            }
          ],
          //castRange////////////////////////////
          "castRangeType": "RangeXZ_Y",
          "castRangeXZ_Y": {
            "castRangeXZMin": 0.0,
            "castRangeXZMax": 16.0,
            "castRangeYMin": 0.0,
            "castRangeYMax": 8.0
          },
          //pose////////////////////////////
          "pose": [521],
          "needReInitCD": true
        }
      }
    }
  },
  "audio": {
    "$type": "ConfigMonsterAudio",
    "animAudio": {
      "onTransitionOut": [
        {
          "currentStateName": "Practice",
          "audioEvent": {
            "text": "Stop_sfx_monster_Fungus_Un_practice"
          },
          "otherStateNames": [],
          "usage": "Any"
        },
        {
          "currentStateName": "Absorb",
          "audioEvent": {
            "text": "Stop_sfx_monster_Fungus_Un_absorb"
          },
          "otherStateNames": [],
          "usage": "Any"
        },
        {
          "currentStateName": "Tease",
          "audioEvent": {
            "text": "Stop_sfx_monster_Fungus_Un_tease"
          },
          "otherStateNames": [],
          "usage": "Any"
        },
        {
          "currentStateName": "Dance",
          "audioEvent": {
            "text": "Stop_sfx_monster_Fungus_Un_absorb"
          },
          "otherStateNames": [],
          "usage": "Any"
        },
        {
          "currentStateName": "ShootNormal_Loop",
          "audioEvent": {
            "text": "Stop_sfx_monster_Fungus_Un_shoot_Loop"
          },
          "otherStateNames": [],
          "usage": "Any"
        },
        {
          "currentStateName": "ShootDecayed_Loop",
          "audioEvent": {
            "text": "Stop_sfx_monster_Fungus_Un_shootDecayed_Loop"
          },
          "otherStateNames": [],
          "usage": "Any"
        },
        {
          "currentStateName": "ShootOverdose_Loop",
          "audioEvent": {
            "text": "Stop_sfx_monster_Fungus_Un_shoot_Loop"
          },
          "otherStateNames": [],
          "usage": "Any"
        },
        {
          "currentStateName": "RamNormal_Loop",
          "audioEvent": {
            "text": "Stop_sfx_monster_Fungus_Un_ram_Loop"
          },
          "otherStateNames": [],
          "usage": "Any"
        },
        {
          "currentStateName": "RamDecayed_Loop",
          "audioEvent": {
            "text": "Stop_sfx_monster_Fungus_Un_ram_Loop"
          },
          "otherStateNames": [],
          "usage": "Any"
        },
        {
          "currentStateName": "RamOverdose_Loop",
          "audioEvent": {
            "text": "Stop_sfx_monster_Fungus_Un_ram_Loop"
          },
          "otherStateNames": [],
          "usage": "Any"
        }
      ],
      "onTransitionIn": [
        {
          "currentStateName": "ShootNormal_Loop",
          "audioEvent": {
            "text": "Play_sfx_monster_Fungus_Un_shoot_Loop"
          },
          "otherStateNames": [],
          "usage": "Any"
        },
        {
          "currentStateName": "ShootDecayed_Loop",
          "audioEvent": {
            "text": "Play_sfx_monster_Fungus_Un_shootDecayed_Loop"
          },
          "otherStateNames": [],
          "usage": "Any"
        },
        {
          "currentStateName": "ShootOverdose_Loop",
          "audioEvent": {
            "text": "Play_sfx_monster_Fungus_Un_shoot_Loop"
          },
          "otherStateNames": [],
          "usage": "Any"
        },
        {
          "currentStateName": "RamNormal_Loop",
          "audioEvent": {
            "text": "Play_sfx_monster_Fungus_Un_ram_Loop"
          },
          "otherStateNames": [],
          "usage": "Any"
        },
        {
          "currentStateName": "RamDecayed_Loop",
          "audioEvent": {
            "text": "Play_sfx_monster_Fungus_Un_ram_Loop"
          },
          "otherStateNames": [],
          "usage": "Any"
        },
        {
          "currentStateName": "RamOverdose_Loop",
          "audioEvent": {
            "text": "Play_sfx_monster_Fungus_Un_ram_Loop"
          },
          "otherStateNames": [],
          "usage": "Any"
        }
      ]
    }
  }
}
