{
  "$type": "ConfigMonster",
  "common": {
    "effectAttachShape": {
      "$type": "ConfigEffectAttachSkinnedMesh",
      "mesh": "EffectMesh"
    },
    "mass": 10000.0,
    "height": 2.3,
    "modelHeight": 2.6,
    "viewSize": 1.3,
    "scale": 1.0,
    "useGrassDisplacement": true,
    "affectedByWorld": true,
    "checkInSurface": true,
    "clearAnimatorOnSetLightDeactive": true,
    "clearAIOnSetLightDeactive": true
  },
  "move": {
    "$type": "ConfigAnimatorMove",
    "facingMove": "FourDirection",
    "moveOnWater": false,
    "moveOnWaterDepth": 1.0,
    "monsterSizeType": "StoopType",
    "positionModifyState": "Walk"
  },
  "model": {
    "bornEffect": "Eff_Monster_Common_Born",
    "canBakeMesh": false
  },
  "dither": {
    "showDitherDuration": 1.0
  },
  "equipController": {
    "attachPoints": {
      "equip01": "WeaponR",
      "equip02": "WeaponL"
    },
    "sheathPoint": ""
  },
  "billboard": {
    "$type": "ConfigCombatBillboard",
    "offsetType": "Character",
    "offset": {
      "x": 0.0,
      "y": 0.0,
      "z": 0.0
    },
    "radiusOffset": -0.2,
    "showHPBar": true,
    "size": "Big"
  },
  "combat": {
    "property": {
      "weight": 110,
      "endureType": "Monster_Demiboss_Humanoid"
    },
    "combatLock": {
      "denyLockOn": false,
      "lockType": "Avatar&Monster_Lv4"
    },
    "beHit": {
      "hitBloodEffect": "",
      "muteAllHit": false,
      "muteAllHitEffect": false,
      "muteAllHitText": false
    },
    "die": {
      "hasAnimatorDie": true,
      "dieDisappearEffect": "Eff_Death_Abyss_Common",
      "dieDisappearEffectDelay": 0.0,
      "dieEndTime": 1.5,
      "dieForceDisappearTime": 1.5,
      "dieShaderData": "MonsterDie",
      "muteHitBox": true,
      "dieDenyLockOn": true,
      "dieIsGhostToEnemy": true,
      "dieIgnoreTriggerBullet": true,
      "muteBillboard": true,
      "mutePushCollider": true,
      "useRagDoll": true,
      "ragDollDieEndTimeDelay": 0.0
    },
    "animEvents": {
      "NormalAtk01": {
        "attackPattern": {
          "$type": "ConfigAttackBox",
          "triggerType": "TriggerNoRepeat",
          "size": {
            "x": 1.9,
            "y": 2.4,
            "z": 6.16
          },
          "born": {
            "$type": "ConfigBornBySelf",
            "offset": {
              "x": 0.0,
              "y": 1.5,
              "z": -0.5
            }
          }
        },
        "attackInfo": {
          "attackTag": "Monster_ForlornVessel_Attack",
          "attackProperty": {
            "damagePercentage": 0.8,
            "elementType": "Water",
            "elementDurability": 25,
            "strikeType": "Pierce",
            "attackType": "Melee",
            "enBreak": 75
          },
          "hitPattern": {
            "onHitEffectName": "default",
            "hitImpulseType": "LV4",
            "retreatType": "ByAttacker",
            "hitHaltTime": 0.0,
            "hitHaltTimeScale": 0.05,
            "muteHitText": false
          },
          "forceCameraShake": false
        }
      },
      "NormalAtk02": {
        "attackPattern": {
          "$type": "ConfigAttackCircle",
          "triggerType": "TriggerNoRepeat",
          "height": 2.0,
          "fanAngle": 360.0,
          "radius": 5.5,
          "born": {
            "$type": "ConfigBornBySelf",
            "offset": {
              "x": 0.75,
              "y": 0.4,
              "z": 0.16
            }
          }
        },
        "attackInfo": {
          "attackTag": "Monster_ForlornVessel_Attack",
          "attackProperty": {
            "damagePercentage": 0.8,
            "elementType": "Water",
            "elementDurability": 25,
            "strikeType": "Slash",
            "attackType": "Melee",
            "enBreak": 75
          },
          "hitPattern": {
            "onHitEffectName": "default",
            "hitImpulseType": "LV4",
            "retreatType": "ByHitDirection",
            "hitHaltTime": 0.0,
            "hitHaltTimeScale": 0.05,
            "muteHitText": false
          },
          "forceCameraShake": false
        }
      },
      "ChargeAtk_Route": {
        "attackPattern": {
          "$type": "ConfigAttackBox",
          "triggerType": "TriggerNoRepeat",
          "born": {
            "$type": "ConfigBornBySelf",
            "offset": {
              "x": 0.0,
              "y": 1.6,
              "z": -0.4
            }
          },
          "size": {
            "x": 2.0,
            "y": 2.0,
            "z": 5.6
          },
          "checkHitLayerType": "Both"
        },
        "attackInfo": {
          "attackTag": "Monster_ForlornVessel_Lance_ChargeAtk",
          "attenuationTag": "Monster_ForlornVessel_Lance_ChargeAtk",
          "attenuationGroup": "Monster_ForlornVessel_Lance_ChargeAtk",
          "attackProperty": {
            "damagePercentage": 0.6,
            "elementType": "Water",
            "elementDurability": 25,
            "strikeType": "Pierce",
            "attackType": "Melee",
            "enBreak": 150
          },
          "hitPattern": {
            "onHitEffectName": "default",
            "hitImpulseType": "LV5",
            "retreatType": "ByAttacker",
            "hitHaltTime": 0.0,
            "hitHaltTimeScale": 0.05,
            "muteHitText": false
          },
          "forceCameraShake": false
        }
      },
      "ChargeAtk_Final": {
        "attackPattern": {
          "$type": "ConfigAttackBox",
          "triggerType": "TriggerNoRepeat",
          "born": {
            "$type": "ConfigBornBySelf",
            "offset": {
              "x": 0.0,
              "y": 1.85,
              "z": -0.6
            },
            "direction": {
              "$type": "ConfigDirectionByDefault",
              "angleOffset": {
                "x": -15.0,
                "y": 0.0,
                "z": 0.0
              }
            }
          },
          "size": {
            "x": 2.2,
            "y": 3.3,
            "z": 6.5
          }
        },
        "attackInfo": {
          "attackTag": "Monster_ForlornVessel_Attack",
          "attackProperty": {
            "damagePercentage": 1.0,
            "elementType": "Water",
            "elementDurability": 50,
            "strikeType": "Pierce",
            "attackType": "Melee",
            "enBreak": 150
          },
          "hitPattern": {
            "onHitEffectName": "default",
            "hitImpulseType": "LV6",
            "retreatType": "ByAttacker",
            "hitHaltTime": 0.0,
            "hitHaltTimeScale": 0.05,
            "muteHitText": false
          },
          "forceCameraShake": false
        }
      }
    }
  },
  "inputKeys": [
    {
      "keyID": 101,
      "inputKeyCode": 257
    },
    {
      "keyID": 201,
      "inputKeyCode": 258
    },
    {
      "keyID": 211,
      "inputKeyCode": 259
    },
    {
      "keyID": 301,
      "inputKeyCode": 260
    }
  ],
  "stateLayers": {
    "defaultLayer": {
      "$type": "ConfigNormalStateLayer",
      "stateIDs": {
        //////////////////////////////////////////////////
        //	Idle
        //////////////////////////////////////////////////
        "NormalIdle": {
          "$type": "ConfigMonsterStateIDInfo",
          "animatorStates": {
            "Born": [],
            "StandbyFree": [],
            "Standby": []
          },
          "canDoSkill": true,
          "canSyncMove": true,
          "resetAnimatorTriggerOnExit": ["DoSkill"]
        },
        //////////////////////////////////////////////////
        //	Move
        //////////////////////////////////////////////////
        "NormalMove": {
          "$type": "ConfigMonsterStateIDInfo",
          "animatorStates": {
            "WalkForward": [
              "Audio_Monster_ForlornVessel_Strong_Lance_Water_WalkForward"
            ],
            "WalkBack": [
              "Audio_Monster_ForlornVessel_Strong_Lance_Water_WalkBack"
            ],
            "WalkRight": [
              "Audio_Monster_ForlornVessel_Strong_Lance_Water_WalkRight"
            ],
            "WalkLeft": [
              "Audio_Monster_ForlornVessel_Strong_Lance_Water_WalkLeft"
            ],
            "Run": ["Audio_Monster_ForlornVessel_Strong_Common_Run"]
          },
          "canDoSkill": true,
          "canSteer": true,
          "canSyncMove": true,
          "resetAnimatorTriggerOnExit": ["DoSkill"]
        },
        "Turn": {
          "$type": "ConfigMonsterStateIDInfo",
          "animatorStates": {
            "TurnLeft": [],
            "TurnRight": []
          },
          "canDoSkill": true,
          "canSteer": true,
          "autoSteer": false,
          "canSyncMove": true,
          "resetAnimatorTriggerOnExit": ["DoSkill"]
        },
        //////////////////////////////////////////////////
        //	BeHit
        //////////////////////////////////////////////////
        "BeHit": {
          "$type": "ConfigMonsterStateIDInfo",
          "animatorStates": {
            "Hit_L": ["Audio_Monster_ForlornVessel_Strong_Common_Hit_L"],
            "Hit_H": ["Audio_Monster_ForlornVessel_Strong_Common_Hit_H"]
          },
          "resetAnimatorTriggerOnEnter": ["BeHit"],
          "resetAnimatorTriggerOnExit": ["DoSkill"]
        },
        "BeHitThrow": {
          "$type": "ConfigMonsterStateIDInfo",
          "animatorStates": {
            "HitThrow": [],
            "HitThrowDrop": [],
            "HitThrowToGround": [
              "Audio_Monster_ForlornVessel_Strong_Lance_Water_HitThrowToGround"
            ]
          },
          "resetAnimatorTriggerOnEnter": ["BeHit", "HitAir2HitDrop"],
          "resetAnimatorTriggerOnExit": ["DoSkill"]
        },
        "Struggle": {
          "$type": "ConfigMonsterStateIDInfo",
          "animatorStates": {
            "Struggle": []
          },
          "resetAnimatorTriggerOnEnter": ["BeHit", "HitAir2HitDrop"],
          "resetAnimatorTriggerOnExit": ["DoSkill"]
        },
        //////////////////////////////////////////////////
        //	Die
        //////////////////////////////////////////////////
        "Die": {
          "$type": "ConfigMonsterStateIDInfo",
          "animatorStates": {
            "Die": ["Audio_Monster_ForlornVessel_Strong_Lance_Water_Die"],
            "SwimDie": [],
            "AirDie": [
              "Audio_Monster_ForlornVessel_Strong_Lance_Water_HitThrowToGround"
            ]
          }
        },
        "Die_Ragdoll": {
          "$type": "ConfigMonsterStateIDInfo",
          "animatorStates": {
            "SwimDie_Ragdoll": []
          },
          "enableRagDoll": true
        },
        //////////////////////////////////////////////////
        //	Alert
        //////////////////////////////////////////////////
        "Alert": {
          "$type": "ConfigMonsterStateIDInfo",
          "animatorStates": {
            "Warning": [
              "Audio_Monster_ForlornVessel_Strong_Lance_Water_Warning"
            ]
          },
          "resetAnimatorTriggerOnExit": ["BeHit", "DoSkill"]
        },
        //////////////////////////////////////////////////
        //	NormalAtk
        //////////////////////////////////////////////////
        "NormalAtk01": {
          "$type": "ConfigMonsterStateIDInfo",
          "animatorStates": {
            "NormalAtk01": [
              "Monster_ForlornVessel_Strong_Lance_NormalAtk01",
              "Audio_Monster_ForlornVessel_Strong_Lance_Water_NormalAtk01"
            ]
          },
          "canSteer": true,
          "resetAnimatorTriggerOnExit": ["BeHit", "DoSkill"]
        },
        "NormalAtk02": {
          "$type": "ConfigMonsterStateIDInfo",
          "animatorStates": {
            "NormalAtk02": [
              "Monster_ForlornVessel_Strong_Lance_NormalAtk02",
              "Audio_Monster_ForlornVessel_Strong_Lance_Water_NormalAtk02"
            ]
          },
          "canSteer": true,
          "resetAnimatorTriggerOnExit": ["BeHit", "DoSkill"]
        },
        //////////////////////////////////////////////////
        //	ChargeAtk
        //////////////////////////////////////////////////
        "ChargeAtk_BS": {
          "$type": "ConfigMonsterStateIDInfo",
          "animatorStates": {
            "ChargeAtk_BS": [
              "Monster_ForlornVessel_Strong_Lance_ChargeAtk_BS",
              "Audio_Monster_ForlornVessel_Strong_Lance_Water_ChargeAtk_BS"
            ]
          },
          "canSteer": true,
          "resetAnimatorTriggerOnExit": ["BeHit", "DoSkill"]
        },
        "ChargeAtk_Loop": {
          "$type": "ConfigMonsterStateIDInfo",
          "animatorStates": {
            "ChargeAtk_Loop": [
              "Monster_ForlornVessel_Strong_Lance_ChargeAtk_Loop",
              "Audio_Monster_ForlornVessel_Strong_Lance_Water_ChargeAtk_Loop"
            ]
          },
          "canSteer": true,
          "canSyncMove": true,
          "resetAnimatorTriggerOnExit": ["BeHit", "DoSkill"]
        },
        "ChargeAtk_AS": {
          "$type": "ConfigMonsterStateIDInfo",
          "animatorStates": {
            "ChargeAtk_AS": [
              "Monster_ForlornVessel_Strong_Lance_ChargeAtk_AS",
              "Audio_Monster_ForlornVessel_Strong_Lance_Water_ChargeAtk_AS"
            ]
          },
          "canSteer": true,
          "resetAnimatorTriggerOnExit": ["BeHit", "DoSkill"]
        },
        //////////////////////////////////////////////////
        //	Salute
        //////////////////////////////////////////////////
        "Salute": {
          "$type": "ConfigMonsterStateIDInfo",
          "animatorStates": {
            "Salute": ["Audio_Monster_ForlornVessel_Strong_Lance_Water_Salute"]
          },
          "canSteer": true,
          "canDoSkill": true,
          "resetAnimatorTriggerOnExit": ["BeHit", "DoSkill"]
        },
        //////////////////////////////////////////////////
        //	Kneel
        //////////////////////////////////////////////////
        "Kneel": {
          "$type": "ConfigMonsterStateIDInfo",
          "animatorStates": {
            "Kneel": []
          },
          "canSteer": false,
          "canDoSkill": true,
          "resetAnimatorTriggerOnExit": ["BeHit", "DoSkill"]
        },
        //////////////////////////////////////////////////
        //	Clean
        //////////////////////////////////////////////////
        "Clean": {
          "$type": "ConfigMonsterStateIDInfo",
          "animatorStates": {
            "Clean": ["Audio_Monster_ForlornVessel_Strong_Lance_Water_Clean"]
          },
          "canSteer": false,
          "canDoSkill": true,
          "resetAnimatorTriggerOnExit": ["BeHit", "DoSkill"]
        }
      }
    }
  },
  "abilities": [
    //////////////////////////////////////////////////
    //	Pose
    //////////////////////////////////////////////////

    //////////////////////////////////////////////////
    //	HitShield
    //////////////////////////////////////////////////
    {
      "abilityName": "Monster_ForlornVessel_Strong_Lance_HitShield"
    },
    //////////////////////////////////////////////////
    //	ExitBattle
    //////////////////////////////////////////////////
    {
      "abilityName": "Monster_ForlornVessel_Strong_Lance_ExitBattle"
    },
    //////////////////////////////////////////////////
    //	EndureDelta
    //////////////////////////////////////////////////
    {
      "abilityName": "Monster_ForlornVessel_EndureDelta_Add"
    },
    {
      "abilityName": "Monster_ForlornVessel_EndureDelta_Remove"
    },
    {
      "abilityName": "Monster_ForlornVessel_Strong_Lance_EndureDelta"
    },
    //////////////////////////////////////////////////
    //	BeHitThrow
    //////////////////////////////////////////////////
    {
      "abilityName": "Monster_ForlornVessel_BeHitThrow"
    },
    //////////////////////////////////////////////////
    //	Lance Heal
    //////////////////////////////////////////////////
    {
      "abilityName": "Monster_ForlornVessel_BeHeal"
    },
    //////////////////////////////////////////////////
    //	Steer
    //////////////////////////////////////////////////
    {
      "abilityName": "Monster_ForlornVessel_Strong_Lance_Steer"
    },
    //////////////////////////////////////////////////
    //	Lance
    //////////////////////////////////////////////////
    {
      "abilityName": "Monster_ForlornVessel_Strong_Lance_WeaponHanler"
    },
    //////////////////////////////////////////////////
    //	ChargeAtk
    //////////////////////////////////////////////////
    {
      "abilityName": "Monster_ForlornVessel_Strong_Lance_ChargeAtk"
    },
    //////////////////////////////////////////////////
    //	Alert
    //////////////////////////////////////////////////
    {
      "abilityName": "Monster_ForlornVessel_Strong_Lance_Alert"
    },
    //////////////////////////////////////////////////
    //	Salute
    //////////////////////////////////////////////////
    {
      "abilityName": "Monster_ForlornVessel_Strong_Salute"
    },
    //////////////////////////////////////////////////
    //	Weapon Freeze/Petrifaction
    //////////////////////////////////////////////////
    {
      "abilityName": "Monster_ForlornVessel_Strong_Lance_WeaponSpecialElementState"
    }
  ],
  "initialPoses": {
    "Default": {
      "initialPoseID": 101
    },
    "Leisure": {
      "initialPoseID": 9001,
      "initialPoseParams": {
        "boolParams": {
          "Leisure": "true"
        }
      }
    },
    "Patrol": {
      "initialPoseID": 9002,
      "initialPoseParams": {
        "boolParams": {
          "Patrol": "true"
        }
      }
    },
    "Worship": {
      "initialPoseID": 9003,
      "initialPoseParams": {
        "boolParams": {
          "Worship": "true"
        }
      }
    }
  },
  "aibeta": {
    "enable": true,
    "skillGCD": 0.5,
    "skillSetting": {
      "skillEliteSet": {}
    },
    "neurons": {
      "DefaultSetting": ["HIT", "HIT_BUDDY"]
    },
    "neuronSetting": {
      "HIT_BUDDY": {
        "feelRange": 20.0,
        "responserCampType": "Alliance",
        "triggerResponserCampType": "Enemy",
        "responserConcernType": "CombatExcludeGWGO",
        "triggerResponserConcernType": "CombatExcludeGWGO",
        "reserveTime": 3.0
      }
    },
    "aiCombat": {
      "combatRole": "FIGHTER"
    },
    "profiling": {},
    "target": {
      "defaultTargetPrioritys": ["NERVE_TARGET", "THREAT"],
      "specificationTargetPrioritys": {
        "101": ["MASTER", "THREAT"]
      }
    },
    "sensing": {
      "settings": {
        "DefaultSetting": {
          "viewRange": 25.0,
          "feelRange": 10.0
        },
        "Worship": {
          "viewRange": 18.0,
          "feelRange": 8.0
        }
      },
      "templates": {
        "DefaultTemplate": {
          "DefaultPoses": "DefaultSetting"
        },
        "WorshipTemplate": {
          "DefaultPoses": "Worship"
        }
      }
    },
    "defendArea": {
      "enable": true,
      "defendRange": 40
    },
    "threat": {
      "clearThreatTimerByDistance": 5.0,
      "clearThreatByLostPath": true,
      "clearThreatTimerByLostPath": 10,
      "viewAttenuation": [
        { "x": 10.0, "y": 2.0 },
        { "x": 15.0, "y": 0.8 },
        { "x": 20.0, "y": 0.5 },
        { "x": 25.0, "y": 0.3 },
        { "x": 30.0, "y": 0.2 }
      ]
    },
    "order": {
      "master": {
        "enable": false
      },
      "servant": {
        "enable": true
      },
      "commandSetting": {
        "acceptCommandIDs": [20701]
      }
    },
    "returnToBornTactic": {
      "enable": true,
      "defaultSetting": {
        "speedLevel": 2
      }
    },
    "wanderTactic": {
      "enable": true,
      "condition": {
        "pose": [101, 9001]
      },
      "defaultSetting": {
        "speedLevel": 1,
        "cdMin": 5.0,
        "cdMax": 7.0,
        "distanceFromBorn": 10.0,
        "distanceFromCurrentMin": 3.0,
        "distanceFromCurrentMax": 5.0
      }
    },
    "meleeChargeTactic": {
      "enable": true,
      "condition": {
        "pose": [201]
      },
      "defaultSetting": {
        "speedLevel": 2,
        "speedLevelInner": 0,
        "innerDistance": 4.5,
        "stopDistance": 3.5,
        "startDistanceMin": 15.0,
        "startDistanceMax": 50
      }
    },
    "facingMoveTactic": {
      "enable": true,
      "condition": {
        "pose": [201]
      },
      "defaultSetting": {
        "speedLevel": 1,
        "rangeMin": 2.0,
        "rangeMax": 5.5,
        "restTimeMin": 5.0,
        "restTimeMax": 8.0,
        "facingMoveTurnInterval": 4.0,
        "facingMoveWeight": {
          "stop": 1.0,
          "forward": 1.0,
          "back": 0.2,
          "left": 1.0,
          "right": 1.0
        }
      }
    },
    "skillGroupCDConfigs": [
      {
        "skillGroupCDID": 0,
        "skillGroupCDTime": 10
      },
      {
        "skillGroupCDID": 1,
        "skillGroupCDTime": 10
      }
    ],
    "skills": {
      //////////////////////////////////////////////////
      //	Alert
      //////////////////////////////////////////////////
      "101": {
        "name": "OnAlert",
        "stateIDs": ["Alert"],
        "skillType": "OnAlert",
        "skillQueryingTime": 3,
        "triggerGCD": false,
        "ignoreGCD": true,
        "faceTarget": true
      },
      //////////////////////////////////////////////////
      //	Salute
      //////////////////////////////////////////////////
      "111": {
        "cd": 1.0,
        "cdUpperRange": 0,
        "initialCD": 1.0,
        "name": "Salute",
        "stateIDs": ["Salute"],
        "skillType": "Free",
        "combatSkillType": "Unclassified",
        "castCondition": {
          "pose": [9001]
        },
        "commandID": 20701
      },
      //////////////////////////////////////////////////
      //	Clean
      //////////////////////////////////////////////////
      "131": {
        "skillGroupCDID": 1,
        "cd": 30,
        "cdUpperRange": 0,
        "initialCD": 20,
        "name": "Clean",
        "stateIDs": ["Clean"],
        "skillType": "Free",
        "castCondition": {
          "pose": [9001]
        }
      },
      //////////////////////////////////////////////////
      //	NormalAtk 01
      //////////////////////////////////////////////////
      "201": {
        "name": "NormalAtk01",
        "skillType": "Combat",
        "combatSkillType": "MeleeAttack",
        "cd": 0.5,
        "cdUpperRange": 5.0,
        "initialCD": 2.0,
        "initialCDUpperRange": 4.0,
        "skillQueryingTime": 3,
        "publicCDGroup": "ForlornVessel_Skill",
        "priority": 2,
        "stateIDs": ["NormalAtk01"],
        "flagSelfInZone": "11",
        "flagTargetReachable": "11",
        "castCondition": {
          "maxTargetAngleXZ": 60,
          "pickRangeMin": 0.0,
          "pickRangeMax": 5.5,
          "castRangeMin": 0.0,
          "castRangeMax": 5.5,
          "pickRangeYMax": 2.5,
          "pose": [201]
        }
      },
      //////////////////////////////////////////////////
      //	NormalAtk 02
      //////////////////////////////////////////////////
      "211": {
        "name": "NormalAtk02",
        "skillType": "Combat",
        "combatSkillType": "MeleeAttack",
        "cd": 1.5,
        "cdUpperRange": 5.0,
        "initialCD": 1.0,
        "initialCDUpperRange": 4.0,
        "skillQueryingTime": 3,
        "publicCDGroup": "ForlornVessel_Skill",
        "priority": 2,
        "stateIDs": ["NormalAtk02"],
        "flagSelfInZone": "11",
        "flagTargetReachable": "11",
        "castCondition": {
          "pickRangeMin": 0.0,
          "pickRangeMax": 5.5,
          "castRangeMin": 0.0,
          "castRangeMax": 5.5,
          "pickRangeYMax": 3.5,
          "pose": [201]
        }
      },
      //////////////////////////////////////////////////
      //	ChargeAtk
      //////////////////////////////////////////////////
      // 距离过远时使用
      "301": {
        "name": "ChargeAtk",
        "skillType": "Combat",
        "combatSkillType": "MeleeAttack",
        "cd": 15.0,
        "cdUpperRange": 5.0,
        "initialCD": 2.0,
        "initialCDUpperRange": 4.0,
        "skillQueryingTime": 3,
        "publicCDGroup": "ForlornVessel_Skill",
        "priority": 3,
        "skillGroupCDID": 0,
        "stateIDs": ["ChargeAtk_BS", "ChargeAtk_Loop", "ChargeAtk_AS"],
        "castCondition": {
          "pickRangeMin": 10.0,
          "pickRangeMax": 17.5,
          "castRangeMin": 10.0,
          "castRangeMax": 17.5,
          "pose": [201]
        }
      },
      // 援护时使用
      "302": {
        "name": "ChargeAtk",
        "skillType": "OnNerve",
        "combatSkillType": "MeleeAttack",
        "cd": 12.0,
        "cdUpperRange": 6.0,
        "initialCD": 0.0,
        "initialCDUpperRange": 4.0,
        "skillQueryingTime": 3,
        "publicCDGroup": "ForlornVessel_Skill",
        "priority": 2,
        "skillGroupCDID": 0,
        "stateIDs": ["ChargeAtk_BS", "ChargeAtk_Loop", "ChargeAtk_AS"],
        "castCondition": {
          "pickRangeMin": 5.0,
          "pickRangeMax": 20.0,
          "castRangeMin": 7.5,
          "castRangeMax": 15.5,
          "pose": [201]
        },
        "nerveTrigger": ["HIT_BUDDY"],
        "canUseCombatSkillCondition": true,
        "nerveTarget": {
          "enable": true,
          "nerveTargetType": "TriggerResponser",
          "changeThreatTarget": true
        }
      }
    }
  },
  "audio": {
    "$type": "ConfigMonsterAudio",
    "animAudio": {
      "onTransitionOut": [],
      "onTransitionIn": []
    },
    "disableEvent": {},
    "destroyEvent": {},
    "randomVariantSwitchGroup": {
      "text": ""
    },
    "randomVariantSwitchValues": [
      {
        "text": ""
      }
    ]
  }
}
