{
  "$type": "ConfigMonster",
  "headControl": {
    "$type": "ConfigHeadControl",
    "useHeadControl": true,
    "animStates": [
      "NormalIdle/Standby",
      "NormalMove/WalkForward",
      "NormalMove/WalkBack",
      "NormalMove/WalkRight",
      "NormalMove/WalkLeft",
      "NormalMove/WalkToStandBy"
    ],
    "maxPitchDegree": 15,
    "maxYawDegree": 60
  },
  "common": {
    "effectAttachShape": {
      "$type": "ConfigEffectAttachSkinnedMesh",
      "mesh": "EffectMesh"
    },
    "mass": 10000,
    "useGrassDisplacement": true,
    "affectedByWorld": true,
    "checkInSurface": true,
    "scale": 1.3,
    "height": 1.6,
    "modelHeight": 2.3,
    "clearAnimatorOnSetLightDeactive": true,
    "clearAIOnSetLightDeactive": true,
    "shouldPauseAnimatorBeforeReady": true
  },
  "model": {
    "bornEffect": "Eff_Monster_Common_Born"
  },
  "dither": {
    "showDitherDuration": 1.0
  },
  "move": {
    "$type": "ConfigAnimatorMove",
    "facingMove": "FourDirection",
    "monsterSizeType": "NormalHumanoidType"
  },
  "equipController": {
    "attachPoints": {},
    "sheathPoint": ""
  },
  "billboard": {
    "$type": "ConfigCombatBillboard",
    "offset": {
      "x": 0.0,
      "y": 0.35,
      "z": 0
    },
    "radiusOffset": 0.2,
    "showHPBar": true,
    "size": "Normal"
  },
  "combat": {
    "property": {
      "weight": 80, //weightLevel = 2
      "endureType": "Monster_Grunt_Other"
    },
    "combatLock": {
      "denyLockOn": false,
      "lockType": "Avatar&Monster_Lv4"
    },
    "beHit": {
      "hitBloodEffect": "",
      "muteAllHit": false,
      "muteAllHitEffect": false,
      "muteAllHitText": false
    },
    "die": {
      "hasAnimatorDie": true,
      "dieDisappearEffect": "Eff_Death_Avatar_Common",
      "dieDisappearEffectDelay": 0,
      "dieEndTime": 2.5,
      "dieForceDisappearTime": 3.5,
      "dieShaderData": "AvatarDie",
      "useRagDoll": false,
      "ragDollDieEndTimeDelay": 1,
      "muteHitBox": true,
      "dieDenyLockOn": true,
      "dieIsGhostToEnemy": true,
      "dieIgnoreTriggerBullet": true,
      "muteBillboard": true,
      "mutePushCollider": true
    },
    "animEvents": {
      "CounterAttack": {
        "attackPattern": {
          "$type": "ConfigAttackCircle",
          "height": 1.5,
          "radius": 5,
          "triggerType": "TriggerNoRepeat",
          "born": {
            "$type": "ConfigBornBySelf",
            "offset": {
              "x": 0.0,
              "y": 0.0,
              "z": 0
            }
          }
        },
        "attackInfo": {
          "attackTag": "Maiden_Detect_Damage",
          "attackProperty": {
            "damagePercentage": 0.9375,
            "strikeType": "Blunt",
            "attackType": "Melee",
            "enBreak": 100.0,
            "elementType": "Water",
            "elementDurability": 101
          },
          "hitPattern": {
            "onHitEffectName": "default",
            "hitImpulseType": "LV5",
            "hitHaltTime": 0,
            "hitHaltTimeScale": 0,
            "muteHitText": false
          }
        }
      }
    }
  },
  "stateLayers": {
    "defaultLayer": {
      "$type": "ConfigNormalStateLayer",
      "stateIDs": {
        "NormalIdle": {
          "$type": "ConfigMonsterStateIDInfo",
          "animatorStates": {
            "Standby": [],
            "Born": [""]
          },
          "canDoSkill": true,
          "canSyncMove": true,
          "resetAnimatorTriggerOnExit": ["DoSkill"]
        },
        "NormalMove": {
          "$type": "ConfigMonsterStateIDInfo",
          "animatorStates": {
            "WalkForward": ["Audio_Fatuus_Maiden_Water_Walk"],
            "WalkRight": ["Audio_Fatuus_Maiden_Water_Walk"],
            "WalkLeft": ["Audio_Fatuus_Maiden_Water_Walk"],
            "Run": ["Audio_Fatuus_Maiden_Water_Walk"],
            "WalkFree": ["Audio_Fatuus_Maiden_Water_Walk"],
            "WalkToStandBy": ["Audio_Fatuus_Maiden_Water_WalkToStandBy"]
          },
          "canSteer": true,
          "canDoSkill": true,
          "canSyncMove": true,
          "resetAnimatorTriggerOnExit": ["DoSkill"]
        },
        "WalkBack": {
          "$type": "ConfigMonsterStateIDInfo",
          "animatorStates": {
            "WalkBack": ["Audio_Fatuus_Maiden_Water_Walk"]
          },
          "canSteer": true,
          "canDoSkill": true,
          "canSyncMove": true,
          "resetAnimatorTriggerOnExit": ["DoSkill"]
        },
        "TurnLeft": {
          "$type": "ConfigMonsterStateIDInfo",
          "animatorStates": {
            "TurnLeft": ["Audio_Fatuus_Maiden_Water_Turn"]
          },
          "canSteer": true,
          "canSyncMove": true,
          "followAnimRotation": true,
          "resetAnimatorTriggerOnExit": ["DoSkill"]
        },
        "TurnRight": {
          "$type": "ConfigMonsterStateIDInfo",
          "animatorStates": {
            "TurnRight": ["Audio_Fatuus_Maiden_Water_Turn"]
          },
          "canSteer": true,
          "canSyncMove": true,
          "followAnimRotation": true,
          "resetAnimatorTriggerOnExit": ["DoSkill"]
        },
        "BeHit": {
          "$type": "ConfigMonsterStateIDInfo",
          "animatorStates": {
            "Hit_L": ["Audio_Fatuus_Maiden_Water_Hit_L"],
            "Hit_H": ["Audio_Fatuus_Maiden_Water_Hit_H"]
          },
          "resetAnimatorTriggerOnEnter": ["BeHit"],
          "resetAnimatorTriggerOnExit": ["DoSkill"]
        },
        "BeHitThrow": {
          "$type": "ConfigMonsterStateIDInfo",
          "animatorStates": {
            "HitThrow": [""],
            "HitThrowDrop": [],
            "HitThrowToGround": [""]
          },
          "resetAnimatorTriggerOnEnter": ["BeHit", "HitAir2HitDrop"],
          "resetAnimatorTriggerOnExit": ["DoSkill"]
        },
        "Struggle": {
          "$type": "ConfigMonsterStateIDInfo",
          "animatorStates": {
            "Struggle": [""]
          },
          "resetAnimatorTriggerOnEnter": ["BeHit", "HitAir2HitDrop"],
          "resetAnimatorTriggerOnExit": ["DoSkill"]
        },
        "Die": {
          "$type": "ConfigMonsterStateIDInfo",
          "animatorStates": {
            "Die1": [
              "Audio_Fatuus_Maiden_Water_Die",
              "Monster_Fatuus_Summoner_Die"
            ],
            "Die2": [
              "Audio_Fatuus_Maiden_Water_Die",
              "Monster_Fatuus_Summoner_Die"
            ],
            "SwimDie": ["Monster_Fatuus_Maiden_SwimDie"],
            "SwimDie_AS": []
          }
        },
        "Die_RagDoll": {
          "$type": "ConfigMonsterStateIDInfo",
          "animatorStates": {
            "AirDie": [
              "Monster_Fatuus_Maiden_AirDie",
              "Audio_Fatuus_Maiden_Water_AirDie"
            ]
          },
          "enableRagDoll": true
        },
        "Life_Alert": {
          "$type": "ConfigMonsterStateIDInfo",
          "animatorStates": {
            "Alert": ["Audio_Fatuus_Maiden_Water_Alert"]
          },
          "resetAnimatorTriggerOnExit": ["BeHit", "DoSkill"]
        },
        "WaterSpear": {
          "$type": "ConfigMonsterStateIDInfo",
          "animatorStates": {
            "WaterSpearPower": [
              "Monster_Fatuus_Maiden_Water_FireWaterSpearPower",
              "Audio_Fatuus_Maiden_Water_WaterSpearPower"
            ],
            "WaterSpear_One": [
              "Monster_Fatuus_Maiden_Water_FireWaterSpearNormal1",
              "Audio_Fatuus_Maiden_Water_WaterSpear_One"
            ],
            "WaterSpear_Two": [
              "Monster_Fatuus_Maiden_Water_FireWaterSpearNormal2",
              "Audio_Fatuus_Maiden_Water_WaterSpear_two"
            ],
            "WaterSpear_TwoCombo": []
          },
          "canSteer": true,
          "addEndure": 0.0,
          "resetAnimatorTriggerOnExit": ["BeHit", "DoSkill", "SummonTrigger"]
        },
        "Detect": {
          "$type": "ConfigMonsterStateIDInfo",
          "animatorStates": {
            "Detect": [
              "Monster_Fatuus_Maiden_Water_FireDetect",
              "Audio_Fatuus_Maiden_Water_Detect",
              "Audio_Fatuus_Maiden_Water_Detect_VO"
            ],
            "CounterDetect": [
              "Monster_Fatuus_Maiden_Water_CounterDetect",
              "Audio_Fatuus_Maiden_Water_Detect",
              "Audio_Fatuus_Maiden_Water_CounterDetect"
            ]
          },
          "canSteer": true,
          "addEndure": 0,
          "resetAnimatorTriggerOnExit": ["BeHit", "DoSkill"]
        },
        "CounterAtk": {
          "$type": "ConfigMonsterStateIDInfo",
          "animatorStates": {
            "CounterAttack": [
              "Monster_Fatuus_Maiden_Water_Counter",
              "Audio_Fatuus_Maiden_Water_CounterAtk"
            ]
          },
          "canSteer": true,
          "addEndure": 0,
          "resetAnimatorTriggerOnExit": ["BeHit", "DoSkill"]
        },
        "Blink_BS": {
          "$type": "ConfigMonsterStateIDInfo",
          "animatorStates": {
            "Blink_BS": [
              "Monster_Fatuus_Maiden_BlinkBS",
              "Audio_Fatuus_Maiden_Water_Walk"
            ],
            "CounterBlink_BS": [
              "Monster_Fatuus_Maiden_BlinkBS",
              "Audio_Fatuus_Maiden_Water_Walk"
            ]
          },
          "canSteer": true,
          "addEndure": 0,
          "resetAnimatorTriggerOnExit": ["BeHit", "DoSkill"],
          "cullingModelAlwaysAnimate": true
        },
        "Blink_AS": {
          "$type": "ConfigMonsterStateIDInfo",
          "animatorStates": {
            "Blink_AS": ["Audio_Fatuus_Maiden_Water_Walk"],
            "CounterBlink_AS": ["Audio_Fatuus_Maiden_Water_Walk"]
          },
          "canSteer": true,
          "addEndure": 0,
          "resetAnimatorTriggerOnExit": ["BeHit", "DoSkill"],
          "cullingModelAlwaysAnimate": true
        },
        "FieldOpen": {
          "$type": "ConfigMonsterStateIDInfo",
          "animatorStates": {
            "FieldOpen": [
              "Monster_Fatuus_Maiden_Water_FieldOpen",
              "Audio_Fatuus_Maiden_Water_FieldOpen"
            ]
          },
          "addEndure": 0,
          "resetAnimatorTriggerOnExit": ["BeHit", "DoSkill"],
          "resetAnimatorTriggerOnEnter": ["DoSkill"]
        },
        "Random1": {
          "$type": "ConfigMonsterStateIDInfo",
          "animatorStates": {
            "Random1": ["", "Audio_Fatuus_Maiden_Water_Random1"]
          },
          "canDoSkill": true,
          "resetAnimatorTriggerOnExit": ["BeHit", "DoSkill"]
        },
        //增加向前blink技能
        "BlinkForward": {
          "$type": "ConfigMonsterStateIDInfo",
          "animatorStates": {
            "BlinkForward": ["Audio_Fatuus_Maiden_Water_Walk"]
          },
          "canDoSkill": false,
          "resetAnimatorTriggerOnExit": ["BeHit", "DoSkill"]
        },
        "Capture": {
          "$type": "ConfigMonsterStateIDInfo",
          "animatorStates": {
            "Capture": [
              "Monster_Fatuus_Maiden_Water_FireCapture",
              "Audio_Fatuus_Maiden_Water_Capture"
            ]
          },
          "addEndure": 0,
          "resetAnimatorTriggerOnExit": ["BeHit", "DoSkill"]
        },
        "WaterTomb": {
          "$type": "ConfigMonsterStateIDInfo",
          "animatorStates": {
            "WaterTomb_BS": ["Audio_Fatuus_Maiden_Water_WaterTomb_BS"],
            "WaterTomb_Loop": [""],
            "WaterTomb_AS": [
              "Monster_Fatuus_Maiden_FireWaterTomb",
              "Audio_Fatuus_Maiden_Water_WaterTomb_AS"
            ]
          },
          "addEndure": 0,
          "resetAnimatorTriggerOnExit": ["BeHit", "DoSkill"]
        }
      }
    }
  },
  "abilities": [
    {
      "abilityName": "Monster_Fatuus_Maiden_FireWaterTomb"
    },
    {
      "abilityName": "Monster_Fatuus_Maiden_Water_FireCapture"
    },
    {
      "abilityName": "Monster_Fatuus_Maiden_Water_FireCapture"
    },
    {
      "abilityName": "Monster_Fatuus_Maiden_Water_FireDetect"
    },
    {
      "abilityName": "Monster_Fatuus_Maiden_Water_FireWaterSpearNormal1"
    },
    {
      "abilityName": "Monster_Fatuus_Maiden_Water_FireWaterSpearNormal2"
    },
    {
      "abilityName": "Monster_Fatuus_Maiden_Water_FireWaterSpearPower"
    },
    {
      "abilityName": "Monster_Fatuus_Maiden_Water_Steer"
    },
    {
      "abilityName": "Monster_Fatuus_Maiden_Water_Blink"
    },
    {
      "abilityName": "Monster_Fatuus_Maiden_Water_OpenField"
    },
    {
      "abilityName": "Monster_Fatuus_Maiden_Water_CounterAttack"
    },
    {
      "abilityName": "Monster_Fatuus_Maiden_Water_FireCounterDetect"
    }
  ],
  "initialPoses": {
    "Default": {
      "initialPoseID": 0
    }
  },
  "aibeta": {
    "enable": true,
    "skillGCD": 3,
    "skillSetting": {
      "skillEliteSet": {
        "1": [],
        "2": []
      }
    },
    "neurons": {
      "DefaultSetting": ["HIT"],
      "NeverCombat": []
    },
    "profiling": {},
    "sensing": {
      "settings": {
        "DefaultSetting": {
          "viewRange": 30.0,
          "feelRange": 15.0
        },
        "NeverCombat": {
          "enableVision": false,
          "feelRange": 0.0,
          "hearAttractionRange": 0.0
        }
      },
      "templates": {
        "DefaultTemplate": {
          "DefaultPoses": "DefaultSetting"
        },
        "NeverCombatTemplate": {
          "DefaultPoses": "NeverCombat"
        }
      }
    },
    "defendArea": {
      "defendRange": 40
    },
    "threat": {
      "clearThreatTargetDistance": 30,
      "clearThreatTimerByDistance": 1.75,
      "clearThreatEdgeDistance": 3.5,
      "viewThreatGrow": 35.0,
      "feelThreatGrow": 100.0,
      "threatDecreaseSpeed": 10.0,
      "resistTauntLevel": "Monster_TauntLevel_3"
    },
    "returnToBornTactic": {
      "enable": true,
      "defaultSetting": {
        "speedLevel": 1,
        "fadeoutBeginTime": 0.75,
        "fadeoutEndTime": 2.25
      }
    },
    "wanderTactic": {
      "enable": true,
      "condition": {
        "pose": [1, 101]
      },
      "defaultSetting": {
        "speedLevel": 1,
        "cdMin": 5.0,
        "cdMax": 7.5,
        "distanceFromBorn": 15.0,
        "distanceFromCurrentMin": 5.0,
        "distanceFromCurrentMax": 7.5
      }
    },
    "facingMoveTactic": {
      "enable": true,
      "condition": {
        "pose": [1, 101, 201]
      },
      "defaultSetting": {
        "speedLevel": 1,
        "rangeMin": 0,
        "rangeMax": 10,
        "restTimeMin": 2,
        "restTimeMax": 4,
        "facingMoveTurnInterval": 2.5,
        "facingMoveWeight": {
          "stop": 5,
          "forward": 0,
          "back": 1,
          "left": 0,
          "right": 0
        }
      },
      "specification": {
        "201": {
          "speedLevel": 1,
          "rangeMin": 0,
          "rangeMax": 20,
          "restTimeMin": 2,
          "restTimeMax": 4,
          "facingMoveTurnInterval": 2.5,
          "facingMoveWeight": {
            "stop": 0,
            "forward": 0,
            "back": 0,
            "left": 1.5,
            "right": 1.5
          }
        }
      }
    },
    "meleeChargeTactic": {
      "enable": true,
      "condition": {
        "pose": [101]
      },
      "defaultSetting": {
        "speedLevel": 2,
        "turnSpeedOverride": 10,
        /*				"speedLevelInner": 0,
				"innerDistance": 4,*/
        "stopDistance": 3.5,
        "startDistanceMin": 20,
        "startDistanceMax": 50
      }
    },
    "skillGroupCDConfigs": [{ "skillGroupCDID": 0, "skillGroupCDTime": 15 }],
    "skills": {
      "1": {
        "name": "OnAlert",
        "stateIDs": ["Life_Alert"],
        "skillType": "OnAlert",
        "skillQueryingTime": 3,
        "triggerGCD": false,
        "faceTarget": true
      },
      // "2":
      // {
      // 	"cd": 30,
      // 	"cdUpperRange": 15,
      // 	"initialCD": 30,
      // 	"name": "Random1",
      // 	"stateIDs": ["Random1"],
      // 	"skillType": "Free",
      // 	"skillQueryingTime": 3,
      // 	"castCondition":
      // 	{
      // 		"pose": [1,2],
      // 	},
      // },
      "3": {
        "cd": 0.5,
        "priority": 5,
        "ignoreGCD": true,
        "triggerGCD": false,
        "name": "Turn",
        "stateIDs": ["TurnLeft", "TurnRight"],
        "skillType": "Combat",
        "skillQueryingTime": 3,
        "castCondition": {
          "minTargetAngleXZ": 90.0,
          "maxTargetAngleY": 30.0,
          "pose": [101, 201]
        }
      },
      "101": {
        //单发1
        "cd": 5,
        "cdUpperRange": 5,
        "name": "WaterSpear1",
        "priority": 4,
        "stateIDs": ["WaterSpear"],
        "flagTargetReachable": "11",
        "flagSelfInZone": "11",
        "castCondition": {
          "pickRangeMin": 0,
          "pickRangeMax": 20,
          "pose": [101]
        }
      },
      "102": {
        //单发2
        "cd": 5,
        "initialCD": 5,
        "name": "WaterSpear2",
        "priority": 4,
        "stateIDs": ["WaterSpear"],
        "flagTargetReachable": "11",
        "flagSelfInZone": "11",
        "castCondition": {
          "pickRangeMin": 0,
          "pickRangeMax": 20,
          "pose": [101]
        }
      },
      "103": {
        //3连发
        "cd": 1,
        "name": "PowerWaterSpear",
        "priority": 5,
        "stateIDs": ["WaterSpear"],
        "flagTargetReachable": "11",
        "flagSelfInZone": "11",
        "castCondition": {
          "pickRangeMin": 0,
          "pickRangeMax": 20,
          "pose": [201]
        }
      },
      "104": {
        //单发1+2
        "cd": 5,
        "initialCD": 5,
        "name": "WaterSpear12",
        "priority": 4,
        "stateIDs": ["WaterSpear"],
        "flagTargetReachable": "11",
        "flagSelfInZone": "11",
        "castCondition": {
          "pickRangeMin": 0,
          "pickRangeMax": 20,
          "pose": [101]
        }
      },
      "201": {
        //探测技能
        "cd": 5,
        "cdUpperRange": 2,
        "priority": 2,
        "name": "Detect",
        "stateIDs": ["Detect"],
        "flagTargetReachable": "11",
        "flagSelfInZone": "11",
        "castCondition": {
          "pickRangeMin": 0,
          "pickRangeMax": 30,
          "pose": [101]
        }
      },
      "202": {
        //开眼后的强力连续攻击技能,连续探测攻击
        "cd": 30,
        "initialCD": 30,
        "cdUpperRange": 2,
        "priority": 2,
        "name": "EndlessDetect",
        "stateIDs": ["Detect"],
        "flagTargetReachable": "11",
        "flagSelfInZone": "11",
        "castCondition": {
          "pickRangeMin": 0,
          "pickRangeMax": 30,
          "pose": [201]
        }
      },
      "301": {
        //闪烁
        "skillGroupCDID": 0,
        "triggerGCD": false,
        "ignoreGCD": true,
        "name": "Blink",
        "priority": 2,
        "stateIDs": ["Blink_BS", "Blink_AS"],
        "flagTargetReachable": "11",
        "flagSelfInZone": "11",
        "castCondition": {
          "pickRangeMin": 0,
          "pickRangeMax": 5,
          "SkillAnchorRangeMax": 25,
          "pose": [101, 201]
        }
      },
      "401": {
        //水牢
        "cd": 10,
        "triggerGCD": false,
        "ignoreGCD": true,
        "flagTargetReachable": "11",
        "flagSelfInZone": "11",
        "name": "Capture",
        "priority": 2,
        "stateIDs": ["Capture"],
        "castCondition": {
          "pickRangeMin": 0,
          "pickRangeMax": 30,
          "pose": [201]
        }
      },
      "501": {
        //水镜葬
        "cd": 20,
        "name": "WaterTomb",
        "priority": 3,
        "flagTargetReachable": "11",
        "flagSelfInZone": "11",
        "ignoreGCD": true,
        "stateIDs": ["WaterTomb"],
        "castCondition": {
          "pickRangeMin": 0,
          "pickRangeMax": 30,
          "pose": [201]
        }
      },
      "601": {
        //反击
        "cd": 20,
        "cdUpperRange": 5,
        "initialCD": 30,
        "name": "CounterAttack",
        "priority": 2,
        "flagTargetReachable": "11",
        "flagSelfInZone": "11",
        "stateIDs": ["CounterAttack"],
        "castCondition": {
          "pickRangeMin": 0,
          "pickRangeMax": 20,
          "pose": [999]
        }
      },
      "901": {
        //开眼
        "triggerCDOnFail": false,
        "initialCD": 99999,
        "cd": 999999,
        "priority": 1,
        "name": "FieldOpen",
        "ignoreGCD": true,
        "triggerGCD": false,
        "flagTargetReachable": "11",
        "flagSelfInZone": "11",
        "stateIDs": ["FieldOpen"],
        "castCondition": {
          "pickRangeMin": 0,
          "pickRangeMax": 50,
          "pose": [101]
        }
      },
      //向前闪烁
      "9000": {
        "skillGroupCDID": 0,
        "priority": 2,
        "name": "BlinkFoward",
        "stateIDs": ["BlinkForward"],
        "skillType": "Combat",
        "skillQueryingTime": 2,
        "flagTargetReachable": "11",
        "flagSelfInZone": "11",
        "castCondition": {
          "pickRangeMin": 20,
          "pickRangeMax": 30,
          "maxTargetAngleXZ": 90,
          "pose": [101, 201]
        }
      },
      //向前闪烁 距离出生点过远
      "9001": {
        "skillGroupCDID": 0,
        "priority": 2,
        "name": "BlinkFoward",
        "stateIDs": ["BlinkForward"],
        "skillType": "Combat",
        "skillQueryingTime": 2,
        "flagTargetReachable": "11",
        "flagSelfInZone": "11",
        "castCondition": {
          "SkillAnchorRangeMin": 25,
          "pose": [101, 201]
        }
      }
    }
  },
  "inputKeys": [
    {
      //1
      "keyID": 101,
      "inputKeyCode": 257
    },
    {
      //2
      "keyID": 201,
      "inputKeyCode": 258
    },
    {
      //3
      "keyID": 301,
      "inputKeyCode": 259
    },
    {
      //4
      "keyID": 401,
      "inputKeyCode": 260
    },
    {
      //5
      "keyID": 501,
      "inputKeyCode": 261
    },
    {
      //6
      "keyID": 601,
      "inputKeyCode": 262
    },
    {
      //7
      "keyID": 103,
      "inputKeyCode": 263
    },
    {
      //8
      "keyID": 102,
      "inputKeyCode": 264
    },
    {
      //9
      "keyID": 9000,
      "inputKeyCode": 265
    },
    // \+1
    {
      "keyID": 104,
      "inputKeyCode": 266
    },
    // \+2
    {
      "keyID": 901,
      "inputKeyCode": 267
    },
    // \+3
    {
      "keyID": 202,
      "inputKeyCode": 268
    }
  ],
  "audio": {
    "$type": "ConfigMonsterAudio",
    "animAudio": {
      "onTransitionOut": [
        {
          "currentStateName": "",
          "audioEvent": {
            "text": ""
          },
          "otherStateNames": ["BurstAtk_BS2", "BurstAtk"],
          "usage": "Except"
        }
      ]
    }
  }
}
