{
  "$type": "ConfigMonster",
  // "headControl" :
  // {
  // 	"$type": "ConfigHeadControl",
  // 	"useHeadControl": false,
  // 	"maxYawDegree": 50,
  // 	"maxPitchDegree": 45,
  // 	"animStates":
  // 	[

  // 	],
  // },
  "common": {
    "mass": 80.0,
    "height": 0.6,
    "affectedByWorld": true,
    "checkInSurface": true,
    "scale": 1.0,
    "viewSize": 1.0,
    "effectAttachShape": {
      "$type": "ConfigEffectAttachSkinnedMesh",
      "mesh": "EffectMesh"
    },
    "clearAnimatorOnSetLightDeactive": true,
    "clearAIOnSetLightDeactive": true,
    "recoverByInitPose": true,
    "useGrassDisplacement": true
  },
  "move": {
    "$type": "ConfigAnimatorMove",
    "facingMove": "FourDirection",
    "airFacingMove": "AirBlend3D",
    "monsterSizeType": "SlimeType",
    "moveOnWater": false
    // "velocityForce":
    // {
    // 	"excludeForces": ["WindZoneType", "AirflowType"],
    // },
  },
  "dither": {
    "showDitherDuration": 2.0
  },
  "billboard": {
    "$type": "ConfigCombatBillboard",
    "offset": {
      "x": 0,
      "y": 0.5,
      "z": 0
    },
    "radiusOffset": 1.0,
    "enableSelfAdapt": true,
    "showHPBar": true,
    "size": "Normal"
  },
  "model": {
    "canBakeMesh": false
  },
  "combat": {
    "property": {
      "endureType": "Monster_Slime",
      "weight": 75 //weightLevel = 3
    },
    "combatLock": {
      "denyLockOn": false,
      "lockType": "Avatar&Monster_Lv4"
    },
    "beHit": {
      "hitBloodEffect": "",
      "hitAutoRedirect": true,
      "muteAllHit": false,
      "muteAllHitEffect": false,
      "muteAllHitText": false
    },
    "die": {
      "hasAnimatorDie": true,
      "dieDisappearEffect": "Eff_Death_Common",
      "dieDisappearEffectDelay": 0.0,
      "dieEndTime": 0.5,
      "dieForceDisappearTime": 1.5,
      "dieModelFadeDelay": 0.0,
      "dieShaderData": "MonsterDie",
      "muteHitBox": true,
      "dieDenyLockOn": true,
      "dieIsGhostToEnemy": true,
      "dieIgnoreTriggerBullet": true,
      "muteBillboard": true,
      "mutePushCollider": true
    },
    "animEvents": {
      "MeleeAttackNormal": {
        "attackPattern": {
          "$type": "ConfigAttackCircle",
          "duration": 0.0,
          "triggerType": "TriggerNoRepeat",
          "fanAngle": 45.0,
          "radius": 2.0,
          "height": 1.3,
          "born": {
            "$type": "ConfigBornBySelf",
            "offset": {
              "x": 0.0,
              "y": 0.0,
              "z": 0.0
            }
          }
        },
        "attackInfo": {
          "attackProperty": {
            "damagePercentage": 0.3,
            "strikeType": "Blunt",
            "attackType": "Melee",
            "enBreak": 60.0
          },
          "hitPattern": {
            "onHitEffectName": "default",
            "hitImpulseType": "LV2",
            "reboundRatio": 0,
            "hitHaltTime": 0,
            "hitHaltTimeScale": 0,
            "muteHitText": false
          }
        }
      },
      "MeleeAttackDecay": {
        "attackPattern": {
          "$type": "ConfigAttackCircle",
          "duration": 0.0,
          "triggerType": "TriggerNoRepeat",
          "fanAngle": 90.0,
          "radius": 2.0,
          "height": 1.5,
          "born": {
            "$type": "ConfigBornBySelf",
            "offset": {
              "x": 0.0,
              "y": 0.0,
              "z": 0.0
            }
          }
        },
        "attackInfo": {
          "attackProperty": {
            "damagePercentage": 0.6,
            "strikeType": "Blunt",
            "attackType": "Melee",
            "enBreak": 150.0
          },
          "hitPattern": {
            "onHitEffectName": "default",
            "hitImpulseType": "LV3",
            "reboundRatio": 0,
            "hitHaltTime": 0,
            "hitHaltTimeScale": 0,
            "muteHitText": false
          }
        }
      },
      "DigOutAttackNormal": {
        "attackPattern": {
          "$type": "ConfigAttackCircle",
          "duration": 0.0,
          "triggerType": "TriggerNoRepeat",
          "fanAngle": 60.0,
          "radius": 2.3,
          "height": 1.8,
          "born": {
            "$type": "ConfigBornBySelf",
            "offset": {
              "x": 0.0,
              "y": 0.0,
              "z": 0.0
            }
          }
        },
        "attackInfo": {
          "attackProperty": {
            "damagePercentage": 0.6,
            "strikeType": "Blunt",
            "attackType": "Melee",
            "elementType": "Ice",
            "elementDurability": 25,
            "enBreak": 150.0
          },
          "hitPattern": {
            "onHitEffectName": "default",
            "hitImpulseType": "LV3",
            "reboundRatio": 0,
            "hitHaltTime": 0,
            "hitHaltTimeScale": 0,
            "muteHitText": false
          }
        }
      },
      "DigOutAttackDecay": {
        "attackPattern": {
          "$type": "ConfigAttackCircle",
          "duration": 0.0,
          "triggerType": "TriggerNoRepeat",
          "fanAngle": 90.0,
          "radius": 2.0,
          "height": 2.0,
          "born": {
            "$type": "ConfigBornBySelf",
            "offset": {
              "x": 0.0,
              "y": 0.0,
              "z": 0.0
            }
          }
        },
        "attackInfo": {
          "attackProperty": {
            "damagePercentage": 1.0,
            "strikeType": "Blunt",
            "attackType": "Melee",
            "elementType": "Ice",
            "elementDurability": 25,
            "enBreak": 200.0
          },
          "hitPattern": {
            "onHitEffectName": "default",
            "hitImpulseType": "LV4",
            "reboundRatio": 0,
            "hitHaltTime": 0,
            "hitHaltTimeScale": 0,
            "muteHitText": false
          }
        }
      }
    }
  },
  "inputKeys": [
    {
      "keyID": 301,
      "inputKeyCode": 257
    },
    {
      "keyID": 501,
      "inputKeyCode": 258
    },
    {
      "keyID": 311,
      "inputKeyCode": 259
    },
    {
      "keyID": 511,
      "inputKeyCode": 260
    },
    {
      "keyID": 321,
      "inputKeyCode": 261
    },
    {
      "keyID": 521,
      "inputKeyCode": 262
    },
    {
      "keyID": 102,
      "inputKeyCode": 263
    },
    {
      "keyID": 103,
      "inputKeyCode": 264
    },
    {
      "keyID": 104,
      "inputKeyCode": 265
    },
    // {
    // 	"keyID": 105,
    // 	"inputKeyCode": 266,
    // },
    // Test Skills ///////////////////////////////
    {
      //\+1
      "keyID": 9997,
      "inputKeyCode": 266
    },
    {
      //\+2
      "keyID": 9998,
      "inputKeyCode": 267
    },
    {
      //\+3
      "keyID": 9999,
      "inputKeyCode": 268
    }
  ],
  "stateLayers": {
    "defaultLayer": {
      "$type": "ConfigNormalStateLayer",
      "stateIDs": {
        "Born": {
          "$type": "ConfigMonsterStateIDInfo",
          "animatorStates": {
            "Born": [""]
          },
          "canSyncMove": true,
          "resetAnimatorTriggerOnExit": ["DoSkill"]
        },
        "NormalIdle": {
          "$type": "ConfigMonsterStateIDInfo",
          "animatorStates": {
            "StandbyFree": [],
            "Standby": []
          },
          "canDoSkill": true,
          "canSteer": true,
          "autoSteer": true,
          "canSyncMove": true,
          "resetAnimatorTriggerOnExit": ["DoSkill"]
        },
        "NormalMove": {
          "$type": "ConfigMonsterStateIDInfo",
          "animatorStates": {
            "WalkForward": [],
            "WalkBack": [],
            "WalkLeft": [],
            "WalkRight": [],
            "Run_Decay": []
          },
          "canDoSkill": true,
          "canSteer": true,
          "canSyncMove": true,
          "resetAnimatorTriggerOnExit": ["DoSkill"]
        },
        "BeHit": {
          "$type": "ConfigMonsterStateIDInfo",
          "animatorStates": {
            "Hit_H": ["Audio_Monster_Fungus_Trois_HitThrow"]
          },
          "canSyncMove": true,
          "resetAnimatorTriggerOnEnter": ["BeHit"],
          "resetAnimatorTriggerOnExit": ["DoSkill"],
          "airMoveFollowAnimation": true
        },
        "BeHitThrow": {
          "$type": "ConfigMonsterStateIDInfo",
          "animatorStates": {
            "HitThrow": ["Audio_Monster_Fungus_Trois_HitThrow"],
            "HitThrowDrop": [],
            "HitThrowToGround": [
              "Monster_Fungus_Trois_Alpha_Ice_HitThrowToGround",
              "Audio_Monster_Fungus_Trois_HitThrowToGround"
            ]
          },
          "combatMove": true,
          "resetAnimatorTriggerOnEnter": ["BeHit", "HitAir2HitDrop"],
          "resetAnimatorTriggerOnExit": ["DoSkill"]
        },
        "Struggle": {
          "$type": "ConfigMonsterStateIDInfo",
          "animatorStates": {
            "Struggle": []
          },
          "canSyncMove": false,
          "combatMove": true,
          "resetAnimatorTriggerOnEnter": ["BeHit", "HitAir2HitDrop"],
          "resetAnimatorTriggerOnExit": ["DoSkill"]
        },
        "Die": {
          "$type": "ConfigMonsterStateIDInfo",
          "animatorStates": {
            "Die_BS": ["Audio_Monster_Fungus_Trois_Die"],
            "Die": ["Monster_Fungus_Trois_Die"],
            "AirDie": ["Monster_Fungus_Trois_Die"],
            "SwimDie_BS": [""],
            "SwimDie": ["Monster_Fungus_Trois_Die"]
          }
        },
        "Warning": {
          "$type": "ConfigMonsterStateIDInfo",
          "animatorStates": {
            "Warning": ["", "Audio_Monster_Fungus_Trois_Warning"]
          },
          "canSyncMove": true,
          "canSteer": true,
          "resetAnimatorTriggerOnExit": ["BeHit", "DoSkill"]
        },
        "ChangeState": {
          "$type": "ConfigMonsterStateIDInfo",
          "animatorStates": {
            "ChangeStateToOverdose": ["Audio_Monster_Fungus_Trois_ChangeState"],
            "ChangeStateToDecayed": ["Audio_Monster_Fungus_Trois_ChangeState"]
          },
          "canSyncMove": true,
          "resetAnimatorTriggerOnEnter": ["BeHit"],
          "resetAnimatorTriggerOnExit": ["DoSkill"],
          "airMoveFollowAnimation": true
        },
        ////////////////////////////////////////////////////////////
        // Combat skills
        ////////////////////////////////////////////////////////////
        "Dance": {
          "$type": "ConfigMonsterStateIDInfo",
          "animatorStates": {
            "Dance": ["", "Audio_Monster_Fungus_Trois_Dance"]
          },
          "canDoSkill": true,
          "canSyncMove": true,
          "canSteer": true,
          "resetAnimatorTriggerOnExit": ["BeHit", "DoSkill"]
        },
        "Tease": {
          "$type": "ConfigMonsterStateIDInfo",
          "animatorStates": {
            "Tease": ["", "Audio_Monster_Fungus_Trois_Tease"]
          },
          "canDoSkill": true,
          "canSyncMove": true,
          "canSteer": true,
          "resetAnimatorTriggerOnExit": ["BeHit", "DoSkill"]
        },
        "Absorb": {
          "$type": "ConfigMonsterStateIDInfo",
          "animatorStates": {
            "Absorb": [
              "Monster_Fungus_Trois_Absorb",
              "Audio_Monster_Fungus_Trois_Absorb"
            ]
          },
          "canDoSkill": true,
          "canSyncMove": true,
          "canSteer": true,
          "resetAnimatorTriggerOnExit": ["BeHit", "DoSkill"]
        },
        //////////////////////////////////////////////////
        //	Combat skill states
        //////////////////////////////////////////////////
        "MeleeAttackNormal_BS": {
          "$type": "ConfigMonsterStateIDInfo",
          "animatorStates": {
            "MeleeAttackNormal_BS": [
              "",
              "Audio_Monster_Fungus_Trois_MeleeAttack_BS"
            ],
            "MeleeAttackNormal_Loop": [
              "",
              "Audio_Monster_Fungus_Trois_MeleeAttack_Loop"
            ]
          },
          "canSyncMove": false,
          "canSteer": true,
          "resetAnimatorTriggerOnExit": ["BeHit", "DoSkill"]
        },
        "MeleeAttackOverdose_BS": {
          "$type": "ConfigMonsterStateIDInfo",
          "animatorStates": {
            "MeleeAttackOverdose_BS": [
              "",
              "Audio_Monster_Fungus_Trois_MeleeAttack_BS"
            ],
            "MeleeAttackOverdose_Loop": [
              "",
              "Audio_Monster_Fungus_Trois_MeleeAttack_Loop"
            ]
          },
          "canSyncMove": false,
          "canSteer": true,
          "resetAnimatorTriggerOnExit": ["BeHit", "DoSkill"]
        },
        "MeleeAttackDecay_BS": {
          "$type": "ConfigMonsterStateIDInfo",
          "animatorStates": {
            "MeleeAttackDecay_BS": [
              "",
              "Audio_Monster_Fungus_Trois_MeleeAttack_BS"
            ],
            "MeleeAttackDecay_Loop": [
              "",
              "Audio_Monster_Fungus_Trois_MeleeAttack_Loop"
            ]
          },
          "canSyncMove": false,
          "canSteer": true,
          "resetAnimatorTriggerOnExit": ["BeHit", "DoSkill"]
        },
        "MeleeAttack": {
          "$type": "ConfigMonsterStateIDInfo",
          "animatorStates": {
            "MeleeAttackNormal_Attack": [
              "Monster_Fungus_Trois_Alpha_Ice_MeleeAttackNormal_Attack",
              "Audio_Monster_Fungus_Trois_MeleeAttack_Attack"
            ],
            "MeleeAttackNormal_AS": ["", ""],
            //////////////////////////////////
            "MeleeAttackOverdose_Attack": [
              "Monster_Fungus_Trois_Alpha_Ice_MeleeAttackNormal_Attack",
              "Audio_Monster_Fungus_Trois_MeleeAttack_Attack"
            ],
            "MeleeAttackOverdose_AS": ["", ""],
            //////////////////////////////////
            "MeleeAttackDecay_Attack": [
              "Monster_Fungus_Trois_Alpha_Ice_MeleeAttackDecay_Attack",
              "Audio_Monster_Fungus_Trois_MeleeAttack_Attack"
            ],
            "MeleeAttackDecay_AS": ["", ""]
          },
          "canSyncMove": false,
          "canSteer": true,
          "resetAnimatorTriggerOnExit": ["BeHit", "DoSkill"]
        },
        "Dig": {
          "$type": "ConfigMonsterStateIDInfo",
          "animatorStates": {
            "DigNormal_BS": [
              "Monster_Fungus_Trois_Alpha_Ice_DigNormal_BS",
              "Audio_Monster_Fungus_Trois_Ice_Dig_BS"
            ],
            "DigNormal_AS": [
              "Monster_Fungus_Trois_Alpha_Ice_DigNormal_AS",
              "Audio_Monster_Fungus_Trois_Ice_Dig_AS"
            ],
            "DigOutAttackNormal_AS": [
              "",
              "Audio_Monster_Fungus_Trois_Ice_Dig_AS"
            ],
            //////////////////////////////////
            "DigOverdose_BS": [
              "Monster_Fungus_Trois_Alpha_Ice_DigNormal_BS",
              "Audio_Monster_Fungus_Trois_Ice_Dig_BS"
            ],
            "DigOverdose_AS": [
              "Monster_Fungus_Trois_Alpha_Ice_DigNormal_AS",
              "Audio_Monster_Fungus_Trois_Ice_Dig_AS"
            ],
            "DigOutAttackOverdose_AS": [
              "",
              "Audio_Monster_Fungus_Trois_Ice_Dig_AS"
            ],
            //////////////////////////////////
            "DigDecay_BS": [
              "Monster_Fungus_Trois_Alpha_Ice_DigNormal_BS",
              "Audio_Monster_Fungus_Trois_Ice_Dig_BS"
            ],
            "DigDecay_AS": [
              "Monster_Fungus_Trois_Alpha_Ice_DigNormal_AS",
              "Audio_Monster_Fungus_Trois_Ice_Dig_AS"
            ],
            "DigOutAttackDecay_AS": [
              "",
              "Audio_Monster_Fungus_Trois_Ice_Dig_AS"
            ]
          },
          "canSyncMove": false,
          "canSteer": true,
          "resetAnimatorTriggerOnExit": ["BeHit", "DoSkill"]
        },
        "DigMoveLoopReady": {
          "$type": "ConfigMonsterStateIDInfo",
          "animatorStates": {
            "DigOverdose_MoveLoopReady": ["", ""]
          },
          "canSyncMove": false,
          "canSteer": true,
          "resetAnimatorTriggerOnExit": ["BeHit", "DoSkill"]
        },
        "DigNormalMoveLoop": {
          "$type": "ConfigMonsterStateIDInfo",
          "animatorStates": {
            "DigNormal_MoveLoop": ["", ""]
          },
          "canSyncMove": false,
          "canSteer": true,
          "resetAnimatorTriggerOnExit": ["BeHit", "DoSkill"]
        },
        "DigOverdoseMoveLoop": {
          "$type": "ConfigMonsterStateIDInfo",
          "animatorStates": {
            "DigOverdose_MoveLoop": ["", ""]
          },
          "canSyncMove": false,
          "canSteer": true,
          "resetAnimatorTriggerOnExit": ["BeHit", "DoSkill"]
        },
        "DigDecayMoveLoop": {
          "$type": "ConfigMonsterStateIDInfo",
          "animatorStates": {
            "DigDecay_MoveLoop": ["", ""]
          },
          "canSyncMove": false,
          "canSteer": true,
          "resetAnimatorTriggerOnExit": ["BeHit", "DoSkill"]
        },
        "DigOutAttack": {
          "$type": "ConfigMonsterStateIDInfo",
          "animatorStates": {
            "DigOutAttackNormal_Attack": [
              "Monster_Fungus_Trois_Alpha_Ice_DigOutAttackNormal_Attack",
              "Audio_Monster_Fungus_Trois_Ice_Dig_Attack"
            ],
            //////////////////////////////////
            "DigOutAttackOverdose_Attack": [
              "Monster_Fungus_Trois_Alpha_Ice_DigOutAttackNormal_Attack",
              "Audio_Monster_Fungus_Trois_Ice_Dig_Attack"
            ],
            //////////////////////////////////
            "DigOutAttackDecay_Attack": [
              "Monster_Fungus_Trois_Alpha_Ice_DigOutAttackDecay_Attack",
              "Audio_Monster_Fungus_Trois_Ice_Dig_Attack"
            ]
          },
          "canSyncMove": false,
          "canSteer": true,
          "resetAnimatorTriggerOnExit": ["BeHit", "DoSkill"]
        },
        "DigBreak": {
          "$type": "ConfigMonsterStateIDInfo",
          "animatorStates": {
            "DigBreak_BS": ["", "Audio_Monster_Fungus_Trois_Ice_DigBreak_BS"],
            "DigBreak_StunLoop": [
              "",
              "Audio_Monster_Fungus_Trois_Ice_DigBreak_Loop"
            ],
            "DigBreak_AS": ["", "Audio_Monster_Fungus_Trois_Ice_DigBreak_AS"]
          },
          "canSyncMove": false,
          "canSteer": true,
          "resetAnimatorTriggerOnExit": ["BeHit", "DoSkill"]
        },
        //////////////////////////////////////////////////
        //	ReturnToBorn states
        //////////////////////////////////////////////////
        "ReturnToBorn": {
          "$type": "ConfigMonsterStateIDInfo",
          "animatorStates": {
            "ReturnToBorn_BS": [
              "Monster_Fungus_Trois_ReturnToBorn_BS",
              "Audio_Monster_Fungus_Trois_ReturnToBorn_BS"
            ],
            "ReturnToBorn_Loop": [""],
            "ReturnToBorn_AS": [
              "Monster_Fungus_Trois_ReturnToBorn_AS",
              "Audio_Monster_Fungus_Trois_ReturnToBorn_AS"
            ]
          },
          "combatMove": true,
          "cullingModelAlwaysAnimate": true,
          "resetAnimatorTriggerOnExit": ["BeHit", "DoSkill"]
        }
      }
    }
  },
  "abilities": [
    // Trois General Abilities
    {
      "abilityName": "Monster_Fungus_Trois_RotateManagerAndReset"
    },
    // State Abilities
    {
      "abilityName": "Monster_Fungus_FungusStateManager"
    },
    {
      "abilityName": "Monster_Fungus_Un_ReturnToBornManager"
    },
    {
      "abilityName": "Monster_Fungus_Trois_Alpha_Ice_HitThrowDropToGround"
    },
    // Skill Abilities
    {
      "abilityName": "Monster_Fungus_Trois_Alpha_Ice_Steer"
    },
    {
      "abilityName": "Monster_Fungus_Trois_Alpha_Ice_MeleeAttackNormal"
    },
    {
      "abilityName": "Monster_Fungus_Trois_Alpha_Ice_DigMoveLoop"
    },
    {
      "abilityName": "Monster_Fungus_Not_Un_Gamma_Water_Mark" // 3.0成就新增，用于标记非水蕈兽的其他蕈兽
    }
  ],
  "initialPoses": {
    "Default": {
      "initialPoseID": 101
    },
    "Dance": {
      "initialPoseID": 102,
      "initialPoseParams": {
        "boolParams": {
          "Dance": "true"
        }
      }
    },
    "Tease": {
      "initialPoseID": 103,
      "initialPoseParams": {
        "boolParams": {
          "Tease": "true"
        }
      }
    },
    "Absorb": {
      "initialPoseID": 104,
      "initialPoseParams": {
        "boolParams": {
          "Absorb": "true"
        }
      }
    }
  },
  "aibeta": {
    "enable": true,
    "moveSetting": {
      "useNavMesh": true
    },
    "skillGCD": 3.5,
    "neurons": {
      "DefaultSetting": ["HIT"],
      "NeverCombat": []
    },
    "sensing": {
      "settings": {
        "DefaultSetting": {
          "viewRange": 22.0,
          "feelRange": 8.75
        },
        "Patrol": {
          "viewRange": 0.0,
          "feelRange": 6.0
        },
        "NoSensing": {
          "enableVision": false,
          "feelRange": 0.0,
          "hearAttractionRange": 0.0
        }
      },
      "templates": {
        "DefaultTemplate": {
          "DefaultPoses": "DefaultSetting"
        },
        "Patrol": {
          "DefaultPoses": "Patrol"
        },
        "NoSensing": {
          "DefaultPoses": "NoSensing"
        }
      }
    },
    "defendArea": {
      "defendRange": 50.0
    },
    "threat": {
      "clearThreatByTargetOutOfZone": true,
      "clearThreatTargetDistance": 30.0,
      "clearThreatTimerByDistance": 2.0,
      "clearThreatEdgeDistance": 5.0,
      "viewAttenuation": [
        { "x": 12.0, "y": 1.0 },
        { "x": 20.0, "y": 0.5 }
      ]
    },
    "returnToBornTactic": {
      "enable": true,
      "defaultSetting": {
        "speedLevel": 2,
        "spacial": true,
        "performTime": 2.32
      }
    },
    "wanderTactic": {
      "enable": true,
      "condition": {
        "pose": [101, 111, 121]
      },
      "defaultSetting": {
        "speedLevel": 1,
        "cdMin": 1.5,
        "cdMax": 3.0,
        "distanceFromBorn": 15.0,
        "distanceFromCurrentMin": 3.75,
        "distanceFromCurrentMax": 7.5
      }
    },
    "followScriptedPathTactic": {
      "enable": true,
      "defaultSetting": {
        "turnSpeedOverrideWalk": 1,
        "turnSpeedOverrideRun": 1
      }
    },
    "meleeChargeTactic": {
      "enable": true,
      "condition": {
        "pose": [301, 311, 321]
      },
      "defaultSetting": {
        "speedLevel": 1,
        "speedLevelInner": 1,
        "innerDistance": 10,
        "stopDistance": 9.0,
        "startDistanceMin": 10.0,
        "startDistanceMax": 50
      },
      "specification": {
        "321": {
          "speedLevel": 2,
          "speedLevelInner": 2,
          "innerDistance": 6,
          "stopDistance": 3.0,
          "startDistanceMin": 10.0,
          "startDistanceMax": 50
        }
      }
    },
    "facingMoveTactic": {
      "enable": true,
      "condition": {
        "pose": [301, 311, 321]
      },
      "defaultSetting": {
        "speedLevel": 1,
        "rangeMin": 5.0,
        "rangeMax": 10.0,
        "restTimeMin": 1.0,
        "restTimeMax": 4.0,
        "facingMoveWeight": {
          "stop": 0.2,
          "forward": 0.5,
          "back": 0.5,
          "left": 0.5,
          "right": 0.5
        }
      },
      "specification": {
        "311": {
          "speedLevel": 1,
          "rangeMin": 5.0,
          "rangeMax": 50.0,
          "restTimeMin": 0.0,
          "restTimeMax": 1.0,
          "facingMoveWeight": {
            "stop": 0.1,
            "forward": 0.25,
            "back": 0.25,
            "left": 1.0,
            "right": 1.0
          }
        },
        "321": {
          "speedLevel": 1,
          "rangeMin": 5.0,
          "rangeMax": 50.0,
          "restTimeMin": 1.0,
          "restTimeMax": 2.0,
          "facingMoveWeight": {
            "stop": 0.0,
            "forward": 1.0,
            "back": 0.0,
            "left": 0.0,
            "right": 0.0
          }
        }
      }
    },
    "fleeTactic": {
      "condition": {
        "pose": [301]
      },
      "enable": false,
      "defaultSetting": {
        "speedLevel": 2,
        "turnSpeedOverride": 2.5,
        "cd": 0.0,
        "triggerDistance": 4,
        "fleeNumberMin": 2,
        "fleeNumberMax": 3,
        "fleeDistanceMin": 7.5,
        "fleeDistanceMax": 10
      }
      // "specification":
      // {
      // 	"203":
      // 	{
      // 		"speedLevel": 2,
      // 		"turnSpeedOverride": 10,
      // 		"cd": 0.1,
      // 		"triggerDistance": 10,
      // 		"fleeNumberMin": 1,
      // 		"fleeNumberMax": 1,
      // 		"fleeDistanceMin": 7.5,
      // 		"fleeDistanceMax": 10,
      // 		"fleeAngle": 1,
      // 	},
      // },
    },
    "skillSetting": {
      "skillEliteSet": {
        "1": [], // 普通蕈兽状态
        "2": [112] // 有表演的蕈兽状态
      }
    },
    "skills": {
      "100": {
        "name": "OnAlert",
        "stateIDs": ["Warning"],
        "skillType": "OnAlert",
        "skillQueryingTime": 3,
        "triggerGCD": false,
        "faceTarget": true
      },
      "102": {
        "cd": 15.0,
        "initialCD": 5.0,
        "name": "Dance",
        "stateIDs": ["Dance"],
        "skillType": "Free",
        "skillQueryingTime": 3,
        "triggerGCD": false,
        "castCondition": {
          "pose": [102]
        }
      },
      // 3.2 蕈兽活动新增 用于101Pose下的战前表演
      "112": {
        "cd": 0.5,
        "initialCD": 0.6,
        "name": "Dance2",
        "stateIDs": ["Dance"],
        "skillType": "Free",
        "skillQueryingTime": 3,
        "triggerGCD": false,
        "castCondition": {
          "pose": [101, 111, 121]
        }
      },
      "103": {
        "cd": 10.0,
        "cdUpperRange": 10.0,
        "initialCD": 5.0,
        "initialCDUpperRange": 10.0,
        "name": "Tease",
        "stateIDs": ["Tease"],
        "skillType": "Free",
        "skillQueryingTime": 3,
        "triggerGCD": false,
        "castCondition": {
          "pose": [103]
        }
      },
      "104": {
        "cd": 10.0,
        "cdUpperRange": 10.0,
        "initialCD": 5.0,
        "initialCDUpperRange": 10.0,
        "name": "Absorb",
        "stateIDs": ["Absorb"],
        "skillType": "Free",
        "skillQueryingTime": 3,
        "triggerGCD": false,
        "castCondition": {
          "pose": [104]
        }
      },
      "301": {
        "cd": 5.0,
        "initialCD": 5.0,
        "name": "MeleeAttackNormal",
        "stateIDs": ["MeleeAttack", "MeleeAttackNormal_BS"],
        "flagSelfInZone": "11",
        "combatSkillType": "MeleeAttack",
        "castCondition": {
          "pickRangeMin": 0.0,
          "pickRangeMax": 2.0,
          "pose": [301]
          //"needReInitCD": true,
        }
      },
      "311": {
        "cd": 5.0,
        "initialCD": 5.0,
        "name": "MeleeAttackOverdose",
        "stateIDs": ["MeleeAttack", "MeleeAttackOverdose_BS"],
        "flagSelfInZone": "11",
        "combatSkillType": "MeleeAttack",
        "castCondition": {
          "pickRangeMin": 0.0,
          "pickRangeMax": 2.0,
          "pose": [311]
          //"needReInitCD": true,
        }
      },
      "321": {
        "cd": 5.0,
        "initialCD": 0.0,
        "name": "MeleeAttackDecayed",
        "stateIDs": ["MeleeAttack", "MeleeAttackDecay_BS"],
        "flagSelfInZone": "11",
        "combatSkillType": "MeleeAttack",
        "castCondition": {
          "pickRangeMin": 0.0,
          "pickRangeMax": 2.0,
          "pose": [321]
          //"needReInitCD": true,
        }
      },
      "501": {
        "cd": 5.0,
        "cdUpperRange": 10.0,
        "initialCD": 1.0,
        "initialCDUpperRange": 5.5,
        "name": "DigNormal",
        "stateIDs": ["Dig", "DigNormalMoveLoop", "DigOutAttack"],
        "combatSkillType": "MeleeAttack",
        "castCondition": {
          //pickRange////////////////////////////
          "pickRangeMin": 1.5,
          "pickRangeMax": 12.0,
          //pose////////////////////////////
          "pose": [301],
          "needReInitCD": true
        }
      },
      "511": {
        "cd": 5.0,
        "cdUpperRange": 3.0,
        "initialCD": 0.5,
        "initialCDUpperRange": 1.5,
        "name": "DigOverdose",
        "stateIDs": [
          "Dig",
          "DigMoveLoopReady",
          "DigOverdoseMoveLoop",
          "DigOutAttack"
        ],
        "combatSkillType": "MeleeAttack",
        "castCondition": {
          //pickRange////////////////////////////
          "pickRangeMin": 1.5,
          "pickRangeMax": 12.0,
          //pose////////////////////////////
          "pose": [311],
          "needReInitCD": true
        }
      },
      "521": {
        "cd": 6.0,
        "cdUpperRange": 6.0,
        "initialCD": 3.0,
        "initialCDUpperRange": 3.0,
        "name": "DigDecayed",
        "stateIDs": ["Dig", "DigDecayMoveLoop", "DigOutAttack"],
        "combatSkillType": "MeleeAttack",
        "castCondition": {
          //pickRange////////////////////////////
          "pickRangeMin": 0.0,
          "pickRangeMax": 12.0,
          //pose////////////////////////////
          "pose": [321],
          "needReInitCD": true
        }
      }
    }
  },
  "audio": {
    "$type": "ConfigMonsterAudio",
    "animAudio": {
      "onTransitionOut": [
        {
          "currentStateName": "Dance",
          "audioEvent": {
            "text": "Stop_sfx_monster_Fungus_Trois_idle"
          },
          "otherStateNames": [],
          "usage": "Any"
        },
        {
          "currentStateName": "Absorb",
          "audioEvent": {
            "text": "Stop_sfx_monster_Fungus_Trois_idle"
          },
          "otherStateNames": [],
          "usage": "Any"
        },
        {
          "currentStateName": "Tease",
          "audioEvent": {
            "text": "Stop_sfx_monster_Fungus_Trois_idle"
          },
          "otherStateNames": [],
          "usage": "Any"
        },
        {
          "currentStateName": "MeleeAttackNormal_Loop",
          "audioEvent": {
            "text": "Stop_sfx_monster_Fungus_Trois_idle"
          },
          "otherStateNames": [],
          "usage": "Any"
        },
        {
          "currentStateName": "MeleeAttackDecay_Loop",
          "audioEvent": {
            "text": "Stop_sfx_monster_Fungus_Trois_idle"
          },
          "otherStateNames": [],
          "usage": "Any"
        },
        {
          "currentStateName": "MeleeAttackOverdose_Loop",
          "audioEvent": {
            "text": "Stop_sfx_monster_Fungus_Trois_idle"
          },
          "otherStateNames": [],
          "usage": "Any"
        }
      ],
      "onTransitionIn": [
        {
          "currentStateName": "",
          "audioEvent": {
            "text": ""
          },
          "otherStateNames": [],
          "usage": "Any"
        }
      ]
    }
  }
}
