{
  "$type": "ConfigMonster",
  "headControl": {
    "$type": "ConfigHeadControl",
    "useHeadControl": true,
    "maxYawDegree": 20,
    "maxPitchDegree": 5,
    "animStates": [
      "NormalIdle/Standby",
      "NormalMove/WalkForward",
      "NormalMove/WalkBack",
      "NormalMove/WalkRight",
      "NormalMove/WalkLeft",
      "TurnLeft/TurnLeft",
      "TurnRight/TurnRight"
    ]
  },
  "common": {
    "scale": 0.9,
    "viewSize": 1.6,
    "effectAttachShape": {
      "$type": "ConfigEffectAttachSkinnedMesh",
      "mesh": "EffectMesh"
    },
    "mass": 10000.0,
    "useGrassDisplacement": true,
    "affectedByWorld": true,
    "checkInSurface": true,
    "hasAfterImage": true,
    "height": 2.7,
    "modelHeight": 2.7,
    "clearAnimatorOnSetLightDeactive": true,
    "clearAIOnSetLightDeactive": true
  },
  "dither": {
    "showDitherDuration": 2.0
  },
  "equipController": {
    "attachPoints": {
      "equip01": "WeaponR",
      "equip02": "WeaponL"
    },
    "sheathPoint": ""
  },
  "move": {
    "$type": "ConfigAnimatorMove",
    "facingMove": "FourDirection",
    "monsterSizeType": "NormalHumanoidType"
  },
  "billboard": {
    "$type": "ConfigCombatBillboard",
    "offsetType": "Character",
    "offset": {
      "x": 0,
      "y": 0,
      "z": 0
    },
    "radiusOffset": 0,
    "showHPBar": true,
    "size": "Normal",
    "forceShowDistance": 50
  },
  "combat": {
    "property": {
      "endureType": "Monster_Grunt_Humanoid",
      "weight": 120
    },
    "combatLock": {
      "denyLockOn": false,
      "lockType": "Avatar&Monster_Lv4"
    },
    "beHit": {
      "hitBloodEffect": "",
      "muteAllHit": false,
      "muteAllHitEffect": false,
      "muteAllHitText": false
    },
    "die": {
      "hasAnimatorDie": true,
      "dieDisappearEffect": "Eff_Death_Avatar_Common",
      "dieDisappearEffectDelay": 0,
      "dieEndTime": 2.5,
      "dieForceDisappearTime": 3,
      "dieShaderData": "AvatarDie",
      "useRagDoll": false,
      "dieDenyLockOn": true,
      "dieIsGhostToEnemy": true,
      "muteHitBox": true,
      "muteBillboard": true,
      "mutePushCollider": true
    },
    "animEvents": {
      "MeleeAtk": {
        "attackPattern": {
          "$type": "ConfigAttackBox",
          "triggerType": "TriggerNoRepeat",
          "size": {
            "x": 2,
            "y": 2.5,
            "z": 3.5
          },
          "born": {
            "$type": "ConfigBornBySelf",
            "offset": {
              "x": 0,
              "y": 1.5,
              "z": 0.5
            }
          },
          "ignoreMassive": true
        },
        "attackInfo": {
          "attackProperty": {
            "damagePercentage": 0.7,
            "strikeType": "Slash",
            "overrideByWeapon": false,
            "attackType": "Melee",
            "enBreak": 50,
            "elementDurability": 50
          },
          "hitPattern": {
            "onHitEffectName": "default",
            "hitImpulseType": "LV4",
            "canBeDefenceHalt": true,
            "muteHitText": false,
            "retreatType": "ByAttacker"
          }
        }
      },
      "JumpAtk": {
        "attackPattern": {
          "$type": "ConfigAttackBox",
          "triggerType": "TriggerNoRepeat",
          "size": {
            "x": 2.5,
            "y": 3,
            "z": 4
          },
          "born": {
            "$type": "ConfigBornBySelf",
            "offset": {
              "x": 0,
              "y": 1.5,
              "z": 0
            }
          },
          "ignoreMassive": true
        },
        "attackInfo": {
          "attackProperty": {
            "damagePercentage": 1.2,
            "strikeType": "Blunt",
            "overrideByWeapon": false,
            "attackType": "Melee",
            "enBreak": 100,
            "elementDurability": 50
          },
          "hitPattern": {
            "onHitEffectName": "default",
            "hitImpulseType": "LV5",
            "canBeDefenceHalt": true,
            "muteHitText": false,
            "retreatType": "ByAttacker"
          },
          "cameraShake": {
            "shakeType": "CustomVector",
            "shakeDir": {
              "x": 0,
              "y": 1,
              "z": 0
            },
            "shakeDistance": 20,
            "shakeRange": 0.3,
            "shakeTime": 0.1
          },
          "forceCameraShake": true
        }
      },
      "MeleeAtk1": {
        "attackPattern": {
          "$type": "ConfigAttackBox",
          "targetType": "Enemy",
          "triggerType": "TriggerNoRepeat",
          "size": {
            "x": 2,
            "y": 2.5,
            "z": 2.5
          },
          "born": {
            "$type": "ConfigBornBySelf",
            "offset": {
              "x": 0,
              "y": 1.5,
              "z": 0
            }
          },
          "ignoreMassive": true
        },
        "attackInfo": {
          "attackProperty": {
            "damagePercentage": 0.8,
            "strikeType": "Slash",
            "overrideByWeapon": false,
            "attackType": "Melee",
            "enBreak": 50
          },
          "hitPattern": {
            "onHitEffectName": "default",
            "hitImpulseType": "LV3",
            "reboundRatio": 0,
            "canBeDefenceHalt": true,
            "muteHitText": false,
            "retreatType": "ByAttacker"
          }
        }
      },
      "MeleeAtk2": {
        "attackPattern": {
          "$type": "ConfigAttackBox",
          "triggerType": "TriggerNoRepeat",
          "size": {
            "x": 2,
            "y": 2.5,
            "z": 2.5
          },
          "born": {
            "$type": "ConfigBornBySelf",
            "offset": {
              "x": 0,
              "y": 1.5,
              "z": 0
            }
          },
          "ignoreMassive": true
        },
        "attackInfo": {
          "attackProperty": {
            "damagePercentage": 0.8,
            "strikeType": "Slash",
            "overrideByWeapon": false,
            "attackType": "Melee",
            "enBreak": 100
          },
          "hitPattern": {
            "onHitEffectName": "default",
            "hitImpulseType": "LV3",
            "reboundRatio": 0,
            "canBeDefenceHalt": true,
            "muteHitText": false,
            "retreatType": "ByAttacker"
          }
        }
      },
      "RushAtk": {
        "attackPattern": {
          "$type": "ConfigAttackBox",
          "triggerType": "TriggerNoRepeat",
          "size": {
            "x": 2,
            "y": 2.5,
            "z": 12
          },
          "born": {
            "$type": "ConfigBornBySelf",
            "offset": {
              "x": 0,
              "y": 1.5,
              "z": -3
            }
          },
          "ignoreMassive": true
        },
        "attackInfo": {
          "attenuationGroup": "Regisvine_Common",
          "attackProperty": {
            "damagePercentage": 1.2,
            "strikeType": "Slash",
            "overrideByWeapon": false,
            "attackType": "Melee",
            "enBreak": 50
          },
          "hitPattern": {
            "onHitEffectName": "default",
            "hitImpulseType": "LV4",
            "reboundRatio": 0,
            "canBeDefenceHalt": true,
            "muteHitText": false,
            "retreatType": "ByHitDirection"
          }
        }
      },
      "ChargeAttack": {
        "attackPattern": {
          "$type": "ConfigAttackBox",
          "triggerType": "TriggerNoRepeat",
          "size": {
            "x": 4,
            "y": 3,
            "z": 4
          },
          "born": {
            "$type": "ConfigBornBySelf",
            "offset": {
              "x": 0,
              "y": 1.5,
              "z": -0.5
            }
          },
          "ignoreMassive": true
        },
        "attackInfo": {
          "attackProperty": {
            "damagePercentage": 0.85,
            "strikeType": "Slash",
            "overrideByWeapon": false,
            "attackType": "Melee",
            "enBreak": 100,
            "elementDurability": 50
          },
          "hitPattern": {
            "onHitEffectName": "default",
            "hitImpulseType": "LV4",
            "reboundRatio": 0,
            "canBeDefenceHalt": true,
            "muteHitText": false,
            "retreatType": "ByHitDirection"
          }
        }
      },
      "PowerAtk1_1": {
        "attackPattern": {
          "$type": "ConfigAttackBox",
          "triggerType": "TriggerNoRepeat",
          "size": {
            "x": 1.2,
            "y": 2.5,
            "z": 3.5
          },
          "born": {
            "$type": "ConfigBornBySelf",
            "offset": {
              "x": 0,
              "y": 1.25,
              "z": 0
            }
          },
          "ignoreMassive": true
        },
        "attackInfo": {
          "attackTag": "Monster_BladeMaster_BeBlockAttack",
          "attackProperty": {
            "damagePercentage": 0.4,
            "strikeType": "Slash",
            "overrideByWeapon": false,
            "attackType": "Melee",
            "enBreak": 100,
            "elementDurability": 50
          },
          "hitPattern": {
            "onHitEffectName": "default",
            "hitImpulseType": "LV4",
            "reboundRatio": 0,
            "canBeDefenceHalt": true,
            "muteHitText": false,
            "retreatType": "ByHitDirection"
          }
        }
      },
      "PowerAtk1_2": {
        "attackPattern": {
          "$type": "ConfigAttackBox",
          "triggerType": "TriggerNoRepeat",
          "size": {
            "x": 2.5,
            "y": 2.5,
            "z": 3.7
          },
          "born": {
            "$type": "ConfigBornBySelf",
            "offset": {
              "x": 0,
              "y": 1.25,
              "z": 0
            }
          },
          "ignoreMassive": true
        },
        "attackInfo": {
          "attackTag": "Monster_BladeMaster_BeBlockAttack",
          "attackProperty": {
            "damagePercentage": 0.8,
            "strikeType": "Slash",
            "overrideByWeapon": false,
            "attackType": "Melee",
            "enBreak": 100,
            "elementDurability": 50
          },
          "hitPattern": {
            "onHitEffectName": "default",
            "hitImpulseType": "LV4",
            "reboundRatio": 0,
            "canBeDefenceHalt": true,
            "muteHitText": false,
            "retreatType": "ByHitDirection"
          }
        }
      },
      "PowerAtk2": {
        "attackPattern": {
          "$type": "ConfigAttackBox",
          "triggerType": "TriggerNoRepeat",
          "size": {
            "x": 2.5,
            "y": 2.5,
            "z": 3.5
          },
          "born": {
            "$type": "ConfigBornBySelf",
            "offset": {
              "x": 0,
              "y": 1.25,
              "z": 0
            }
          },
          "ignoreMassive": true
        },
        "attackInfo": {
          "attackProperty": {
            "damagePercentage": 0.6,
            "strikeType": "Slash",
            "overrideByWeapon": false,
            "attackType": "Melee",
            "enBreak": 100,
            "elementDurability": 50
          },
          "hitPattern": {
            "onHitEffectName": "default",
            "hitImpulseType": "LV4",
            "reboundRatio": 0,
            "canBeDefenceHalt": true,
            "muteHitText": false,
            "retreatType": "ByHitDirection"
          }
        }
      },
      "BurstAttack": {
        "attackPattern": {
          "$type": "ConfigAttackBox",
          "triggerType": "TriggerNoRepeat",
          "size": {
            "x": 2,
            "y": 2.5,
            "z": 7.5
          },
          "born": {
            "$type": "ConfigBornBySelf",
            "offset": {
              "x": 0,
              "y": 1,
              "z": -2
            }
          },
          "ignoreMassive": true
        },
        "attackInfo": {
          "attenuationTag": "BladeMaster_BurstAttack_Hatamoto",
          "attenuationGroup": "Monster_Tartaglia_Attenuation_1",
          "attackProperty": {
            "damagePercentage": 1,
            "strikeType": "Slash",
            "overrideByWeapon": false,
            "attackType": "Melee",
            "enBreak": 100,
            "elementDurability": 50
          },
          "hitPattern": {
            "onHitEffectName": "default",
            "hitImpulseType": "LV5",
            "canBeDefenceHalt": true,
            "muteHitText": false,
            "retreatType": "ByHitDirection"
          }
        }
      }
    }
  },
  "stateLayers": {
    "defaultLayer": {
      "$type": "ConfigNormalStateLayer",
      "stateIDs": {
        "NormalIdle": {
          "$type": "ConfigMonsterStateIDInfo",
          "animatorStates": {
            "Standby": [],
            "Born": []
          },
          "combatMove": true,
          "canDoSkill": true,
          "canSyncMove": true,
          "resetAnimatorTriggerOnExit": ["DoSkill"]
        },
        "Turn": {
          "$type": "ConfigMonsterStateIDInfo",
          "animatorStates": {
            "TurnLeft": [],
            "TurnRight": []
          },
          "combatMove": true,
          "canDoSkill": true,
          "canSyncMove": true,
          "resetAnimatorTriggerOnExit": ["DoSkill"]
        },
        "NormalMove": {
          "$type": "ConfigMonsterStateIDInfo",
          "animatorStates": {
            "WalkForward": ["Audio_Samurai_Hatamoto_03_Walk"],
            "WalkBack": ["Audio_Samurai_Hatamoto_03_Walk"],
            "WalkRight": ["Audio_Samurai_Hatamoto_03_Walk"],
            "WalkLeft": ["Audio_Samurai_Hatamoto_03_Walk"],
            "WalkFree": ["Audio_Samurai_Hatamoto_03_Walk"]
          },
          "combatMove": true,
          "canDoSkill": true,
          "canSteer": true,
          "canSyncMove": true,
          "resetAnimatorTriggerOnExit": ["DoSkill"]
        },
        "BeHit": {
          "$type": "ConfigMonsterStateIDInfo",
          "animatorStates": {
            "Hit_L": [""],
            "Hit_H": [""]
          },
          "combatMove": true,
          "resetAnimatorTriggerOnEnter": ["BeHit"],
          "resetAnimatorTriggerOnExit": ["DoSkill"]
        },
        "Run": {
          "$type": "ConfigMonsterStateIDInfo",
          "animatorStates": {
            "Run": [
              "Monster_Samurai_Ronin_FootStep",
              "Audio_Samurai_Hatamoto_03_Run"
            ]
          },
          "combatMove": true,
          "canDoSkill": true,
          "canSyncMove": true,
          "canSteer": true,
          "resetAnimatorTriggerOnExit": ["DoSkill"]
        },
        "RunFree": {
          "$type": "ConfigMonsterStateIDInfo",
          "animatorStates": {
            "RunFree": [
              "Monster_Samurai_Ronin_FootStep",
              "Audio_Samurai_Hatamoto_03_Run"
            ]
          },
          "combatMove": true,
          "canDoSkill": true,
          "canSyncMove": true,
          "canSteer": true,
          "resetAnimatorTriggerOnExit": ["DoSkill"]
        },
        "BeHitThrow": {
          "$type": "ConfigMonsterStateIDInfo",
          "animatorStates": {
            "HitThrow": [],
            "HitThrowDrop": [],
            "HitThrowToGround": ["Audio_Samurai_Hatamoto_03_HitThrowToGround"]
          },
          "combatMove": true,
          "resetAnimatorTriggerOnEnter": ["BeHit", "HitAir2HitDrop"],
          "resetAnimatorTriggerOnExit": ["DoSkill"]
        },
        "Struggle": {
          "$type": "ConfigMonsterStateIDInfo",
          "animatorStates": {
            "Struggle": []
          },
          "combatMove": true,
          "resetAnimatorTriggerOnEnter": ["BeHit", "HitAir2HitDrop"],
          "resetAnimatorTriggerOnExit": ["DoSkill"]
        },
        "Die": {
          "$type": "ConfigMonsterStateIDInfo",
          "animatorStates": {
            "Die": [
              "Monster_Samurai_Ronin_Die",
              "Audio_Samurai_Hatamoto_03_Die"
            ],
            "SwimDie": [],
            "SwimDie_AS": []
          }
        },
        "Die_RagDoll": {
          "$type": "ConfigMonsterStateIDInfo",
          "animatorStates": {
            "AirDie": ["Monster_Skirmisher_Male_Strong_Gloves_Wind_Die"]
          },
          "enableRagDoll": true
        },
        "Alert": {
          "$type": "ConfigMonsterStateIDInfo",
          "animatorStates": {
            "Alert": [
              "Monster_Samurai_Ronin_Alert",
              "Audio_Samurai_Hatamoto_03_Alert"
            ]
          },
          "combatMove": true,
          "canSteer": true,
          "resetAnimatorTriggerOnExit": ["BeHit", "DoSkill"]
        },
        "MeleeAtk1": {
          "$type": "ConfigMonsterStateIDInfo",
          "animatorStates": {
            "MeleeAttack1": [
              "Monster_Samurai_Ronin_MeleeAttack01",
              "Audio_Samurai_Hatamoto_03_MeleeAtk1"
            ]
          },
          "combatMove": true,
          "canSteer": true,
          "resetAnimatorTriggerOnEnter": ["DoSkill"],
          "resetAnimatorTriggerOnExit": ["BeHit", "DoSkill"]
        },
        "MeleeAtk2": {
          "$type": "ConfigMonsterStateIDInfo",
          "animatorStates": {
            "MeleeAttack2": [
              "Monster_Samurai_Ronin_MeleeAttack02",
              "Audio_Samurai_Hatamoto_03_MeleeAtk2"
            ]
          },
          "combatMove": true,
          "canSteer": true,
          "resetAnimatorTriggerOnEnter": ["DoSkill"],
          "resetAnimatorTriggerOnExit": ["BeHit", "DoSkill"]
        },
        "RushAtk": {
          "$type": "ConfigMonsterStateIDInfo",
          "animatorStates": {
            "RushAtk": [
              "Monster_Samurai_Ronin_RushAtk",
              "Audio_Samurai_Hatamoto_03_RushAtk"
            ]
          },
          "combatMove": true,
          "canSteer": true,
          "resetAnimatorTriggerOnExit": ["BeHit", "DoSkill"]
        },
        "BurstAttack": {
          "$type": "ConfigMonsterStateIDInfo",
          "animatorStates": {
            "BurstAttack": [
              "Monster_Samurai_Hatamoto_BurstAttack_BladeMaster",
              "Audio_Samurai_Hatamoto_03_BurstAtk"
            ],
            "Combo_BurstAttack": [
              "Monster_Samurai_Hatamoto_BurstAttack_BladeMaster",
              "Audio_Samurai_Hatamoto_03_BurstAtk"
            ]
          },
          "combatMove": true,
          "canSteer": true,
          "resetAnimatorTriggerOnExit": ["BeHit", "DoSkill"]
        },
        //二周目特殊语音
        "BurstAttack_Voice": {
          "$type": "ConfigMonsterStateIDInfo",
          "animatorStates": {
            "BurstAttack_Voice": [
              "Monster_Samurai_Hatamoto_BurstAttack_BladeMaster",
              "Audio_Samurai_Hatamoto_03_BurstAtk_Voice"
            ]
          },
          "combatMove": true,
          "canSteer": true,
          "resetAnimatorTriggerOnExit": ["BeHit", "DoSkill"]
        },
        "Shoot": {
          "$type": "ConfigMonsterStateIDInfo",
          "animatorStates": {
            "Shoot": [
              "Monster_Samurai_Ronin_Shoot",
              "Audio_Samurai_Hatamoto_03_Shoot"
            ]
          },
          "combatMove": true,
          "canSteer": true,
          "resetAnimatorTriggerOnExit": ["BeHit", "DoSkill"]
        },
        "ChargeAttack": {
          "$type": "ConfigMonsterStateIDInfo",
          "animatorStates": {
            "ChargeAttack": [
              "Monster_Samurai_Hatamoto_ChargeAttack",
              "Audio_Samurai_Hatamoto_03_ChargeAtk"
            ]
          },
          "combatMove": true,
          "canSteer": true,
          "resetAnimatorTriggerOnExit": ["BeHit", "DoSkill"]
        },
        "PowerAtk1": {
          "$type": "ConfigMonsterStateIDInfo",
          "animatorStates": {
            //二周目带特殊语音技能
            "PowerAtk1": [
              "Monster_Samurai_Hatamoto_PowerAttack1",
              "Audio_Samurai_Hatamoto_03_PowerAtk1_Voice"
            ],
            "HatamotoDodgeAttack": [
              "Monster_Samurai_Hatamoto_PowerAttack1",
              "Audio_Samurai_Hatamoto_03_PowerAtk1"
            ]
          },
          "combatMove": true,
          "canSteer": true,
          "addEndure": 0,
          "resetAnimatorTriggerOnExit": ["BeHit", "DoSkill"]
        },
        "PowerAtk1_BS": {
          "$type": "ConfigMonsterStateIDInfo",
          "animatorStates": {
            "PowerAtk1_BS": [
              "Monster_Samurai_Hatamoto_PowerAtk_Hint",
              "Audio_Samurai_Hatamoto_03_PowerAtk1"
            ],
            "HatamotoDodgeAttack_BS": [
              "Monster_Samurai_Hatamoto_PowerAtk_Hint",
              "Audio_Samurai_Hatamoto_03_PowerAtk1"
            ]
          },
          "canSteer": true,
          "resetAnimatorTriggerOnExit": ["BeHit", "DoSkill"]
        },
        "PowerAtk1_Attack": {
          "$type": "ConfigMonsterStateIDInfo",
          "animatorStates": {
            "PowerAtk1_Attack": [
              "Monster_Samurai_Hatamoto_PowerAtk1_Attack",
              ""
            ],
            "HatamotoDodgeAttack_Attack": [
              "Monster_Samurai_Hatamoto_PowerAtk1_Attack",
              ""
            ]
          },
          "canSteer": true,
          "resetAnimatorTriggerOnExit": ["BeHit", "DoSkill"]
        },
        "PowerAtk1_AS": {
          "$type": "ConfigMonsterStateIDInfo",
          "animatorStates": {
            "PowerAtk1_AS": ["", ""],
            "HatamotoDodgeAttack_AS": ["", ""]
          },
          "canSteer": true,
          "resetAnimatorTriggerOnExit": ["BeHit", "DoSkill"]
        },
        "PowerAtk1_Break": {
          "$type": "ConfigMonsterStateIDInfo",
          "animatorStates": {
            "PowerAtk1_Break": ["", ""],
            "HatamotoDodgeAttack_Break": ["", ""]
          },
          "canSteer": true,
          "resetAnimatorTriggerOnExit": ["BeHit", "DoSkill"]
        },
        "PowerAtk2": {
          "$type": "ConfigMonsterStateIDInfo",
          "animatorStates": {
            "PowerAtk2": [
              "Monster_Samurai_Hatamoto_PowerAttack2",
              "Audio_Samurai_Hatamoto_03_PowerAtk2"
            ]
          },
          "combatMove": true,
          "canSteer": true,
          "resetAnimatorTriggerOnExit": ["BeHit", "DoSkill"]
        },
        "Dodge": {
          "$type": "ConfigMonsterStateIDInfo",
          "animatorStates": {
            "Dodge": ["Audio_Samurai_Hatamoto_03_Dodge"]
          },
          "combatMove": true,
          "canSteer": true,
          "resetAnimatorTriggerOnExit": ["BeHit", "DoSkill"]
        },
        "Provoke": {
          "$type": "ConfigMonsterStateIDInfo",
          "animatorStates": {
            "Provoke": [
              "Monster_Samurai_Hatamoto_Provoke_Shield",
              "Audio_Samurai_Hatamoto_03_Provoke"
            ]
          },
          "canSteer": true,
          "resetAnimatorTriggerOnExit": ["BeHit", "DoSkill"]
        },
        "DefendBS": {
          "$type": "ConfigMonsterStateIDInfo",
          "animatorStates": {
            "Defend_BS1": ["Audio_Samurai_Hatamoto_03_Defend_BS1"],
            "Defend_BS2": ["Audio_Samurai_Hatamoto_03_Defend_BS2"]
          },
          "combatMove": true,
          "canSteer": true,
          "resetAnimatorTriggerOnExit": ["BeHit", "DoSkill"],
          "resetAnimatorTriggerOnEnter": ["DefendHit", "BlockBreak"]
        },
        "DefendLoop": {
          "$type": "ConfigMonsterStateIDInfo",
          "animatorStates": {
            "Defend_Loop1": [""],
            "Defend_Loop2": [""]
          },
          "combatMove": true,
          "canSteer": true,
          "resetAnimatorTriggerOnExit": ["BeHit", "DoSkill"]
        },
        "DefendHit": {
          "$type": "ConfigMonsterStateIDInfo",
          "animatorStates": {
            "Defend_Hit1": ["Audio_Samurai_Hatamoto_03_Defend_Hit"],
            "Defend_Hit2": ["Audio_Samurai_Hatamoto_03_Defend_Hit"]
          },
          "combatMove": true,
          "canSteer": true,
          "resetAnimatorTriggerOnExit": ["BeHit", "DoSkill"]
        },
        "DefendAS": {
          "$type": "ConfigMonsterStateIDInfo",
          "animatorStates": {
            "Defend_AS1": ["Audio_Samurai_Hatamoto_03_Defend_AS1"],
            "Defend_AS2": ["Audio_Samurai_Hatamoto_03_Defend_AS2"]
          },
          "combatMove": true,
          "canSteer": true,
          "resetAnimatorTriggerOnExit": ["BeHit", "DoSkill"]
        },
        "DefendBreak": {
          "$type": "ConfigMonsterStateIDInfo",
          "animatorStates": {
            "Defend_Break1": ["Audio_Samurai_Hatamoto_03_Defend_Break1"],
            "Defend_Break2": ["Audio_Samurai_Hatamoto_03_Defend_Break2"]
          },
          "combatMove": true,
          "canSteer": true,
          "resetAnimatorTriggerOnExit": ["BeHit", "DoSkill"]
        },
        "OutOfBattle": {
          "$type": "ConfigMonsterStateIDInfo",
          "animatorStates": {
            "OutOfBattle": ["Audio_Samurai_Hatamoto_03_OutOfBattel"]
          },
          "combatMove": true,
          "canSteer": false,
          "resetAnimatorTriggerOnExit": ["BeHit", "DoSkill"]
        },
        "CrazyAtk": {
          "$type": "ConfigMonsterStateIDInfo",
          "animatorStates": {
            "CrazyAtk": [
              "Monster_Samurai_Hatamoto_CrazyAtk",
              "Audio_Samurai_Hatamoto_03_CrazyAtk"
            ]
          },
          "canSteer": false,
          "resetAnimatorTriggerOnExit": ["BeHit", "DoSkill"]
        },
        //二周目带特殊语音技能
        "CrazyAtk_Voice": {
          "$type": "ConfigMonsterStateIDInfo",
          "animatorStates": {
            "CrazyAtk_Voice": [
              "Monster_Samurai_Hatamoto_CrazyAtk",
              "Audio_Samurai_Hatamoto_03_CrazyAtk_Voice"
            ]
          },
          "canSteer": false,
          "resetAnimatorTriggerOnExit": ["BeHit", "DoSkill"]
        },
        "MeleeAttack1_Crazy": {
          "$type": "ConfigMonsterStateIDInfo",
          "animatorStates": {
            "MeleeAttack1_Crazy": [
              "Monster_Samurai_Kairagi_MeleeAttack1",
              "Audio_Samurai_Hatamoto_03_MeleeAtk1_Crazy"
            ]
          },
          "canSteer": false,
          "resetAnimatorTriggerOnExit": ["BeHit", "DoSkill"]
        },
        "MeleeAttack2_Crazy": {
          "$type": "ConfigMonsterStateIDInfo",
          "animatorStates": {
            "MeleeAttack2_Crazy": [
              "Monster_Samurai_Kairagi_MeleeAttack2",
              "Audio_Samurai_Hatamoto_03_MeleeAtk2_Crazy"
            ]
          },
          "canSteer": false,
          "resetAnimatorTriggerOnExit": ["BeHit", "DoSkill"]
        },
        "MeleeAttack2_2_Crazy": {
          "$type": "ConfigMonsterStateIDInfo",
          "animatorStates": {
            "MeleeAttack2_2_Crazy": [
              "Monster_Samurai_Hatamoto_PowerAttack2",
              "Audio_Samurai_Hatamoto_03_MeleeAttack2_2_Crazy"
            ]
          },
          "canSteer": false,
          "resetAnimatorTriggerOnExit": ["BeHit", "DoSkill"]
        },
        "CrazyAtk_JumpAtk": {
          "$type": "ConfigMonsterStateIDInfo",
          "animatorStates": {
            "CrazyAtk_JumpAtk": [
              "Monster_Samurai_Kairagi_JumpAttack",
              "Audio_Samurai_Hatamoto_03_CrazyAtk_JumpAtk"
            ]
          },
          "canSteer": false,
          "resetAnimatorTriggerOnExit": ["BeHit", "DoSkill"]
        },
        "CrazyAtk_JumpAtk_ASAtk": {
          "$type": "ConfigMonsterStateIDInfo",
          "animatorStates": {
            "CrazyAtk_JumpAtk_ASAtk": [
              "Monster_Samurai_Hatamoto_PowerAttack1",
              "Audio_Samurai_Hatamoto_03_CrazyAtk_JumpAtk_ASAtk"
            ]
          },
          "canSteer": false,
          "resetAnimatorTriggerOnExit": ["BeHit", "DoSkill"]
        }
      }
    }
  },
  "abilities": [
    {
      "abilityName": "Monster_Samurai_Ronin_Alert"
    },
    {
      "abilityName": "Monster_Samurai_Ronin_01_Steer"
    },
    {
      "abilityName": "Monster_Samurai_Ronin_01_RushAttack"
    },
    {
      "abilityName": "Monster_Samurai_Ronin_ForceDodge"
    },
    {
      "abilityName": "Monster_Samurai_Ronin_OutOfBattle"
    },
    {
      "abilityName": "Monster_Samurai_Ronin_PowderAttack"
    },
    {
      "abilityName": "Monster_Samurai_Ronin_Shoot"
    },
    {
      "abilityName": "Monster_Samurai_Hatamoto_Block"
    },
    {
      "abilityName": "Monster_Samurai_Hatamoto_BurstAttack"
    },
    {
      "abilityName": "Monster_Samurai_Ronin_SevenBlade_Affix"
    },
    {
      "abilityName": "Monster_Samurai_Hatamoto_EnterFireDefendAtk"
    },
    {
      "abilityName": "Monster_Samurai_Hatamoto_Provoke_Shield"
    },
    {
      "abilityName": "Monster_Samurai_Hatamoto_PowerAtkDefend"
    },
    {
      "abilityName": "Monster_Samurai_Ronin_BladeMaster_WeaponSpecialDie"
    },
    {
      "abilityName": "Monster_Samurai_Hatamoto_CrazyAtk_CreateField"
    },
    {
      "abilityName": "Monster_Samurai_Hatamoto_CrazyState"
    },
    {
      "abilityName": "Monster_Samurai_Hatamoto_CrazyAtk_WindZone"
    }
  ],
  "initialPoses": {
    "Default": {
      "initialPoseID": 1
    }
  },
  "aibeta": {
    "enable": true,
    "skillGCD": 2,
    "neurons": {
      "DefaultSetting": ["HIT"],
      "NeverCombat": []
    },
    "sensing": {
      "settings": {
        "DefaultSetting": {
          "viewRange": 25.0,
          "feelRange": 10.0
        },
        "NeverCombat": {
          "enableVision": false,
          "feelRange": 0.0,
          "hearAttractionRange": 0.0
        }
      },
      "templates": {
        "DefaultTemplate": {
          "DefaultPoses": "DefaultSetting"
        },
        "NeverCombatTemplate": {
          "DefaultPoses": "NeverCombat"
        }
      }
    },
    "defendArea": {
      "enable": true,
      "defendRange": 30
    },
    "threat": {
      "clearThreatByLostPath": true,
      "clearThreatTimerByLostPath": 11,
      "viewAttenuation": [
        { "x": 10.0, "y": 2.0 },
        { "x": 15.0, "y": 0.8 },
        { "x": 20.0, "y": 0.5 },
        { "x": 25.0, "y": 0.3 },
        { "x": 30.0, "y": 0.2 }
      ],
      "resistTauntLevel": "Monster_TauntLevel_2"
    },
    "returnToBornTactic": {
      "enable": true,
      "defaultSetting": {
        "speedLevel": 2,
        "performTime": 5
      }
    },
    "wanderTactic": {
      "enable": false,
      "condition": {
        "pose": [1]
      },
      "defaultSetting": {
        "speedLevel": 1,
        //"turnSpeedOverride": 1.0,
        "cdMin": 2.5,
        "cdMax": 5.0,
        "distanceFromBorn": 15.0,
        "distanceFromCurrentMin": 5,
        "distanceFromCurrentMax": 7.5
      }
    },
    "meleeChargeTactic": {
      "enable": true,
      "condition": {
        "pose": [101, 103, 102, 104]
      },
      "defaultSetting": {
        "speedLevel": 2,
        "speedLevelInner": 1,
        "innerDistance": 0,
        "stopDistance": 5,
        "startDistanceMin": 10,
        "startDistanceMax": 99.0
      }
    },
    "facingMoveTactic": {
      "enable": true,
      "condition": {
        "pose": [101, 103, 102, 104]
      },
      "defaultSetting": {
        "speedLevel": 1,
        "rangeMin": 0,
        "rangeMax": 5,
        "restTimeMin": 2,
        "restTimeMax": 3,
        "facingMoveTurnInterval": 1,
        "obstacleDetectRange": 1,
        "facingMoveWeight": {
          "stop": 0,
          "forward": 0,
          "back": 0,
          "left": 1,
          "right": 1
        }
      }
    },
    "skillGroupCDConfigs": [
      { "skillGroupCDID": 0, "skillGroupCDTime": 10 },
      { "skillGroupCDID": 1, "skillGroupCDTime": 10 },
      { "skillGroupCDID": 2, "skillGroupCDTime": 15 }
    ],
    "skills": {
      "1": {
        "name": "OnAlert",
        "stateIDs": ["Alert"],
        "skillType": "OnAlert",
        "skillQueryingTime": 3,
        "triggerGCD": false,
        "ignoreGCD": true,
        "faceTarget": true
      },
      "101": {
        "cd": 1,
        "priority": 4,
        "cdUpperRange": 2,
        "name": "MeleeAtk1",
        "stateIDs": ["MeleeAtk1"],
        "skillType": "Combat",
        //"skillQueryingTime": 2,
        "enableSkillPrepare": true,
        "skillPrepareSpeedLevel": 2,
        "skillPrepareTimeout": 3,
        "castCondition": {
          "pickRangeMin": 0,
          "pickRangeMax": 7,
          "castRangeMin": 1,
          "maxTargetAngleXZ": 90,
          "pose": [103]
        }
      },
      //使用海乱鬼动作模组
      "1011": {
        "cd": 3,
        "priority": 2,
        "cdUpperRange": 3,
        "name": "MeleeAtk",
        "stateIDs": [
          "MeleeAttack1_Crazy",
          "MeleeAttack2_Crazy",
          "MeleeAttack2_2_Crazy"
        ],
        "skillType": "Combat",
        //"skillQueryingTime": 2,
        "enableSkillPrepare": true,
        "skillPrepareSpeedLevel": 2,
        "skillPrepareTimeout": 3,
        "castCondition": {
          "pickRangeMin": 0,
          "pickRangeMax": 7,
          "castRangeMax": 1,
          "maxTargetAngleXZ": 90,
          "pose": [101]
        }
      },
      "201": {
        "cd": 1,
        "priority": 4,
        "cdUpperRange": 2,
        "name": "MeleeAtk2",
        "stateIDs": ["MeleeAtk2"],
        "skillType": "Combat",
        "skillQueryingTime": 2,
        "enableSkillPrepare": true,
        "skillPrepareSpeedLevel": 2,
        "skillPrepareTimeout": 3,
        "castCondition": {
          "pickRangeMin": 0,
          "pickRangeMax": 7,
          "castRangeMin": 1,
          "maxTargetAngleXZ": 90,
          "pose": [103]
        }
      },
      "301": {
        "cd": 5,
        "cdUpperRange": 3,
        "priority": 3,
        "initialCD": 1,
        "name": "RushAtk",
        "stateIDs": ["RushAtk"],
        "skillType": "Combat",
        "skillQueryingTime": 2,
        "ignoreGCD": true,
        "flagSelfInZone": "11",
        "flagTargetReachable": "11",
        "castCondition": {
          "pickRangeMin": 0,
          "pickRangeMax": 8,
          "maxTargetAngleXZ": 90,
          "pose": [101]
        }
      },
      "401": {
        "cd": 5,
        "priority": 1,
        "cdUpperRange": 3,
        "initialCD": 1,
        "ignoreGCD": true,
        "name": "BurstAttack",
        "stateIDs": ["BurstAttack"],
        "skillType": "Combat",
        "skillQueryingTime": 2,
        "flagSelfInZone": "11",
        "flagTargetReachable": "11",
        "castCondition": {
          "pickRangeMin": 2,
          "pickRangeMax": 12,
          "pose": [103]
        }
      },
      "402": {
        "cd": 5,
        "priority": 1,
        "cdUpperRange": 3,
        "initialCD": 1,
        "ignoreGCD": true,
        "name": "BurstAttack",
        "stateIDs": ["BurstAttack_Voice"],
        "skillType": "Combat",
        "skillQueryingTime": 2,
        "flagSelfInZone": "11",
        "flagTargetReachable": "11",
        "castCondition": {
          "pickRangeMin": 2,
          "pickRangeMax": 12,
          "pose": [104]
        }
      },
      "601": {
        "cd": 15,
        "priority": 1,
        "cdUpperRange": 5,
        "initialCD": 2,
        "name": "ChargeAttack",
        "stateIDs": ["ChargeAttack", "BurstAttack"],
        "skillType": "Combat",
        "skillQueryingTime": 2,
        "enableSkillPrepare": true,
        "skillPrepareSpeedLevel": 2,
        "skillPrepareTimeout": 2,
        "castCondition": {
          "pickRangeMin": 0,
          "pickRangeMax": 5,
          "castRangeMax": 2,
          "maxTargetAngleXZ": 90,
          "pose": [101]
        }
      },
      "701": {
        "cd": 5,
        "priority": 1,
        "ignoreGCD": true,
        "name": "PowerAtk1",
        "stateIDs": ["PowerAtk1"],
        "skillType": "Combat",
        "skillQueryingTime": 2,
        "flagSelfInZone": "11",
        "flagTargetReachable": "11",
        "castCondition": {
          "pickRangeMin": 0,
          "pickRangeMax": 4,
          "pose": [104],
          "needReInitCD": true
        }
      },
      "801": {
        "cd": 5,
        "priority": 2,
        "cdUpperRange": 5,
        "initialCD": 1,
        "name": "PowerAtk2",
        "stateIDs": ["CrazyAtk_JumpAtk", "CrazyAtk_JumpAtk_ASAtk"],
        "skillType": "Combat",
        "skillQueryingTime": 2,
        "enableSkillPrepare": true,
        "skillPrepareSpeedLevel": 2,
        "skillPrepareTimeout": 2,
        "castCondition": {
          "pickRangeMin": 0,
          "pickRangeMax": 7,
          "castRangeMax": 3,
          "maxTargetAngleXZ": 90,
          "pose": [101]
        }
      },
      "1001": {
        "cd": 30,
        "priority": 1,
        "cdUpperRange": 5,
        "initialCD": 7,
        "name": "Dodge",
        "triggerGCD": false,
        "ignoreGCD": true,
        "stateIDs": ["Dodge"],
        "skillType": "Combat",
        "skillQueryingTime": 2,
        "castCondition": {
          "pickRangeMin": 0,
          "pickRangeMax": 2,
          "pose": [101]
        }
      },
      //2.8幕府万叶大招
      "10000": {
        "cd": 10,
        "priority": 1,
        "cdUpperRange": 5,
        "initialCD": 10,
        "name": "CrazyAtk",
        "triggerGCD": false,
        "ignoreGCD": true,
        "stateIDs": ["CrazyAtk_Voice"],
        "skillType": "Combat",
        "skillQueryingTime": 2,
        "enableSkillPrepare": true,
        "skillPrepareTimeout": 2,
        "castCondition": {
          "pickRangeMin": 0,
          "pickRangeMax": 10,
          "castRangeMax": 3,
          "pose": [104]
        }
      },
      "1003": {
        "skillGroupCDID": 0,
        "priority": 4,
        "initialCD": 5,
        "ignoreGCD": true,
        "triggerGCD": false,
        "name": "Defend1",
        "stateIDs": [
          "DefendBS",
          "DefendLoop",
          "DefendAS",
          "DefendBreak",
          "DefendHit"
        ],
        "skillType": "Combat",
        "skillQueryingTime": 2,
        "castCondition": {
          "pickRangeMin": 0,
          "pickRangeMax": 3,
          "maxTargetAngleXZ": 90,
          "pose": [101]
        }
      },
      "1004": {
        "skillGroupCDID": 0,
        "priority": 4,
        "ignoreGCD": true,
        "triggerGCD": false,
        "initialCD": 5,
        "name": "Defend2",
        "stateIDs": [
          "DefendBS",
          "DefendLoop",
          "DefendAS",
          "DefendBreak",
          "DefendHit"
        ],
        "skillType": "Combat",
        "skillQueryingTime": 2,
        "castCondition": {
          "pickRangeMin": 0,
          "pickRangeMax": 3,
          "maxTargetAngleXZ": 90,
          "pose": [101]
        }
      }
    }
  },
  "inputKeys": [
    //1
    {
      "keyID": 101,
      "inputKeyCode": 257
    },
    //2
    {
      "keyID": 201,
      "inputKeyCode": 258
    },
    //3
    {
      "keyID": 301,
      "inputKeyCode": 259
    },
    //4
    {
      "keyID": 401,
      "inputKeyCode": 260
    },
    //5
    {
      "keyID": 501,
      "inputKeyCode": 261
    },
    //6
    {
      "keyID": 601,
      "inputKeyCode": 262
    },
    //7
    {
      "keyID": 701,
      "inputKeyCode": 263
    },
    //8
    {
      "keyID": 801,
      "inputKeyCode": 264
    },
    //9
    {
      "keyID": 901,
      "inputKeyCode": 265
    },
    //|+1
    {
      "keyID": 1002,
      "inputKeyCode": 266
    },
    //|+2
    {
      "keyID": 1003,
      "inputKeyCode": 267
    },
    //|+3
    {
      "keyID": 1004,
      "inputKeyCode": 268
    },
    //|+4
    {
      "keyID": 1011,
      "inputKeyCode": 269
    },
    //|+5
    {
      "keyID": 10000,
      "inputKeyCode": 270
    },
    //|+6
    {
      "keyID": 402,
      "inputKeyCode": 271
    }
  ],
  "audio": {
    "$type": "ConfigMonsterAudio",
    "animAudio": {
      "onTransitionOut": [
        {
          "currentStateName": "Weak_Loop",
          "audioEvent": { "text": "Stop_sfx_monster_gloves_wind_weak_Loop" },
          "otherStateNames": [""],
          "usage": "Any"
        },
        {
          "currentStateName": "Block_Loop",
          "audioEvent": { "text": "Stop_sfx_monster_gloves_wind_block_Loop" },
          "otherStateNames": [""],
          "usage": "Any"
        }
      ],
      "onTransitionIn": [
        {
          "currentStateName": "Weak_Loop",
          "audioEvent": { "text": "Play_sfx_monster_gloves_wind_weak_Loop" },
          "otherStateNames": [""],
          "usage": "Any"
        },
        {
          "currentStateName": "Block_Loop",
          "audioEvent": { "text": "Play_sfx_monster_gloves_wind_block_Loop" },
          "otherStateNames": [""],
          "usage": "Any"
        }
      ]
    },
    "disableEvent": {
      "text": ""
    },
    "destroyEvent": {
      "text": ""
    }
  }
}
