{
  "PlayerBoy_Common_SkillUpgrade_1": [
    {
      "$type": "ModifyAbility",
      "abilityName": "Avatar_PlayerBoy_NormalAttack_DamageHandler",
      "paramSpecial": "NormalAttack_01_DamagePercentage",
      "paramDelta": "%1"
    },
    {
      "$type": "ModifyAbility",
      "abilityName": "Avatar_PlayerBoy_NormalAttack_DamageHandler",
      "paramSpecial": "NormalAttack_02_DamagePercentage",
      "paramDelta": "%2"
    },
    {
      "$type": "ModifyAbility",
      "abilityName": "Avatar_PlayerBoy_NormalAttack_DamageHandler",
      "paramSpecial": "NormalAttack_03_DamagePercentage",
      "paramDelta": "%3"
    },
    {
      "$type": "ModifyAbility",
      "abilityName": "Avatar_PlayerBoy_NormalAttack_DamageHandler",
      "paramSpecial": "NormalAttack_04_DamagePercentage",
      "paramDelta": "%4"
    },
    {
      "$type": "ModifyAbility",
      "abilityName": "Avatar_PlayerBoy_NormalAttack_DamageHandler",
      "paramSpecial": "NormalAttack_05_DamagePercentage",
      "paramDelta": "%5"
    },
    {
      "$type": "ModifyAbility",
      "abilityName": "Avatar_PlayerBoy_NormalAttack_DamageHandler",
      "paramSpecial": "ExtraAttack_01_DamagePercentage",
      "paramDelta": "%6"
    },
    {
      "$type": "ModifyAbility",
      "abilityName": "Avatar_PlayerBoy_NormalAttack_DamageHandler",
      "paramSpecial": "ExtraAttack_02_DamagePercentage",
      "paramDelta": "%7"
    },
    {
      "$type": "ModifyAbility",
      "abilityName": "Avatar_PlayerBoy_ExtraAttack_Common",
      "paramSpecial": "ExtraAttack_Sword_Stamina_Cost",
      "paramDelta": "%8"
    },
    {
      "$type": "ModifyAbility",
      "abilityName": "Avatar_PlayerBoy_ExtraAttack_Wind",
      "paramSpecial": "ExtraAttack_Sword_Stamina_Cost",
      "paramDelta": "%8"
    },
    {
      "$type": "ModifyAbility",
      "abilityName": "Avatar_PlayerBoy_ExtraAttack_Rock",
      "paramSpecial": "ExtraAttack_Sword_Stamina_Cost",
      "paramDelta": "%8"
    },
    {
      "$type": "ModifyAbility",
      "abilityName": "Avatar_PlayerBoy_FallingAnthem",
      "paramSpecial": "FallingAnthem_Normal_Loop_Damage",
      "paramDelta": "%9"
    },
    {
      "$type": "ModifyAbility",
      "abilityName": "Avatar_PlayerBoy_FallingAnthem",
      "paramSpecial": "FallingAnthem_Normal_Rank_1_Damage",
      "paramDelta": "%10"
    },
    {
      "$type": "ModifyAbility",
      "abilityName": "Avatar_PlayerBoy_FallingAnthem",
      "paramSpecial": "FallingAnthem_Normal_Rank_2_Damage",
      "paramDelta": "%11"
    }
  ],
  "PlayerGirl_Common_SkillUpgrade_1": [
    {
      "$type": "ModifyAbility",
      "abilityName": "Avatar_PlayerGirl_NormalAttack_DamageHandler",
      "paramSpecial": "NormalAttack_01_DamagePercentage",
      "paramDelta": "%1"
    },
    {
      "$type": "ModifyAbility",
      "abilityName": "Avatar_PlayerGirl_NormalAttack_DamageHandler",
      "paramSpecial": "NormalAttack_02_DamagePercentage",
      "paramDelta": "%2"
    },
    {
      "$type": "ModifyAbility",
      "abilityName": "Avatar_PlayerGirl_NormalAttack_DamageHandler",
      "paramSpecial": "NormalAttack_03_DamagePercentage",
      "paramDelta": "%3"
    },
    {
      "$type": "ModifyAbility",
      "abilityName": "Avatar_PlayerGirl_NormalAttack_DamageHandler",
      "paramSpecial": "NormalAttack_04_DamagePercentage",
      "paramDelta": "%4"
    },
    {
      "$type": "ModifyAbility",
      "abilityName": "Avatar_PlayerGirl_NormalAttack_DamageHandler",
      "paramSpecial": "NormalAttack_05_DamagePercentage",
      "paramDelta": "%5"
    },
    {
      "$type": "ModifyAbility",
      "abilityName": "Avatar_PlayerGirl_NormalAttack_DamageHandler",
      "paramSpecial": "ExtraAttack_01_DamagePercentage",
      "paramDelta": "%6"
    },
    {
      "$type": "ModifyAbility",
      "abilityName": "Avatar_PlayerGirl_NormalAttack_DamageHandler",
      "paramSpecial": "ExtraAttack_02_DamagePercentage",
      "paramDelta": "%7"
    },
    {
      "$type": "ModifyAbility",
      "abilityName": "Avatar_PlayerGirl_ExtraAttack_Common",
      "paramSpecial": "ExtraAttack_Sword_Stamina_Cost",
      "paramDelta": "%8"
    },
    {
      "$type": "ModifyAbility",
      "abilityName": "Avatar_PlayerGirl_ExtraAttack_Wind",
      "paramSpecial": "ExtraAttack_Sword_Stamina_Cost",
      "paramDelta": "%8"
    },
    {
      "$type": "ModifyAbility",
      "abilityName": "Avatar_PlayerGirl_ExtraAttack_Rock",
      "paramSpecial": "ExtraAttack_Sword_Stamina_Cost",
      "paramDelta": "%8"
    },
    {
      "$type": "ModifyAbility",
      "abilityName": "Avatar_PlayerGirl_FallingAnthem",
      "paramSpecial": "FallingAnthem_Normal_Loop_Damage",
      "paramDelta": "%9"
    },
    {
      "$type": "ModifyAbility",
      "abilityName": "Avatar_PlayerGirl_FallingAnthem",
      "paramSpecial": "FallingAnthem_Normal_Rank_1_Damage",
      "paramDelta": "%10"
    },
    {
      "$type": "ModifyAbility",
      "abilityName": "Avatar_PlayerGirl_FallingAnthem",
      "paramSpecial": "FallingAnthem_Normal_Rank_2_Damage",
      "paramDelta": "%11"
    }
  ],
  "Player_Wind_SkillUpgrade_2": [
    {
      "$type": "ModifyAbility",
      "abilityName": "Avatar_Player_UziExplode",
      "paramSpecial": "SliceDamage1",
      "paramDelta": "%1"
    },
    {
      "$type": "ModifyAbility",
      "abilityName": "Avatar_Player_UziExplode",
      "paramSpecial": "SliceDamage2",
      "paramDelta": "%2"
    },
    {
      "$type": "ModifyAbility",
      "abilityName": "Avatar_Player_UziExplode_Strike_01",
      "paramSpecial": "StrikeDamage1",
      "paramDelta": "%3"
    },
    {
      "$type": "ModifyAbility",
      "abilityName": "Avatar_Player_UziExplode_Strike_02",
      "paramSpecial": "StrikeDamage2",
      "paramDelta": "%4"
    }
  ],
  "Player_Wind_SkillUpgrade_3": [
    {
      "$type": "ModifyAbility",
      "abilityName": "Avatar_Player_WindBreathe_Tornado",
      "paramSpecial": "Tornado_Damage",
      "paramDelta": "%1"
    },
    {
      "$type": "ModifyAbility",
      "abilityName": "Avatar_Player_WindBreathe_Tornado_Mix",
      "paramSpecial": "Tornado_Mixed_Damage",
      "paramDelta": "%2"
    }
  ],

  ////////////////////////////////////////////////////////////////
  //
  //  命之座1 回转的怒风 风涡剑可将周围5米内的敌人缓慢牵引到角色面前。
  //
  ////////////////////////////////////////////////////////////////
  "Player_Wind_Constellation_1": [
    {
      "$type": "UnlockTalentParam",
      "abilityName": "Avatar_Player_UziExplode",
      "talentParam": "Avatar_Player_Wind_SubVacuum_1"
    },
    {
      "$type": "UnlockTalentParam",
      "abilityName": "Avatar_Player_UziExplode",
      "talentParam": "Avatar_Player_Wind_SubVacuum_2"
    }
  ],

  ////////////////////////////////////////////////////////////////
  //
  //  命之座2 革新的旋风 自身元素充能效率提升16%
  //
  ////////////////////////////////////////////////////////////////
  "Player_Wind_Constellation_2": [
    //这里没东西，占位。因为是填表直接生效的。
  ],

  ////////////////////////////////////////////////////////////////
  //
  //  命之座3 天地之风 风息激荡的技能等级+3
  //
  ////////////////////////////////////////////////////////////////
  "Player_Wind_Constellation_3": [
    {
      "$type": "AddTalentExtraLevel",
      "talentType": "AvatarSkill",
      "talentIndex": 9,
      "extraLevel": 3
    }
  ],

  ////////////////////////////////////////////////////////////////
  //
  //  命之座4 守望的信风 风涡剑持续期间，自身受到的伤害降低10%
  //
  ////////////////////////////////////////////////////////////////
  "Player_Wind_Constellation_4": [
    {
      "$type": "UnlockTalentParam",
      "abilityName": "Avatar_Player_UziExplode",
      "talentParam": "Talent_UziExplode_Warden"
    }
  ],

  ////////////////////////////////////////////////////////////////
  //
  //  命之座5 群星之风 风涡剑的技能等级+3
  //
  ////////////////////////////////////////////////////////////////
  "Player_Wind_Constellation_5": [
    {
      "$type": "AddTalentExtraLevel",
      "talentType": "AvatarSkill",
      "talentIndex": 2,
      "extraLevel": 3
    }
  ],

  ////////////////////////////////////////////////////////////////
  //
  //  命之座6 纠缠的湍风 受到风息激荡伤害的目标，风元素抗性下降20%。如果风息激荡附带了其他元素的伤害，那么对应元素抗性也下降20%。
  //
  ////////////////////////////////////////////////////////////////
  "Player_Wind_Constellation_6": [
    {
      "$type": "UnlockTalentParam",
      "abilityName": "Avatar_Player_WindBreathe_Tornado",
      "talentParam": "Talent_Player_Wind_Twisted"
    }
  ],

  ////////////////////////////////////////////////////////////////
  //
  //  核心得意技 提高队伍中所有角色的生命值上限和风元素抗性。
  //
  ////////////////////////////////////////////////////////////////
  "Player_Wind_CoreSkill_1": [
    //这里没东西，占位。因为是填表直接生效的。
  ],

  ////////////////////////////////////////////////////////////////
  //
  //  天赋1 裂空的疾风 普通攻击的最后一击会打出一道风刃，对沿途敌人造成攻击力40%的风属性伤害（算作普通攻击伤害）。
  //
  ////////////////////////////////////////////////////////////////
  "Player_Wind_PermanentSkill_1": [
    {
      "$type": "UnlockTalentParam",
      "abilityName": "Avatar_Player_Wind_Arashi",
      "talentParam": "Talent_Player_Wind_Arashi"
    }
  ],

  ////////////////////////////////////////////////////////////////
  //
  //  天赋2 复苏的和风 风涡剑成功消灭敌人时，自己在接下来的5秒内每秒恢复最大生命值的2%。效果持续期间，重复击杀不刷新持续时间。
  //
  ////////////////////////////////////////////////////////////////
  "Player_Wind_PermanentSkill_2": [
    {
      "$type": "UnlockTalentParam",
      "abilityName": "Avatar_Player_UziExplode",
      "talentParam": "Talent_Player_Wind_ResurrectUzi"
    }
  ]

  ////////////////////////////////////////////////////////////////
  //
  //  弃用配置
  //
  ////////////////////////////////////////////////////////////////
  /*	"Player_Wind_EnchantedBlade_1":
	[
		{
			"$type" : "AddAbility",
			"abilityName" : "Avatar_Player_Wind_EnchantedBlade",
		},
		{
			"$type" : "ModifyAbility",
			"abilityName" : "Avatar_Player_Wind_EnchantedBlade",
			"paramSpecial" : "damage1",
			"paramDelta" : 0,
			"paramRatio" : 0.05,
		},
		{
			"$type" : "ModifyAbility",
			"abilityName" : "Avatar_Player_Wind_EnchantedBlade",
			"paramSpecial" : "damage2",
			"paramDelta" : 0,
			"paramRatio" : 0.05,
		},
		{
			"$type" : "ModifyAbility",
			"abilityName" : "Avatar_Player_Wind_EnchantedBlade",
			"paramSpecial" : "damage3",
			"paramDelta" : 0,
			"paramRatio" : 0.05,
		},
		{
			"$type" : "ModifyAbility",
			"abilityName" : "Avatar_Player_Wind_EnchantedBlade",
			"paramSpecial" : "damage4",
			"paramDelta" : 0,
			"paramRatio" : 0.05,
		},
		{
			"$type" : "ModifyAbility",
			"abilityName" : "Avatar_Player_Wind_EnchantedBlade",
			"paramSpecial" : "damage5",
			"paramDelta" : 0,
			"paramRatio" : 0.05,
		},
	],
	"Player_Wind_EnchantedBlade_2":
	[
		{
			"$type" : "ModifyAbility",
			"abilityName" : "Avatar_Player_Wind_EnchantedBlade",
			"paramSpecial" : "damage1",
			"paramDelta" : 0,
			"paramRatio" : 0.03,
		},
		{
			"$type" : "ModifyAbility",
			"abilityName" : "Avatar_Player_Wind_EnchantedBlade",
			"paramSpecial" : "damage2",
			"paramDelta" : 0,
			"paramRatio" : 0.03,
		},
		{
			"$type" : "ModifyAbility",
			"abilityName" : "Avatar_Player_Wind_EnchantedBlade",
			"paramSpecial" : "damage3",
			"paramDelta" : 0,
			"paramRatio" : 0.03,
		},
		{
			"$type" : "ModifyAbility",
			"abilityName" : "Avatar_Player_Wind_EnchantedBlade",
			"paramSpecial" : "damage4",
			"paramDelta" : 0,
			"paramRatio" : 0.03,
		},
		{
			"$type" : "ModifyAbility",
			"abilityName" : "Avatar_Player_Wind_EnchantedBlade",
			"paramSpecial" : "damage5",
			"paramDelta" : 0,
			"paramRatio" : 0.03,
		},
	],
	"Player_Wind_EnchantedBlade_3":
	[
		{
			"$type" : "ModifyAbility",
			"abilityName" : "Avatar_Player_Wind_EnchantedBlade",
			"paramSpecial" : "damage1",
			"paramDelta" : 0,
			"paramRatio" : 0.04,
		},
		{
			"$type" : "ModifyAbility",
			"abilityName" : "Avatar_Player_Wind_EnchantedBlade",
			"paramSpecial" : "damage2",
			"paramDelta" : 0,
			"paramRatio" : 0.04,
		},
		{
			"$type" : "ModifyAbility",
			"abilityName" : "Avatar_Player_Wind_EnchantedBlade",
			"paramSpecial" : "damage3",
			"paramDelta" : 0,
			"paramRatio" : 0.04,
		},
		{
			"$type" : "ModifyAbility",
			"abilityName" : "Avatar_Player_Wind_EnchantedBlade",
			"paramSpecial" : "damage4",
			"paramDelta" : 0,
			"paramRatio" : 0.04,
		},
		{
			"$type" : "ModifyAbility",
			"abilityName" : "Avatar_Player_Wind_EnchantedBlade",
			"paramSpecial" : "damage5",
			"paramDelta" : 0,
			"paramRatio" : 0.04,
		},
	],
	"Player_Wind_WindWalk_1":
	[
		{
			"$type" : "AddAbility",
			"abilityName" : "Avatar_Player_Wind_WindWalk",
		},
	],
	"Player_Wind_WindWalk_2":
	[
		{
			"$type" : "ModifyAbility",
			"abilityName" : "Avatar_Player_Wind_WindWalk",
			"paramSpecial" : "SprintSpeed",
			"paramDelta" : 0.15,
			"paramRatio" : 0,
		},
	],
	"Player_Wind_WindWalk_3":
	[
		{
			"$type" : "ModifyAbility",
			"abilityName" : "Avatar_Player_Wind_WindWalk",
			"paramSpecial" : "SprintSpeed",
			"paramDelta" : 0.15,
			"paramRatio" : 0,
		},
	],
	"Player_Wind_StormEye_1":
	[
		{
			"$type" : "ModifyAbility",
			"abilityName" : "Avatar_Player_UziExplode",
			"paramSpecial" : "SliceDamage1",
			"paramDelta" : 0,
			"paramRatio" : 0.06,
		},
		{
			"$type" : "ModifyAbility",
			"abilityName" : "Avatar_Player_UziExplode",
			"paramSpecial" : "SliceDamage2",
			"paramDelta" : 0,
			"paramRatio" : 0.06,
		},
		{
			"$type" : "ModifyAbility",
			"abilityName" : "Avatar_Player_UziExplode_Strike_01",
			"paramSpecial" : "StrikeDamage1",
			"paramDelta" : 0,
			"paramRatio" : 0.06,
		},
		{
			"$type" : "ModifyAbility",
			"abilityName" : "Avatar_Player_UziExplode_Strike_02",
			"paramSpecial" : "StrikeDamage2",
			"paramDelta" : 0,
			"paramRatio" : 0.06,
		},
	],
	"Player_Wind_StormEye_2":
	[
		{
			"$type" : "ModifyAbility",
			"abilityName" : "Avatar_Player_UziExplode",
			"paramSpecial" : "SliceDamage1",
			"paramDelta" : 0,
			"paramRatio" : 0.06,
		},
		{
			"$type" : "ModifyAbility",
			"abilityName" : "Avatar_Player_UziExplode",
			"paramSpecial" : "SliceDamage2",
			"paramDelta" : 0,
			"paramRatio" : 0.06,
		},
		{
			"$type" : "ModifyAbility",
			"abilityName" : "Avatar_Player_UziExplode_Strike_01",
			"paramSpecial" : "StrikeDamage1",
			"paramDelta" : 0,
			"paramRatio" : 0.06,
		},
		{
			"$type" : "ModifyAbility",
			"abilityName" : "Avatar_Player_UziExplode_Strike_02",
			"paramSpecial" : "StrikeDamage2",
			"paramDelta" : 0,
			"paramRatio" : 0.06,
		},
	],
	"Player_Wind_StormEye_3":
	[
		{
			"$type" : "ModifyAbility",
			"abilityName" : "Avatar_Player_UziExplode",
			"paramSpecial" : "SliceDamage1",
			"paramDelta" : 0,
			"paramRatio" : 0.08,
		},
		{
			"$type" : "ModifyAbility",
			"abilityName" : "Avatar_Player_UziExplode",
			"paramSpecial" : "SliceDamage2",
			"paramDelta" : 0,
			"paramRatio" : 0.08,
		},
		{
			"$type" : "ModifyAbility",
			"abilityName" : "Avatar_Player_UziExplode_Strike_01",
			"paramSpecial" : "StrikeDamage1",
			"paramDelta" : 0,
			"paramRatio" : 0.08,
		},
		{
			"$type" : "ModifyAbility",
			"abilityName" : "Avatar_Player_UziExplode_Strike_02",
			"paramSpecial" : "StrikeDamage2",
			"paramDelta" : 0,
			"paramRatio" : 0.08,
		},
	],
	"Player_Wind_DvalinPulse_1":
	[
		{
			"$type" : "AddAbility",
			"abilityName" : "Avatar_Player_Wind_DvalinPulse",
		},
	],
	"Player_Wind_DvalinPulse_2":
	[
		{
			"$type" : "ModifyAbility",
			"abilityName" : "Avatar_Player_Wind_DvalinPulse",
			"paramSpecial" : "EnergyCostDelta",
			"paramDelta" : -5,
			"paramRatio" : 0,
		},
	],
	"Player_Wind_DvalinPulse_3":
	[
		{
			"$type" : "ModifyAbility",
			"abilityName" : "Avatar_Player_Wind_DvalinPulse",
			"paramSpecial" : "EnergyCostDelta",
			"paramDelta" : -5,
			"paramRatio" : 0,
		},
	],
	"Player_Wind_HowlingBlade_1":
	[
		{
			"$type" : "AddAbility",
			"abilityName" : "Avatar_Player_Wind_HowlingBlade",
		},
	],
	"Player_Wind_HowlingBlade_2":
	[
		{
			"$type" : "ModifyAbility",
			"abilityName" : "Avatar_Player_Wind_HowlingBlade",
			"paramSpecial" : "BonusCritical",
			"paramDelta" : 0.04,
			"paramRatio" : 0,
		},
		{
			"$type" : "ModifyAbility",
			"abilityName" : "Avatar_Player_Wind_HowlingBlade",
			"paramSpecial" : "BonusCriticalHurt",
			"paramDelta" : 0.2,
			"paramRatio" : 0,
		},
	],
	"Player_Wind_HowlingBlade_3":
	[
		{
			"$type" : "ModifyAbility",
			"abilityName" : "Avatar_Player_Wind_HowlingBlade",
			"paramSpecial" : "BonusCritical",
			"paramDelta" : 0.04,
			"paramRatio" : 0,
		},
		{
			"$type" : "ModifyAbility",
			"abilityName" : "Avatar_Player_Wind_HowlingBlade",
			"paramSpecial" : "BonusCriticalHurt",
			"paramDelta" : 0.2,
			"paramRatio" : 0,
		},
	],
	"Player_Wind_Element_Embrace_1":
	[
		{
			"$type" : "ModifyAbility",
			"abilityName" : "Avatar_Player_WindBreathe_Tornado_Mix",
			"paramSpecial" : "Tornado_Mixed_Damage",
			"paramDelta" : 0,
			"paramRatio" : 0.08,
		},
		{
			"$type" : "ModifyAbility",
			"abilityName" : "Avatar_Player_WindBreathe_Tornado",
			"paramSpecial" : "Tornado_Damage",
			"paramDelta" : 0,
			"paramRatio" : 0.08,
		},
	],
	"Player_Wind_Element_Embrace_2":
	[
		{
			"$type" : "ModifyAbility",
			"abilityName" : "Avatar_Player_WindBreathe_Tornado_Mix",
			"paramSpecial" : "Tornado_Mixed_Damage",
			"paramDelta" : 0,
			"paramRatio" : 0.06,
		},
		{
			"$type" : "ModifyAbility",
			"abilityName" : "Avatar_Player_WindBreathe_Tornado",
			"paramSpecial" : "Tornado_Damage",
			"paramDelta" : 0,
			"paramRatio" : 0.06,
		},
	],
	"Player_Wind_Element_Embrace_3":
	[
		{
			"$type" : "ModifyAbility",
			"abilityName" : "Avatar_Player_WindBreathe_Tornado_Mix",
			"paramSpecial" : "Tornado_Mixed_Damage",
			"paramDelta" : 0,
			"paramRatio" : 0.06,
		},
		{
			"$type" : "ModifyAbility",
			"abilityName" : "Avatar_Player_WindBreathe_Tornado",
			"paramSpecial" : "Tornado_Damage",
			"paramDelta" : 0,
			"paramRatio" : 0.06,
		},
	],*/
}
