{
  "$type": "ConfigAvatar",
  "common": {
    "effectAttachShape": {
      "$type": "ConfigEffectAttachSkinnedMesh",
      "mesh": "EffectMesh"
    },
    "mass": 10.0,
    "checkInSurface": false
  },
  "headControl": {
    "$type": "ConfigHeadControl",
    "useHeadControl": true,
    "useWhiteAnimStates": false
  },
  "equipController": {
    "attachPoints": {
      "equip01": "WeaponR",
      "equip02": "WeaponL",
      "equip00": "WeaponBackPut"
    },
    "sheathPoint": "WeaponBackPut",
    "dissolveSheathFadeDelay": 0.075,
    "dissolveSheathFadeTime": 0.3,
    "patternSheathFadeDelay": 0.075,
    "patternSheathFadeTime": 0.3
  },
  "stateLayers": {
    "defaultLayer": {
      "$type": "ConfigNormalStateLayer",
      "stateIDs": {
        "ShowWeapon_BS": {
          "$type": "ConfigAvatarStateIDInfo",
          "animatorStates": {
            "ShowWeapon_BS": [
              "Girl_Sword_ShowWeapon_BS",
              "Emo_Avatar_Common_Girl_Sword_UI_ShowWeaponBS"
            ]
          },
          "setAnimatorBoolean": [
            {
              "name": "&GotoAnyState"
            }
          ],
          "sheatheOnStart": true //这个是state互切时触发的。如果内部状态互切就不会触发了。所以不得不拆出BS
        },
        "ShowRelic_BS": {
          "$type": "ConfigAvatarStateIDInfo",
          "animatorStates": {
            "ShowRelic_BS": ["Emo_Avatar_Common_Manekin_RelicShowBS"]
          },
          "setAnimatorBoolean": [
            {
              "name": "&GotoAnyState"
            }
          ],
          "sheatheOnStart": true
        },
        "ShowWeapon": {
          "$type": "ConfigAvatarStateIDInfo",
          "animatorStates": {
            "ShowWeapon": ["Emo_Avatar_Common_Girl_Sword_UI_ShowWeaponLoop"],
            "ShowWeapon_AS": [
              "Girl_Sword_ShowWeapon_AS",
              "Emo_Avatar_Common_Girl_Sword_UI_ShowWeaponAS"
            ]
          },
          "battouOnStart": true
        },
        "ShowRelic": {
          "$type": "ConfigAvatarStateIDInfo",
          "animatorStates": {
            "ShowRelic": ["Emo_Avatar_Common_Manekin_RelicShowLoop"],
            "ShowRelic_AS": ["Emo_Avatar_Common_Manekin_RelicShowAS"]
          },
          "sheatheOnStart": true
          //"sheatheOnEnd": true, //manekin里缺少大世界的战斗参数，sheatheOnEnd是不生效的。用start那个来收刀。
        },
        //需要保证show的特效不能在别的状态播，所以这个statelayer只会有待机。
        "ShowCharacter": {
          "$type": "ConfigAvatarStateIDInfo",
          "animatorStates": {
            "ShowCharacter": [],
            "Show01": [
              "Manekin_Layla_Show01",
              "Audio_Girl_Sword_Layla_StandbyShow_01_UI"
            ],
            "Show02": [
              "Manekin_Layla_Show02",
              "Audio_Girl_Sword_Layla_StandbyShow_02_UI"
            ]
          },
          "setAnimatorBoolean": [
            {
              "name": "&GotoAnyState" // 这个参数需要进入state出现。比trigger出现晚，所以从别人武器界面切到琴的时候无法用trigger和这个参数触发进入weapon的state的线。改成了用tabID，也就是在free等了一下再进weapon。
            }
          ],
          "sheatheOnStart": true
        },
        "Skill_BS": {
          "$type": "ConfigAvatarStateIDInfo",
          "animatorStates": {
            "Skill_BS": ["Emo_Avatar_Layla_UI_Talent_StrikeChest_01BS"]
          },
          "setAnimatorBoolean": [
            {
              "name": "&GotoAnyState"
            }
          ],
          // "battouOnStart": true
          "sheatheOnStart": true
        },
        "Skill": {
          "$type": "ConfigAvatarStateIDInfo",
          "animatorStates": {
            "Skill": ["Emo_Avatar_Layla_UI_Talent_StrikeChest_01Loop"]
          },
          "setAnimatorBoolean": []
        },
        "Skill_AS": {
          "$type": "ConfigAvatarStateIDInfo",
          "animatorStates": {
            "Skill_AS": ["Emo_Avatar_Layla_UI_Talent_StrikeChest_01AS"]
          },
          "setAnimatorBoolean": [
            // {
            // 	"name" : "&GotoAction",
            // 	"normalizeStart":0.0,
            // },
            // {
            // 	"name" : "&GotoAnyState",
            // 	"normalizeStart":0.91,
            // },
          ]
        },
        "Story": {
          "$type": "ConfigAvatarStateIDInfo",
          "animatorStates": {
            "Story": []
          },
          "setAnimatorBoolean": [
            {
              "name": "&GotoAnyState"
            }
          ],
          "sheatheOnStart": true
        },
        "ShowFlycloak": {
          "$type": "ConfigAvatarStateIDInfo",
          "animatorStates": {
            "ShowFlycloak": []
          },
          "setAnimatorBoolean": [],
          "sheatheOnStart": true
        }
      }
    }
  },
  "abilities": {},
  "audio": {
    "$type": "ConfigAvatarAudio",
    "animAudio": {
      "onTransitionOut": [
        {
          "currentStateName": "ShowWeapon_BS",
          "audioEvent": {
            "text": "Stop_ui_menu_weapon_show_putAway_appear_short"
          },
          "otherStateNames": [],
          "usage": "Any"
        },
        {
          "currentStateName": "Show01",
          "audioEvent": {
            "text": "Stop_ui_standbyShow_layla_01"
          },
          "otherStateNames": [],
          "usage": "Any"
        },
        {
          "currentStateName": "Show02",
          "audioEvent": {
            "text": "Stop_ui_standbyShow_layla_02"
          },
          "otherStateNames": [],
          "usage": "Any"
        }
      ],
      "onTransitionIn": [
        {
          "currentStateName": "ShowWeapon_BS",
          "audioEvent": {
            "text": "Play_ui_menu_weapon_show_layla"
          },
          "otherStateNames": [],
          "usage": "Any"
        },
        {
          "currentStateName": "ShowRelic_BS",
          "audioEvent": {
            "text": "Play_ui_menu_relic_show"
          },
          "otherStateNames": [],
          "usage": "Any"
        }
      ]
    },
    "listenerLiftup": 1.5,
    "surfaceProberLiftup": 1.5
  }
}
