{
  "$type": "ConfigAvatar",
  "common": {
    "effectAttachShape": {
      "$type": "ConfigEffectAttachSkinnedMesh",
      "mesh": "EffectMesh"
    },
    "mass": 10.0,
    "checkInSurface": false
  },
  "headControl": {
    "$type": "ConfigHeadControl",
    "useHeadControl": true,
    "useWhiteAnimStates": false
  },
  "equipController": {
    "attachPoints": {
      "equip01": "WeaponR",
      "equip02": "WeaponL"
    },
    "sheathPoint": "WeaponBackPut",
    "dissolveSheathFadeDelay": 0.0,
    "dissolveSheathFadeTime": 0.3,
    "patternSheathFadeDelay": 0.0,
    "patternSheathFadeTime": 0.3,
    "triggerToStates": [
      {
        "trigger": "Close",
        "states": []
      },
      {
        "trigger": "Close",
        "states": ["ShowWeapon/ShowWeapon_AS"]
      },
      {
        "trigger": "Open",
        "states": ["ShowWeapon/ShowWeapon", "ShowWeapon_BS"]
      }
    ]
  },
  "stateLayers": {
    "defaultLayer": {
      "$type": "ConfigNormalStateLayer",
      "stateIDs": {
        "ShowWeapon_BS": {
          "$type": "ConfigAvatarStateIDInfo",
          "animatorStates": {
            "ShowWeapon_BS": [
              "Loli_Catalyst_ShowWeapon_BS",
              "Emo_Avatar_Nahida_UI_ShowWeapon_BS"
            ]
          },
          "setAnimatorBoolean": [
            {
              "name": "&GotoAnyState"
            }
          ],
          "sheatheOnStart": true //这个是state互切时触发的。如果内部状态互切就不会触发了。所以不得不拆出BS
        },
        "ShowRelic_BS": {
          "$type": "ConfigAvatarStateIDInfo",
          "animatorStates": {
            "ShowRelic_BS": ["Emo_Avatar_Common_Manekin_RelicShowBS"]
          },
          "setAnimatorBoolean": [
            {
              "name": "&GotoAnyState"
            }
          ],
          "sheatheOnStart": true
        },
        "ShowWeapon": {
          "$type": "ConfigAvatarStateIDInfo",
          "animatorStates": {
            "ShowWeapon": ["Emo_Avatar_Nahida_UI_ShowWeapon_Loop"],
            "ShowWeapon_AS": [
              "Loli_Catalyst_ShowWeapon_AS",
              "Emo_Avatar_Nahida_UI_ShowWeapon_AS"
            ]
          },
          "battouOnStart": true
        },
        "ShowRelic": {
          "$type": "ConfigAvatarStateIDInfo",
          "animatorStates": {
            "ShowRelic": ["Emo_Avatar_Common_Manekin_RelicShowLoop"],
            "ShowRelic_AS": ["Emo_Avatar_Common_Manekin_RelicShowAS"]
          },
          "sheatheOnStart": true
          //"sheatheOnEnd": true, //manekin里缺少大世界的战斗参数，sheatheOnEnd是不生效的。用start那个来收刀。
        },
        //需要保证show的特效不能在别的状态播，所以这个statelayer只会有待机。
        "ShowCharacter": {
          "$type": "ConfigAvatarStateIDInfo",
          "animatorStates": {
            "ShowCharacter": [],
            "Show02": [
              "Manekin_Nahida_Show02",
              "Audio_Loli_Catalyst_Nahida_StandbyShow_02_UI",
              "Emo_Avatar_Nahida_Skill_ElementalArt_Show_02"
            ]
          },
          "setAnimatorBoolean": [
            {
              "name": "&GotoAnyState" // 这个参数需要进入state出现。比trigger出现晚，所以从别人武器界面切到琴的时候无法用trigger和这个参数触发进入weapon的state的线。改成了用tabID，也就是在free等了一下再进weapon。
            }
          ],
          "sheatheOnStart": true
        },
        //单独拎出来处理特效表现逻辑
        "Show01": {
          "$type": "ConfigAvatarStateIDInfo",
          "animatorStates": {
            "Show01_BS": [
              "Manekin_Nahida_Show01",
              "Audio_Loli_Catalyst_Nahida_StandbyShow_01_BS_UI",
              "Emo_Avatar_Nahida_Skill_ElementalArt_Show_01BS"
            ],
            "Show01_Loop": [
              "Audio_Loli_Catalyst_Nahida_StandbyShow_01_Loop_UI",
              "Emo_Avatar_Nahida_Skill_ElementalArt_Show_01Loop_A"
            ],
            "Show01_AS": [
              "Audio_Loli_Catalyst_Nahida_StandbyShow_01_AS_UI",
              "Emo_Avatar_Nahida_Skill_ElementalArt_Show_01AS"
            ]
          },
          "setAnimatorBoolean": [
            {
              "name": "&GotoAnyState"
            }
          ],
          "sheatheOnStart": true
        },
        "Skill_BS": {
          "$type": "ConfigAvatarStateIDInfo",
          "animatorStates": {
            "Skill_BS": ["Emo_Avatar_Nahida_UI_Talent_BS"]
          },
          "setAnimatorBoolean": [
            {
              "name": "&GotoAnyState"
            }
          ],
          // "battouOnStart": true
          "sheatheOnStart": true
        },
        "Skill": {
          "$type": "ConfigAvatarStateIDInfo",
          "animatorStates": {
            "Skill": ["Emo_Avatar_Nahida_UI_Talent_Loop"]
          },
          "setAnimatorBoolean": []
        },
        "Skill_AS": {
          "$type": "ConfigAvatarStateIDInfo",
          "animatorStates": {
            "Skill_AS": ["Emo_Avatar_Nahida_UI_Talent_AS"]
          },
          "setAnimatorBoolean": [
            // {
            // 	"name" : "&GotoAction",
            // 	"normalizeStart":0.0,
            // },
            // {
            // 	"name" : "&GotoAnyState",
            // 	"normalizeStart":0.91,
            // },
          ]
        },
        "Story": {
          "$type": "ConfigAvatarStateIDInfo",
          "animatorStates": {
            "Story": []
          },
          "setAnimatorBoolean": [
            {
              "name": "&GotoAnyState"
            }
          ],
          "sheatheOnStart": true
        },
        "ShowFlycloak": {
          "$type": "ConfigAvatarStateIDInfo",
          "animatorStates": {
            "ShowFlycloak": []
          },
          "setAnimatorBoolean": [],
          "sheatheOnStart": true
        }
      }
    }
  },
  "abilities": {},
  "audio": {
    "$type": "ConfigAvatarAudio",
    "animAudio": {
      "onTransitionOut": [
        {
          "currentStateName": "ShowWeapon_BS",
          "audioEvent": {
            "text": "Stop_ui_menu_weapon_show_putAway_appear_short"
          },
          "otherStateNames": [],
          "usage": "Any"
        },
        {
          "currentStateName": "Show01_BS",
          "audioEvent": {
            "text": "Stop_ui_standbyShow_nahida_01"
          },
          "otherStateNames": [],
          "usage": "Any"
        },
        {
          "currentStateName": "Show01_AS",
          "audioEvent": {
            "text": "Stop_ui_standbyShow_nahida_01_swing_disappear"
          },
          "otherStateNames": [],
          "usage": "Any"
        },

        {
          "currentStateName": "Show02",
          "audioEvent": {
            "text": "Stop_ui_standbyShow_nahida_02"
          },
          "otherStateNames": [],
          "usage": "Any"
        }
      ],
      "onTransitionIn": [
        {
          "currentStateName": "ShowWeapon_BS",
          "audioEvent": {
            "text": "Play_ui_menu_weapon_show_nahida"
          },
          "otherStateNames": [],
          "usage": "Any"
        },
        {
          "currentStateName": "ShowRelic_BS",
          "audioEvent": {
            "text": "Play_ui_menu_relic_show"
          },
          "otherStateNames": [],
          "usage": "Any"
        },
        {
          "currentStateName": "Show01_BS",
          "audioEvent": {
            "text": "Play_ui_standbyShow_nahida_01_swing_lp"
          },
          "otherStateNames": [],
          "usage": "Any"
        },
        {
          "currentStateName": "ShowWeapon_BS",
          "audioEvent": {
            "text": "Stop_ui_standbyShow_nahida_01_swing_lp"
          },
          "otherStateNames": [],
          "usage": "Any"
        },
        {
          "currentStateName": "ShowRelic_BS",
          "audioEvent": {
            "text": "Stop_ui_standbyShow_nahida_01_swing_lp"
          },
          "otherStateNames": [],
          "usage": "Any"
        },
        {
          "currentStateName": "Skill_BS",
          "audioEvent": {
            "text": "Stop_ui_standbyShow_nahida_01_swing_lp"
          },
          "otherStateNames": [],
          "usage": "Any"
        },
        {
          "currentStateName": "ShowWeapon_BS",
          "audioEvent": {
            "text": "Stop_ui_standbyShow_nahida_02"
          },
          "otherStateNames": [],
          "usage": "Any"
        },
        {
          "currentStateName": "ShowRelic_BS",
          "audioEvent": {
            "text": "Stop_ui_standbyShow_nahida_02"
          },
          "otherStateNames": [],
          "usage": "Any"
        },
        {
          "currentStateName": "Skill_BS",
          "audioEvent": {
            "text": "Stop_ui_standbyShow_nahida_02"
          },
          "otherStateNames": [],
          "usage": "Any"
        },
        {
          "currentStateName": "ShowWeapon_BS",
          "audioEvent": {
            "text": "Stop_ui_standbyShow_nahida_02_freedom"
          },
          "otherStateNames": [],
          "usage": "Any"
        },
        {
          "currentStateName": "ShowRelic_BS",
          "audioEvent": {
            "text": "Stop_ui_standbyShow_nahida_02_freedom"
          },
          "otherStateNames": [],
          "usage": "Any"
        },
        {
          "currentStateName": "Skill_BS",
          "audioEvent": {
            "text": "Stop_ui_standbyShow_nahida_02_freedom"
          },
          "otherStateNames": [],
          "usage": "Any"
        }
      ]
    },
    "listenerLiftup": 1.5,
    "surfaceProberLiftup": 1.5
  }
}
