{
  "sceneId": 2004,
  "blockList": [
    {
      "blockId": 1,
      "centerPos": {
        "x": 0.0,
        "y": 0.0,
        "z": 0.0
      },
      "centerRot": {
        "x": 0.0,
        "y": 0.0,
        "z": 0.0
      }
    },
    {
      "blockId": 2,
      "centerPos": {
        "x": 0.0,
        "y": 0.0,
        "z": 0.0
      },
      "centerRot": {
        "x": 0.0,
        "y": 0.0,
        "z": 0.0
      }
    },
    {
      "blockId": 3,
      "centerPos": {
        "x": 0.0,
        "y": 0.0,
        "z": 0.0
      },
      "centerRot": {
        "x": 0.0,
        "y": 0.0,
        "z": 0.0
      }
    },
    {
      "blockId": 4,
      "centerPos": {
        "x": 0.0,
        "y": 0.0,
        "z": 0.0
      },
      "centerRot": {
        "x": 0.0,
        "y": 0.0,
        "z": 0.0
      }
    }
  ]
}
