{
  "sceneId": 2204,
  "blockList": [
    {
      "blockId": 1,
      "centerPos": {
        "x": 0.0,
        "y": 0.0,
        "z": 2.5
      },
      "centerRot": {
        "x": 0.0,
        "y": 0.0,
        "z": 0.0
      }
    },
    {
      "blockId": 2,
      "centerPos": {
        "x": 0.0,
        "y": 0.0,
        "z": 20.08
      },
      "centerRot": {
        "x": 0.0,
        "y": 0.0,
        "z": 0.0
      }
    },
    {
      "blockId": 3,
      "centerPos": {
        "x": 17.5,
        "y": 0.0,
        "z": 2.5
      },
      "centerRot": {
        "x": 0.0,
        "y": 90.0,
        "z": 0.0
      }
    },
    {
      "blockId": 4,
      "centerPos": {
        "x": -17.5,
        "y": 0.0,
        "z": 2.5
      },
      "centerRot": {
        "x": 0.0,
        "y": 270.0,
        "z": 0.0
      }
    },
    {
      "blockId": 5,
      "centerPos": {
        "x": 0.0,
        "y": 5.0,
        "z": 2.5
      },
      "centerRot": {
        "x": 0.0,
        "y": 0.0,
        "z": 0.0
      }
    },
    {
      "blockId": 6,
      "centerPos": {
        "x": 17.5,
        "y": 5.0,
        "z": 2.5
      },
      "centerRot": {
        "x": 0.0,
        "y": 90.0,
        "z": 0.0
      }
    },
    {
      "blockId": 7,
      "centerPos": {
        "x": -17.5,
        "y": 5.0,
        "z": 2.5
      },
      "centerRot": {
        "x": 0.0,
        "y": 270.0,
        "z": 0.0
      }
    }
  ]
}
