{
  "custom_dungeon": {
    "dungeon_guid": "60129542144",
    "dungeon_id": 2114,
    "first_publish_time": 0,
    "is_liked": false,
    "room_list": [
      {
        "block_list": [
          {
            "block_id": 3002,
            "guid": 10045,
            "pos": {
              "x": 25,
              "y": 0,
              "z": 25
            },
            "rot": {
              "x": 0,
              "y": 0,
              "z": 0
            }
          },
          {
            "block_id": 1002,
            "guid": 10022,
            "pos": {
              "x": 7,
              "y": 0,
              "z": 2
            },
            "rot": {
              "x": 0,
              "y": 0,
              "z": 0
            }
          },
          {
            "block_id": 3005,
            "guid": 12068,
            "pos": {
              "x": 14,
              "y": 0,
              "z": 1
            },
            "rot": {
              "x": 0,
              "y": 270,
              "z": 0
            }
          },
          {
            "block_id": 1002,
            "guid": 10047,
            "pos": {
              "x": 27,
              "y": 5,
              "z": 26
            },
            "rot": {
              "x": 0,
              "y": 0,
              "z": 0
            }
          },
          {
            "block_id": 5001,
            "guid": 11064,
            "pos": {
              "x": 13,
              "y": 0,
              "z": 2
            },
            "rot": {
              "x": 0,
              "y": 0,
              "z": 0
            }
          },
          {
            "block_id": 1002,
            "guid": 10030,
            "pos": {
              "x": 5,
              "y": 0,
              "z": 16
            },
            "rot": {
              "x": 0,
              "y": 0,
              "z": 0
            }
          },
          {
            "block_id": 1002,
            "guid": 10024,
            "pos": {
              "x": 5,
              "y": 0,
              "z": 4
            },
            "rot": {
              "x": 0,
              "y": 0,
              "z": 0
            }
          },
          {
            "block_id": 3005,
            "guid": 11058,
            "pos": {
              "x": 21,
              "y": 0,
              "z": 0
            },
            "rot": {
              "x": 0,
              "y": 270,
              "z": 0
            }
          },
          {
            "block_id": 3005,
            "guid": 11059,
            "pos": {
              "x": 2,
              "y": 0,
              "z": 0
            },
            "rot": {
              "x": 0,
              "y": 0,
              "z": 0
            }
          },
          {
            "block_id": 2003,
            "guid": 12071,
            "pos": {
              "x": 23,
              "y": 0,
              "z": 18
            },
            "rot": {
              "x": 0,
              "y": 0,
              "z": 0
            }
          },
          {
            "block_id": 3001,
            "guid": 10050,
            "pos": {
              "x": 21,
              "y": 8,
              "z": 25
            },
            "rot": {
              "x": 0,
              "y": 224,
              "z": 0
            }
          },
          {
            "block_id": 1002,
            "guid": 10026,
            "pos": {
              "x": 5,
              "y": 0,
              "z": 8
            },
            "rot": {
              "x": 0,
              "y": 0,
              "z": 0
            }
          },
          {
            "block_id": 1002,
            "guid": 10049,
            "pos": {
              "x": 27,
              "y": 9,
              "z": 26
            },
            "rot": {
              "x": 0,
              "y": 0,
              "z": 0
            }
          },
          {
            "block_id": 3005,
            "guid": 12070,
            "pos": {
              "x": 3,
              "y": 0,
              "z": 12
            },
            "rot": {
              "x": 0,
              "y": 0,
              "z": 0
            }
          },
          {
            "block_id": 3005,
            "guid": 11061,
            "pos": {
              "x": 2,
              "y": 0,
              "z": 25
            },
            "rot": {
              "x": 0,
              "y": 90,
              "z": 0
            }
          },
          {
            "block_id": 1002,
            "guid": 10055,
            "pos": {
              "x": 12,
              "y": 12,
              "z": 16
            },
            "rot": {
              "x": 0,
              "y": 0,
              "z": 0
            }
          },
          {
            "block_id": 5001,
            "guid": 11065,
            "pos": {
              "x": 5,
              "y": 0,
              "z": 14
            },
            "rot": {
              "x": 0,
              "y": 0,
              "z": 0
            }
          },
          {
            "block_id": 1002,
            "guid": 10053,
            "pos": {
              "x": 16,
              "y": 12,
              "z": 20
            },
            "rot": {
              "x": 0,
              "y": 0,
              "z": 0
            }
          },
          {
            "block_id": 5001,
            "guid": 11066,
            "pos": {
              "x": 17,
              "y": 0,
              "z": 26
            },
            "rot": {
              "x": 0,
              "y": 0,
              "z": 0
            }
          },
          {
            "block_id": 1002,
            "guid": 10032,
            "pos": {
              "x": 5,
              "y": 0,
              "z": 20
            },
            "rot": {
              "x": 0,
              "y": 0,
              "z": 0
            }
          },
          {
            "block_id": 1002,
            "guid": 10036,
            "pos": {
              "x": 7,
              "y": 0,
              "z": 26
            },
            "rot": {
              "x": 0,
              "y": 0,
              "z": 0
            }
          },
          {
            "block_id": 1002,
            "guid": 10038,
            "pos": {
              "x": 11,
              "y": 0,
              "z": 26
            },
            "rot": {
              "x": 0,
              "y": 0,
              "z": 0
            }
          },
          {
            "block_id": 1002,
            "guid": 10040,
            "pos": {
              "x": 15,
              "y": 0,
              "z": 26
            },
            "rot": {
              "x": 0,
              "y": 0,
              "z": 0
            }
          },
          {
            "block_id": 1002,
            "guid": 10034,
            "pos": {
              "x": 5,
              "y": 0,
              "z": 24
            },
            "rot": {
              "x": 0,
              "y": 0,
              "z": 0
            }
          },
          {
            "block_id": 1002,
            "guid": 10044,
            "pos": {
              "x": 23,
              "y": 0,
              "z": 26
            },
            "rot": {
              "x": 0,
              "y": 0,
              "z": 0
            }
          },
          {
            "block_id": 3005,
            "guid": 12069,
            "pos": {
              "x": 13,
              "y": 0,
              "z": 25
            },
            "rot": {
              "x": 0,
              "y": 90,
              "z": 0
            }
          },
          {
            "block_id": 1002,
            "guid": 10048,
            "pos": {
              "x": 27,
              "y": 7,
              "z": 26
            },
            "rot": {
              "x": 0,
              "y": 0,
              "z": 0
            }
          },
          {
            "block_id": 1002,
            "guid": 10046,
            "pos": {
              "x": 27,
              "y": 3,
              "z": 26
            },
            "rot": {
              "x": 0,
              "y": 0,
              "z": 0
            }
          },
          {
            "block_id": 1002,
            "guid": 10042,
            "pos": {
              "x": 19,
              "y": 0,
              "z": 26
            },
            "rot": {
              "x": 0,
              "y": 0,
              "z": 0
            }
          },
          {
            "block_id": 1002,
            "guid": 10018,
            "pos": {
              "x": 15,
              "y": 0,
              "z": 2
            },
            "rot": {
              "x": 0,
              "y": 0,
              "z": 0
            }
          },
          {
            "block_id": 1002,
            "guid": 10016,
            "pos": {
              "x": 19,
              "y": 0,
              "z": 2
            },
            "rot": {
              "x": 0,
              "y": 0,
              "z": 0
            }
          },
          {
            "block_id": 1002,
            "guid": 10014,
            "pos": {
              "x": 23,
              "y": 0,
              "z": 2
            },
            "rot": {
              "x": 0,
              "y": 0,
              "z": 0
            }
          },
          {
            "block_id": 1002,
            "guid": 10010,
            "pos": {
              "x": 23,
              "y": 0,
              "z": 10
            },
            "rot": {
              "x": 0,
              "y": 0,
              "z": 0
            }
          },
          {
            "block_id": 1002,
            "guid": 10012,
            "pos": {
              "x": 23,
              "y": 0,
              "z": 6
            },
            "rot": {
              "x": 0,
              "y": 0,
              "z": 0
            }
          },
          {
            "block_id": 1002,
            "guid": 10043,
            "pos": {
              "x": 27,
              "y": 0,
              "z": 26
            },
            "rot": {
              "x": 0,
              "y": 0,
              "z": 0
            }
          },
          {
            "block_id": 1002,
            "guid": 10020,
            "pos": {
              "x": 11,
              "y": 0,
              "z": 2
            },
            "rot": {
              "x": 0,
              "y": 0,
              "z": 0
            }
          },
          {
            "block_id": 2003,
            "guid": 12072,
            "pos": {
              "x": 22,
              "y": 0,
              "z": 14
            },
            "rot": {
              "x": 0,
              "y": 90,
              "z": 0
            }
          },
          {
            "block_id": 1002,
            "guid": 10051,
            "pos": {
              "x": 20,
              "y": 12,
              "z": 24
            },
            "rot": {
              "x": 0,
              "y": 0,
              "z": 0
            }
          },
          {
            "block_id": 5001,
            "guid": 11063,
            "pos": {
              "x": 5,
              "y": 0,
              "z": 26
            },
            "rot": {
              "x": 0,
              "y": 0,
              "z": 0
            }
          },
          {
            "block_id": 1002,
            "guid": 10028,
            "pos": {
              "x": 5,
              "y": 0,
              "z": 12
            },
            "rot": {
              "x": 0,
              "y": 0,
              "z": 0
            }
          },
          {
            "block_id": 5001,
            "guid": 11062,
            "pos": {
              "x": 5,
              "y": 0,
              "z": 2
            },
            "rot": {
              "x": 0,
              "y": 0,
              "z": 0
            }
          }
        ],
        "room_id": 1
      },
      {
        "block_list": [
          {
            "block_id": 3002,
            "guid": 22031,
            "pos": {
              "x": 25,
              "y": 0,
              "z": 13
            },
            "rot": {
              "x": 0,
              "y": 0,
              "z": 0
            }
          },
          {
            "block_id": 1002,
            "guid": 20010,
            "pos": {
              "x": 12,
              "y": 30,
              "z": 22
            },
            "rot": {
              "x": 0,
              "y": 0,
              "z": 0
            }
          },
          {
            "block_id": 1002,
            "guid": 22029,
            "pos": {
              "x": 11,
              "y": 0,
              "z": 26
            },
            "rot": {
              "x": 0,
              "y": 0,
              "z": 0
            }
          },
          {
            "block_id": 1002,
            "guid": 20008,
            "pos": {
              "x": 16,
              "y": 30,
              "z": 22
            },
            "rot": {
              "x": 0,
              "y": 0,
              "z": 0
            }
          },
          {
            "block_id": 1002,
            "guid": 22028,
            "pos": {
              "x": 13,
              "y": 0,
              "z": 28
            },
            "rot": {
              "x": 0,
              "y": 0,
              "z": 0
            }
          },
          {
            "block_id": 3007,
            "guid": 22025,
            "pos": {
              "x": 23,
              "y": 22,
              "z": 0
            },
            "rot": {
              "x": 0,
              "y": 0,
              "z": 0
            }
          },
          {
            "block_id": 3008,
            "guid": 22023,
            "pos": {
              "x": 1,
              "y": 28,
              "z": 1
            },
            "rot": {
              "x": 0,
              "y": 0,
              "z": 0
            }
          },
          {
            "block_id": 1002,
            "guid": 20002,
            "pos": {
              "x": 22,
              "y": 30,
              "z": 18
            },
            "rot": {
              "x": 0,
              "y": 0,
              "z": 0
            }
          },
          {
            "block_id": 2002,
            "guid": 20022,
            "pos": {
              "x": 0,
              "y": 27,
              "z": 0
            },
            "rot": {
              "x": 0,
              "y": 0,
              "z": 0
            }
          },
          {
            "block_id": 1002,
            "guid": 26038,
            "pos": {
              "x": 11,
              "y": 0,
              "z": 24
            },
            "rot": {
              "x": 0,
              "y": 0,
              "z": 0
            }
          },
          {
            "block_id": 1002,
            "guid": 20019,
            "pos": {
              "x": 0,
              "y": 30,
              "z": 4
            },
            "rot": {
              "x": 0,
              "y": 0,
              "z": 0
            }
          },
          {
            "block_id": 1002,
            "guid": 26035,
            "pos": {
              "x": 9,
              "y": 0,
              "z": 24
            },
            "rot": {
              "x": 0,
              "y": 0,
              "z": 0
            }
          },
          {
            "block_id": 1002,
            "guid": 26037,
            "pos": {
              "x": 15,
              "y": 0,
              "z": 24
            },
            "rot": {
              "x": 0,
              "y": 0,
              "z": 0
            }
          },
          {
            "block_id": 1002,
            "guid": 26039,
            "pos": {
              "x": 12,
              "y": 0,
              "z": 22
            },
            "rot": {
              "x": 0,
              "y": 0,
              "z": 0
            }
          },
          {
            "block_id": 1002,
            "guid": 26057,
            "pos": {
              "x": 12,
              "y": 0,
              "z": 18
            },
            "rot": {
              "x": 0,
              "y": 0,
              "z": 0
            }
          },
          {
            "block_id": 1002,
            "guid": 20011,
            "pos": {
              "x": 10,
              "y": 30,
              "z": 22
            },
            "rot": {
              "x": 0,
              "y": 0,
              "z": 0
            }
          },
          {
            "block_id": 3002,
            "guid": 22032,
            "pos": {
              "x": 25,
              "y": 16,
              "z": 12
            },
            "rot": {
              "x": 0,
              "y": 0,
              "z": 0
            }
          },
          {
            "block_id": 1002,
            "guid": 26058,
            "pos": {
              "x": 14,
              "y": 0,
              "z": 18
            },
            "rot": {
              "x": 0,
              "y": 0,
              "z": 0
            }
          },
          {
            "block_id": 3001,
            "guid": 20015,
            "pos": {
              "x": 7,
              "y": 29,
              "z": 20
            },
            "rot": {
              "x": 0,
              "y": 224,
              "z": 0
            }
          },
          {
            "block_id": 3007,
            "guid": 24033,
            "pos": {
              "x": 15,
              "y": 11,
              "z": 2
            },
            "rot": {
              "x": 0,
              "y": 0,
              "z": 0
            }
          },
          {
            "block_id": 1002,
            "guid": 26054,
            "pos": {
              "x": 12,
              "y": 0,
              "z": 20
            },
            "rot": {
              "x": 0,
              "y": 0,
              "z": 0
            }
          },
          {
            "block_id": 1002,
            "guid": 26043,
            "pos": {
              "x": 17,
              "y": 0,
              "z": 24
            },
            "rot": {
              "x": 0,
              "y": 0,
              "z": 0
            }
          },
          {
            "block_id": 1002,
            "guid": 20017,
            "pos": {
              "x": 0,
              "y": 30,
              "z": 10
            },
            "rot": {
              "x": 0,
              "y": 0,
              "z": 0
            }
          },
          {
            "block_id": 3001,
            "guid": 20016,
            "pos": {
              "x": 0,
              "y": 29,
              "z": 11
            },
            "rot": {
              "x": 0,
              "y": 180,
              "z": 0
            }
          },
          {
            "block_id": 1002,
            "guid": 26055,
            "pos": {
              "x": 14,
              "y": 0,
              "z": 20
            },
            "rot": {
              "x": 0,
              "y": 0,
              "z": 0
            }
          },
          {
            "block_id": 1002,
            "guid": 20009,
            "pos": {
              "x": 14,
              "y": 30,
              "z": 22
            },
            "rot": {
              "x": 0,
              "y": 0,
              "z": 0
            }
          },
          {
            "block_id": 1002,
            "guid": 22030,
            "pos": {
              "x": 15,
              "y": 0,
              "z": 26
            },
            "rot": {
              "x": 0,
              "y": 0,
              "z": 0
            }
          },
          {
            "block_id": 1002,
            "guid": 26040,
            "pos": {
              "x": 14,
              "y": 0,
              "z": 22
            },
            "rot": {
              "x": 0,
              "y": 0,
              "z": 0
            }
          },
          {
            "block_id": 3007,
            "guid": 22026,
            "pos": {
              "x": 22,
              "y": 35,
              "z": 0
            },
            "rot": {
              "x": 0,
              "y": 0,
              "z": 0
            }
          },
          {
            "block_id": 3001,
            "guid": 20000,
            "pos": {
              "x": 22,
              "y": 29,
              "z": 15
            },
            "rot": {
              "x": 0,
              "y": 315,
              "z": 0
            }
          },
          {
            "block_id": 3007,
            "guid": 22024,
            "pos": {
              "x": 12,
              "y": 35,
              "z": 0
            },
            "rot": {
              "x": 0,
              "y": 0,
              "z": 0
            }
          },
          {
            "block_id": 1002,
            "guid": 20003,
            "pos": {
              "x": 20,
              "y": 30,
              "z": 20
            },
            "rot": {
              "x": 0,
              "y": 0,
              "z": 0
            }
          },
          {
            "block_id": 3001,
            "guid": 20006,
            "pos": {
              "x": 17,
              "y": 29,
              "z": 21
            },
            "rot": {
              "x": 0,
              "y": 270,
              "z": 0
            }
          },
          {
            "block_id": 3007,
            "guid": 22027,
            "pos": {
              "x": 13,
              "y": 8,
              "z": 11
            },
            "rot": {
              "x": 0,
              "y": 0,
              "z": 0
            }
          },
          {
            "block_id": 1002,
            "guid": 20018,
            "pos": {
              "x": 0,
              "y": 30,
              "z": 7
            },
            "rot": {
              "x": 0,
              "y": 0,
              "z": 0
            }
          }
        ],
        "room_id": 2
      },
      {
        "block_list": [
          {
            "block_id": 1002,
            "guid": 33072,
            "pos": {
              "x": 18,
              "y": 0,
              "z": 22
            },
            "rot": {
              "x": 0,
              "y": 0,
              "z": 0
            }
          },
          {
            "block_id": 1002,
            "guid": 33071,
            "pos": {
              "x": 16,
              "y": 0,
              "z": 22
            },
            "rot": {
              "x": 0,
              "y": 0,
              "z": 0
            }
          },
          {
            "block_id": 1002,
            "guid": 33064,
            "pos": {
              "x": 25,
              "y": 0,
              "z": 24
            },
            "rot": {
              "x": 0,
              "y": 0,
              "z": 0
            }
          },
          {
            "block_id": 1002,
            "guid": 33063,
            "pos": {
              "x": 23,
              "y": 0,
              "z": 24
            },
            "rot": {
              "x": 0,
              "y": 0,
              "z": 0
            }
          },
          {
            "block_id": 1002,
            "guid": 33062,
            "pos": {
              "x": 21,
              "y": 0,
              "z": 24
            },
            "rot": {
              "x": 0,
              "y": 0,
              "z": 0
            }
          },
          {
            "block_id": 1002,
            "guid": 33056,
            "pos": {
              "x": 9,
              "y": 0,
              "z": 24
            },
            "rot": {
              "x": 0,
              "y": 0,
              "z": 0
            }
          },
          {
            "block_id": 5002,
            "guid": 36160,
            "pos": {
              "x": 16,
              "y": 0,
              "z": 14
            },
            "rot": {
              "x": 0,
              "y": 0,
              "z": 0
            }
          },
          {
            "block_id": 1002,
            "guid": 33053,
            "pos": {
              "x": 28,
              "y": 0,
              "z": 26
            },
            "rot": {
              "x": 0,
              "y": 0,
              "z": 0
            }
          },
          {
            "block_id": 5002,
            "guid": 36157,
            "pos": {
              "x": 10,
              "y": 0,
              "z": 20
            },
            "rot": {
              "x": 0,
              "y": 0,
              "z": 0
            }
          },
          {
            "block_id": 1002,
            "guid": 33052,
            "pos": {
              "x": 26,
              "y": 0,
              "z": 26
            },
            "rot": {
              "x": 0,
              "y": 0,
              "z": 0
            }
          },
          {
            "block_id": 5002,
            "guid": 36156,
            "pos": {
              "x": 8,
              "y": 0,
              "z": 22
            },
            "rot": {
              "x": 0,
              "y": 0,
              "z": 0
            }
          },
          {
            "block_id": 1002,
            "guid": 33051,
            "pos": {
              "x": 24,
              "y": 0,
              "z": 26
            },
            "rot": {
              "x": 0,
              "y": 0,
              "z": 0
            }
          },
          {
            "block_id": 5002,
            "guid": 36155,
            "pos": {
              "x": 7,
              "y": 0,
              "z": 24
            },
            "rot": {
              "x": 0,
              "y": 0,
              "z": 0
            }
          },
          {
            "block_id": 1002,
            "guid": 33050,
            "pos": {
              "x": 22,
              "y": 0,
              "z": 26
            },
            "rot": {
              "x": 0,
              "y": 0,
              "z": 0
            }
          },
          {
            "block_id": 5002,
            "guid": 36154,
            "pos": {
              "x": 6,
              "y": 0,
              "z": 26
            },
            "rot": {
              "x": 0,
              "y": 0,
              "z": 0
            }
          },
          {
            "block_id": 1002,
            "guid": 33049,
            "pos": {
              "x": 20,
              "y": 0,
              "z": 26
            },
            "rot": {
              "x": 0,
              "y": 0,
              "z": 0
            }
          },
          {
            "block_id": 5002,
            "guid": 36153,
            "pos": {
              "x": 7,
              "y": 0,
              "z": 28
            },
            "rot": {
              "x": 0,
              "y": 0,
              "z": 0
            }
          },
          {
            "block_id": 1002,
            "guid": 33047,
            "pos": {
              "x": 16,
              "y": 0,
              "z": 26
            },
            "rot": {
              "x": 0,
              "y": 0,
              "z": 0
            }
          },
          {
            "block_id": 5002,
            "guid": 36151,
            "pos": {
              "x": 18,
              "y": 0,
              "z": 12
            },
            "rot": {
              "x": 0,
              "y": 0,
              "z": 0
            }
          },
          {
            "block_id": 4015,
            "guid": 33020,
            "pos": {
              "x": 26,
              "y": 2,
              "z": 34
            },
            "rot": {
              "x": 0,
              "y": 270,
              "z": 0
            }
          },
          {
            "block_id": 1002,
            "guid": 33117,
            "pos": {
              "x": 18,
              "y": 0,
              "z": 20
            },
            "rot": {
              "x": 0,
              "y": 0,
              "z": 0
            }
          },
          {
            "block_id": 1002,
            "guid": 33043,
            "pos": {
              "x": 8,
              "y": 0,
              "z": 26
            },
            "rot": {
              "x": 0,
              "y": 0,
              "z": 0
            }
          },
          {
            "block_id": 5002,
            "guid": 36147,
            "pos": {
              "x": 26,
              "y": 0,
              "z": 20
            },
            "rot": {
              "x": 0,
              "y": 0,
              "z": 0
            }
          },
          {
            "block_id": 4015,
            "guid": 33014,
            "pos": {
              "x": 2,
              "y": 0,
              "z": 34
            },
            "rot": {
              "x": 0,
              "y": 90,
              "z": 0
            }
          },
          {
            "block_id": 1002,
            "guid": 33037,
            "pos": {
              "x": 23,
              "y": 0,
              "z": 28
            },
            "rot": {
              "x": 0,
              "y": 0,
              "z": 0
            }
          },
          {
            "block_id": 5002,
            "guid": 36141,
            "pos": {
              "x": 25,
              "y": 0,
              "z": 30
            },
            "rot": {
              "x": 0,
              "y": 0,
              "z": 0
            }
          },
          {
            "block_id": 1002,
            "guid": 33060,
            "pos": {
              "x": 17,
              "y": 0,
              "z": 24
            },
            "rot": {
              "x": 0,
              "y": 0,
              "z": 0
            }
          },
          {
            "block_id": 4015,
            "guid": 33013,
            "pos": {
              "x": 4,
              "y": 0,
              "z": 36
            },
            "rot": {
              "x": 0,
              "y": 90,
              "z": 0
            }
          },
          {
            "block_id": 4015,
            "guid": 33019,
            "pos": {
              "x": 24,
              "y": 2,
              "z": 36
            },
            "rot": {
              "x": 0,
              "y": 270,
              "z": 0
            }
          },
          {
            "block_id": 1002,
            "guid": 33116,
            "pos": {
              "x": 16,
              "y": 0,
              "z": 20
            },
            "rot": {
              "x": 0,
              "y": 0,
              "z": 0
            }
          },
          {
            "block_id": 4015,
            "guid": 33008,
            "pos": {
              "x": 22,
              "y": 0,
              "z": 38
            },
            "rot": {
              "x": 0,
              "y": 270,
              "z": 0
            }
          },
          {
            "block_id": 1002,
            "guid": 33065,
            "pos": {
              "x": 27,
              "y": 0,
              "z": 24
            },
            "rot": {
              "x": 0,
              "y": 0,
              "z": 0
            }
          },
          {
            "block_id": 4015,
            "guid": 33018,
            "pos": {
              "x": 22,
              "y": 2,
              "z": 38
            },
            "rot": {
              "x": 0,
              "y": 270,
              "z": 0
            }
          },
          {
            "block_id": 1002,
            "guid": 33115,
            "pos": {
              "x": 14,
              "y": 0,
              "z": 20
            },
            "rot": {
              "x": 0,
              "y": 0,
              "z": 0
            }
          },
          {
            "block_id": 1001,
            "guid": 33007,
            "pos": {
              "x": 16,
              "y": 0,
              "z": 35
            },
            "rot": {
              "x": 0,
              "y": 0,
              "z": 0
            }
          },
          {
            "block_id": 1002,
            "guid": 33030,
            "pos": {
              "x": 27,
              "y": 0,
              "z": 28
            },
            "rot": {
              "x": 0,
              "y": 0,
              "z": 0
            }
          },
          {
            "block_id": 5002,
            "guid": 36134,
            "pos": {
              "x": 13,
              "y": 0,
              "z": 30
            },
            "rot": {
              "x": 0,
              "y": 0,
              "z": 0
            }
          },
          {
            "block_id": 1002,
            "guid": 33059,
            "pos": {
              "x": 15,
              "y": 0,
              "z": 24
            },
            "rot": {
              "x": 0,
              "y": 0,
              "z": 0
            }
          },
          {
            "block_id": 4015,
            "guid": 33012,
            "pos": {
              "x": 6,
              "y": 0,
              "z": 38
            },
            "rot": {
              "x": 0,
              "y": 90,
              "z": 0
            }
          },
          {
            "block_id": 1002,
            "guid": 33068,
            "pos": {
              "x": 10,
              "y": 0,
              "z": 22
            },
            "rot": {
              "x": 0,
              "y": 0,
              "z": 0
            }
          },
          {
            "block_id": 4015,
            "guid": 33021,
            "pos": {
              "x": 6,
              "y": 2,
              "z": 38
            },
            "rot": {
              "x": 0,
              "y": 90,
              "z": 0
            }
          },
          {
            "block_id": 1002,
            "guid": 33118,
            "pos": {
              "x": 20,
              "y": 0,
              "z": 20
            },
            "rot": {
              "x": 0,
              "y": 0,
              "z": 0
            }
          },
          {
            "block_id": 1002,
            "guid": 33076,
            "pos": {
              "x": 26,
              "y": 0,
              "z": 22
            },
            "rot": {
              "x": 0,
              "y": 0,
              "z": 0
            }
          },
          {
            "block_id": 1002,
            "guid": 33029,
            "pos": {
              "x": 25,
              "y": 0,
              "z": 28
            },
            "rot": {
              "x": 0,
              "y": 0,
              "z": 0
            }
          },
          {
            "block_id": 5002,
            "guid": 36133,
            "pos": {
              "x": 11,
              "y": 0,
              "z": 30
            },
            "rot": {
              "x": 0,
              "y": 0,
              "z": 0
            }
          },
          {
            "block_id": 1002,
            "guid": 33090,
            "pos": {
              "x": 14,
              "y": 0,
              "z": 18
            },
            "rot": {
              "x": 0,
              "y": 0,
              "z": 0
            }
          },
          {
            "block_id": 5002,
            "guid": 36145,
            "pos": {
              "x": 29,
              "y": 0,
              "z": 24
            },
            "rot": {
              "x": 0,
              "y": 0,
              "z": 0
            }
          },
          {
            "block_id": 1002,
            "guid": 33092,
            "pos": {
              "x": 18,
              "y": 0,
              "z": 18
            },
            "rot": {
              "x": 0,
              "y": 0,
              "z": 0
            }
          },
          {
            "block_id": 1002,
            "guid": 33094,
            "pos": {
              "x": 22,
              "y": 0,
              "z": 18
            },
            "rot": {
              "x": 0,
              "y": 0,
              "z": 0
            }
          },
          {
            "block_id": 1002,
            "guid": 33045,
            "pos": {
              "x": 12,
              "y": 0,
              "z": 26
            },
            "rot": {
              "x": 0,
              "y": 0,
              "z": 0
            }
          },
          {
            "block_id": 5002,
            "guid": 36149,
            "pos": {
              "x": 22,
              "y": 0,
              "z": 16
            },
            "rot": {
              "x": 0,
              "y": 0,
              "z": 0
            }
          },
          {
            "block_id": 1002,
            "guid": 33101,
            "pos": {
              "x": 20,
              "y": 0,
              "z": 16
            },
            "rot": {
              "x": 0,
              "y": 0,
              "z": 0
            }
          },
          {
            "block_id": 1002,
            "guid": 33091,
            "pos": {
              "x": 16,
              "y": 0,
              "z": 18
            },
            "rot": {
              "x": 0,
              "y": 0,
              "z": 0
            }
          },
          {
            "block_id": 5002,
            "guid": 36146,
            "pos": {
              "x": 28,
              "y": 0,
              "z": 22
            },
            "rot": {
              "x": 0,
              "y": 0,
              "z": 0
            }
          },
          {
            "block_id": 1002,
            "guid": 33114,
            "pos": {
              "x": 12,
              "y": 0,
              "z": 20
            },
            "rot": {
              "x": 0,
              "y": 0,
              "z": 0
            }
          },
          {
            "block_id": 1002,
            "guid": 33093,
            "pos": {
              "x": 20,
              "y": 0,
              "z": 18
            },
            "rot": {
              "x": 0,
              "y": 0,
              "z": 0
            }
          },
          {
            "block_id": 1002,
            "guid": 33044,
            "pos": {
              "x": 10,
              "y": 0,
              "z": 26
            },
            "rot": {
              "x": 0,
              "y": 0,
              "z": 0
            }
          },
          {
            "block_id": 5002,
            "guid": 36148,
            "pos": {
              "x": 24,
              "y": 0,
              "z": 18
            },
            "rot": {
              "x": 0,
              "y": 0,
              "z": 0
            }
          },
          {
            "block_id": 5002,
            "guid": 36152,
            "pos": {
              "x": 18,
              "y": 0,
              "z": 26
            },
            "rot": {
              "x": 0,
              "y": 0,
              "z": 0
            }
          },
          {
            "block_id": 1002,
            "guid": 33100,
            "pos": {
              "x": 18,
              "y": 0,
              "z": 16
            },
            "rot": {
              "x": 0,
              "y": 0,
              "z": 0
            }
          },
          {
            "block_id": 5002,
            "guid": 36159,
            "pos": {
              "x": 14,
              "y": 0,
              "z": 16
            },
            "rot": {
              "x": 0,
              "y": 0,
              "z": 0
            }
          },
          {
            "block_id": 4015,
            "guid": 33010,
            "pos": {
              "x": 24,
              "y": 0,
              "z": 36
            },
            "rot": {
              "x": 0,
              "y": 270,
              "z": 0
            }
          },
          {
            "block_id": 1002,
            "guid": 33057,
            "pos": {
              "x": 11,
              "y": 0,
              "z": 24
            },
            "rot": {
              "x": 0,
              "y": 0,
              "z": 0
            }
          },
          {
            "block_id": 1002,
            "guid": 33099,
            "pos": {
              "x": 16,
              "y": 0,
              "z": 16
            },
            "rot": {
              "x": 0,
              "y": 0,
              "z": 0
            }
          },
          {
            "block_id": 5002,
            "guid": 36135,
            "pos": {
              "x": 15,
              "y": 0,
              "z": 28
            },
            "rot": {
              "x": 0,
              "y": 0,
              "z": 0
            }
          },
          {
            "block_id": 5002,
            "guid": 36158,
            "pos": {
              "x": 12,
              "y": 0,
              "z": 18
            },
            "rot": {
              "x": 0,
              "y": 0,
              "z": 0
            }
          },
          {
            "block_id": 5002,
            "guid": 36144,
            "pos": {
              "x": 30,
              "y": 0,
              "z": 26
            },
            "rot": {
              "x": 0,
              "y": 0,
              "z": 0
            }
          },
          {
            "block_id": 5002,
            "guid": 36143,
            "pos": {
              "x": 29,
              "y": 0,
              "z": 28
            },
            "rot": {
              "x": 0,
              "y": 0,
              "z": 0
            }
          },
          {
            "block_id": 1002,
            "guid": 33106,
            "pos": {
              "x": 18,
              "y": 0,
              "z": 14
            },
            "rot": {
              "x": 0,
              "y": 0,
              "z": 0
            }
          },
          {
            "block_id": 5002,
            "guid": 36142,
            "pos": {
              "x": 27,
              "y": 0,
              "z": 30
            },
            "rot": {
              "x": 0,
              "y": 0,
              "z": 0
            }
          },
          {
            "block_id": 5002,
            "guid": 36140,
            "pos": {
              "x": 23,
              "y": 0,
              "z": 30
            },
            "rot": {
              "x": 0,
              "y": 0,
              "z": 0
            }
          },
          {
            "block_id": 5002,
            "guid": 36139,
            "pos": {
              "x": 21,
              "y": 0,
              "z": 28
            },
            "rot": {
              "x": 0,
              "y": 0,
              "z": 0
            }
          },
          {
            "block_id": 5002,
            "guid": 36132,
            "pos": {
              "x": 9,
              "y": 0,
              "z": 30
            },
            "rot": {
              "x": 0,
              "y": 0,
              "z": 0
            }
          },
          {
            "block_id": 1002,
            "guid": 33028,
            "pos": {
              "x": 13,
              "y": 0,
              "z": 28
            },
            "rot": {
              "x": 0,
              "y": 0,
              "z": 0
            }
          },
          {
            "block_id": 1002,
            "guid": 33075,
            "pos": {
              "x": 24,
              "y": 0,
              "z": 22
            },
            "rot": {
              "x": 0,
              "y": 0,
              "z": 0
            }
          },
          {
            "block_id": 1002,
            "guid": 36131,
            "pos": {
              "x": 19,
              "y": 0,
              "z": 24
            },
            "rot": {
              "x": 0,
              "y": 0,
              "z": 0
            }
          },
          {
            "block_id": 1002,
            "guid": 33027,
            "pos": {
              "x": 11,
              "y": 0,
              "z": 28
            },
            "rot": {
              "x": 0,
              "y": 0,
              "z": 0
            }
          },
          {
            "block_id": 1002,
            "guid": 33074,
            "pos": {
              "x": 22,
              "y": 0,
              "z": 22
            },
            "rot": {
              "x": 0,
              "y": 0,
              "z": 0
            }
          },
          {
            "block_id": 1002,
            "guid": 33026,
            "pos": {
              "x": 9,
              "y": 0,
              "z": 28
            },
            "rot": {
              "x": 0,
              "y": 0,
              "z": 0
            }
          },
          {
            "block_id": 1002,
            "guid": 33073,
            "pos": {
              "x": 20,
              "y": 0,
              "z": 22
            },
            "rot": {
              "x": 0,
              "y": 0,
              "z": 0
            }
          },
          {
            "block_id": 1002,
            "guid": 33046,
            "pos": {
              "x": 14,
              "y": 0,
              "z": 26
            },
            "rot": {
              "x": 0,
              "y": 0,
              "z": 0
            }
          },
          {
            "block_id": 5002,
            "guid": 36150,
            "pos": {
              "x": 20,
              "y": 0,
              "z": 14
            },
            "rot": {
              "x": 0,
              "y": 0,
              "z": 0
            }
          },
          {
            "block_id": 1002,
            "guid": 33120,
            "pos": {
              "x": 24,
              "y": 0,
              "z": 20
            },
            "rot": {
              "x": 0,
              "y": 0,
              "z": 0
            }
          },
          {
            "block_id": 4015,
            "guid": 33023,
            "pos": {
              "x": 4,
              "y": 2,
              "z": 36
            },
            "rot": {
              "x": 0,
              "y": 90,
              "z": 0
            }
          },
          {
            "block_id": 1002,
            "guid": 33070,
            "pos": {
              "x": 14,
              "y": 0,
              "z": 22
            },
            "rot": {
              "x": 0,
              "y": 0,
              "z": 0
            }
          },
          {
            "block_id": 1002,
            "guid": 33119,
            "pos": {
              "x": 22,
              "y": 0,
              "z": 20
            },
            "rot": {
              "x": 0,
              "y": 0,
              "z": 0
            }
          },
          {
            "block_id": 4015,
            "guid": 33022,
            "pos": {
              "x": 2,
              "y": 2,
              "z": 34
            },
            "rot": {
              "x": 0,
              "y": 90,
              "z": 0
            }
          },
          {
            "block_id": 1002,
            "guid": 33069,
            "pos": {
              "x": 12,
              "y": 0,
              "z": 22
            },
            "rot": {
              "x": 0,
              "y": 0,
              "z": 0
            }
          },
          {
            "block_id": 4015,
            "guid": 33011,
            "pos": {
              "x": 26,
              "y": 0,
              "z": 34
            },
            "rot": {
              "x": 0,
              "y": 270,
              "z": 0
            }
          },
          {
            "block_id": 1002,
            "guid": 33058,
            "pos": {
              "x": 13,
              "y": 0,
              "z": 24
            },
            "rot": {
              "x": 0,
              "y": 0,
              "z": 0
            }
          }
        ],
        "room_id": 3
      }
    ],
    "setting": {
      "coin_limit": 99,
      "is_arrive_finish": true,
      "is_forbid_skill": false,
      "life_num": 3,
      "open_room_list": [1, 2, 3],
      "start_room_id": 0,
      "time_limit": 0
    },
    "version": 0
  },
  "dungeon_brief": {
    "abstract": {
      "brick_statistics_map": {
        "1001": 1,
        "1002": 99,
        "3001": 5,
        "3002": 3,
        "3005": 6,
        "3007": 5,
        "4015": 12,
        "5001": 5,
        "5002": 26
      },
      "finish_room_id": 3,
      "first_publish_time": 1641377541,
      "last_publish_time": 1641377541,
      "total_coin_num": 99
    },
    "creator_nickname": "飞天小鱼",
    "dungeon_guid": "38655081129",
    "dungeon_id": 2114,
    "is_need_recommend": true,
    "is_psn_platform": false,
    "recommend_score": 250,
    "recommend_type": 0,
    "setting": {
      "coin_limit": 99,
      "is_arrive_finish": true,
      "is_forbid_skill": false,
      "life_num": 3,
      "open_room_list": [1, 2, 3],
      "start_room_id": 0,
      "time_limit": 0
    },
    "social": {
      "like_num": 6,
      "play_num": 11,
      "store_num": 1,
      "win_num": 9
    },
    "tag_list": [1, 3, 9]
  }
}
